(export (version D)
  (design
    (source C:\Users\password\Documents\Projects\kicad\esplamp\esplamp.sch)
    (date "2020/09/27 12:47:56")
    (tool "Eeschema (5.1.6)-1")
    (sheet (number 1) (name /) (tstamps /)
      (title_block
        (title)
        (company)
        (rev)
        (date)
        (source esplamp.sch)
        (comment (number 1) (value ""))
        (comment (number 2) (value ""))
        (comment (number 3) (value ""))
        (comment (number 4) (value "")))))
  (components
    (comp (ref Q1)
      (value IRFR3708)
      (footprint esp32:TO-252)
      (libsource (lib esplamp-rescue) (part IRFR3708) (description ""))
      (sheetpath (names /) (tstamps /))
      (tstamp 5AA41475))
    (comp (ref U1)
      (value ESP-WROOM-32)
      (footprint esp32:esp32)
      (libsource (lib esplamp-rescue) (part ESP-WROOM-32) (description ""))
      (sheetpath (names /) (tstamps /))
      (tstamp 5AA41E56))
    (comp (ref C3)
      (value 10uF)
      (footprint Capacitor_THT:CP_Radial_D4.0mm_P2.00mm)
      (libsource (lib esplamp-rescue) (part C) (description ""))
      (sheetpath (names /) (tstamps /))
      (tstamp 5AB91873))
    (comp (ref C2)
      (value 0.1uF)
      (footprint Capacitor_SMD:C_0805_2012Metric)
      (libsource (lib esplamp-rescue) (part C) (description ""))
      (sheetpath (names /) (tstamps /))
      (tstamp 5AB91912))
    (comp (ref C1)
      (value 0.1uF)
      (footprint Capacitor_SMD:C_0805_2012Metric)
      (libsource (lib esplamp-rescue) (part C) (description ""))
      (sheetpath (names /) (tstamps /))
      (tstamp 5AB919AB))
    (comp (ref R1)
      (value 10k)
      (footprint Resistor_SMD:R_0603_1608Metric_Pad1.05x0.95mm_HandSolder)
      (libsource (lib esplamp-rescue) (part R) (description ""))
      (sheetpath (names /) (tstamps /))
      (tstamp 5AB91C63))
    (comp (ref P3)
      (value LED4)
      (footprint esp32:TerminalPluggable)
      (libsource (lib esplamp-rescue) (part CONN_01X02) (description ""))
      (sheetpath (names /) (tstamps /))
      (tstamp 5AB93731))
    (comp (ref D5)
      (value LED)
      (footprint LED_SMD:LED_0603_1608Metric)
      (datasheet ~)
      (libsource (lib Device) (part LED) (description "Light emitting diode"))
      (sheetpath (names /) (tstamps /))
      (tstamp 5B60E6DC))
    (comp (ref SW2)
      (value SW_Push)
      (footprint Button_Switch_THT:SW_PUSH_6mm_H5mm)
      (libsource (lib Switch) (part SW_Push) (description "Push button switch, generic, two pins"))
      (sheetpath (names /) (tstamps /))
      (tstamp 5B6149A8))
    (comp (ref SW3)
      (value SW_Push)
      (footprint Button_Switch_THT:SW_PUSH_6mm_H5mm)
      (libsource (lib Switch) (part SW_Push) (description "Push button switch, generic, two pins"))
      (sheetpath (names /) (tstamps /))
      (tstamp 5B614A62))
    (comp (ref SW1)
      (value Reset)
      (footprint Button_Switch_THT:SW_PUSH_6mm_H5mm)
      (libsource (lib Switch) (part SW_Push) (description "Push button switch, generic, two pins"))
      (sheetpath (names /) (tstamps /))
      (tstamp 5B614B24))
    (comp (ref R3)
      (value 12k)
      (footprint Resistor_SMD:R_0603_1608Metric_Pad1.05x0.95mm_HandSolder)
      (datasheet ~)
      (libsource (lib Device) (part R) (description Resistor))
      (sheetpath (names /) (tstamps /))
      (tstamp 5B65C774))
    (comp (ref R2)
      (value 12K)
      (footprint Resistor_SMD:R_0603_1608Metric_Pad1.05x0.95mm_HandSolder)
      (datasheet ~)
      (libsource (lib Device) (part R) (description Resistor))
      (sheetpath (names /) (tstamps /))
      (tstamp 5C451F2E))
    (comp (ref D1)
      (value D)
      (footprint Diode_SMD:D_SMA)
      (libsource (lib esplamp-rescue) (part D) (description ""))
      (sheetpath (names /) (tstamps /))
      (tstamp 5AB9D177))
    (comp (ref R4)
      (value 10K)
      (footprint Resistor_SMD:R_0603_1608Metric_Pad1.05x0.95mm_HandSolder)
      (datasheet ~)
      (libsource (lib Device) (part R) (description Resistor))
      (sheetpath (names /) (tstamps /))
      (tstamp 5C50BBF9))
    (comp (ref Q8)
      (value IRFR3708)
      (footprint esp32:TO-252)
      (libsource (lib esplamp-rescue) (part IRFR3708) (description ""))
      (sheetpath (names /) (tstamps /))
      (tstamp 5C526FB5))
    (comp (ref P6)
      (value LED4)
      (footprint esp32:TerminalPluggable)
      (libsource (lib esplamp-rescue) (part CONN_01X02) (description ""))
      (sheetpath (names /) (tstamps /))
      (tstamp 5C526FBC))
    (comp (ref D6)
      (value LED)
      (footprint LED_SMD:LED_0603_1608Metric)
      (datasheet ~)
      (libsource (lib Device) (part LED) (description "Light emitting diode"))
      (sheetpath (names /) (tstamps /))
      (tstamp 5C526FCA))
    (comp (ref R13)
      (value 12k)
      (footprint Resistor_SMD:R_0603_1608Metric_Pad1.05x0.95mm_HandSolder)
      (datasheet ~)
      (libsource (lib Device) (part R) (description Resistor))
      (sheetpath (names /) (tstamps /))
      (tstamp 5C526FD1))
    (comp (ref R11)
      (value 12K)
      (footprint Resistor_SMD:R_0603_1608Metric_Pad1.05x0.95mm_HandSolder)
      (datasheet ~)
      (libsource (lib Device) (part R) (description Resistor))
      (sheetpath (names /) (tstamps /))
      (tstamp 5C526FDF))
    (comp (ref D8)
      (value D)
      (footprint Diode_SMD:D_SMA)
      (libsource (lib esplamp-rescue) (part D) (description ""))
      (sheetpath (names /) (tstamps /))
      (tstamp 5C526FE7))
    (comp (ref R9)
      (value 10K)
      (footprint Resistor_SMD:R_0603_1608Metric_Pad1.05x0.95mm_HandSolder)
      (datasheet ~)
      (libsource (lib Device) (part R) (description Resistor))
      (sheetpath (names /) (tstamps /))
      (tstamp 5C527000))
    (comp (ref Q4)
      (value IRFR3708)
      (footprint esp32:TO-252)
      (libsource (lib esplamp-rescue) (part IRFR3708) (description ""))
      (sheetpath (names /) (tstamps /))
      (tstamp 5C52EF3D))
    (comp (ref P4)
      (value LED4)
      (footprint esp32:TerminalPluggable)
      (libsource (lib esplamp-rescue) (part CONN_01X02) (description ""))
      (sheetpath (names /) (tstamps /))
      (tstamp 5C52EF44))
    (comp (ref D2)
      (value LED)
      (footprint LED_SMD:LED_0603_1608Metric)
      (datasheet ~)
      (libsource (lib Device) (part LED) (description "Light emitting diode"))
      (sheetpath (names /) (tstamps /))
      (tstamp 5C52EF52))
    (comp (ref R7)
      (value R)
      (footprint Resistor_SMD:R_0603_1608Metric_Pad1.05x0.95mm_HandSolder)
      (datasheet ~)
      (libsource (lib Device) (part R) (description Resistor))
      (sheetpath (names /) (tstamps /))
      (tstamp 5C52EF59))
    (comp (ref R6)
      (value 12K)
      (footprint Resistor_SMD:R_0603_1608Metric_Pad1.05x0.95mm_HandSolder)
      (datasheet ~)
      (libsource (lib Device) (part R) (description Resistor))
      (sheetpath (names /) (tstamps /))
      (tstamp 5C52EF67))
    (comp (ref D3)
      (value D)
      (footprint Diode_SMD:D_SMA)
      (libsource (lib esplamp-rescue) (part D) (description ""))
      (sheetpath (names /) (tstamps /))
      (tstamp 5C52EF6F))
    (comp (ref R5)
      (value 10K)
      (footprint Resistor_SMD:R_0603_1608Metric_Pad1.05x0.95mm_HandSolder)
      (datasheet ~)
      (libsource (lib Device) (part R) (description Resistor))
      (sheetpath (names /) (tstamps /))
      (tstamp 5C52EF88))
    (comp (ref Q7)
      (value IRFR3708)
      (footprint esp32:TO-252)
      (libsource (lib esplamp-rescue) (part IRFR3708) (description ""))
      (sheetpath (names /) (tstamps /))
      (tstamp 5C531E9F))
    (comp (ref P5)
      (value LED4)
      (footprint esp32:TerminalPluggable)
      (libsource (lib esplamp-rescue) (part CONN_01X02) (description ""))
      (sheetpath (names /) (tstamps /))
      (tstamp 5C531EA6))
    (comp (ref D4)
      (value LED)
      (footprint LED_SMD:LED_0603_1608Metric)
      (datasheet ~)
      (libsource (lib Device) (part LED) (description "Light emitting diode"))
      (sheetpath (names /) (tstamps /))
      (tstamp 5C531EB4))
    (comp (ref R12)
      (value 12k)
      (footprint Resistor_SMD:R_0603_1608Metric_Pad1.05x0.95mm_HandSolder)
      (datasheet ~)
      (libsource (lib Device) (part R) (description Resistor))
      (sheetpath (names /) (tstamps /))
      (tstamp 5C531EBB))
    (comp (ref R10)
      (value 12K)
      (footprint Resistor_SMD:R_0603_1608Metric_Pad1.05x0.95mm_HandSolder)
      (datasheet ~)
      (libsource (lib Device) (part R) (description Resistor))
      (sheetpath (names /) (tstamps /))
      (tstamp 5C531EC9))
    (comp (ref D7)
      (value D)
      (footprint Diode_SMD:D_SMA)
      (libsource (lib esplamp-rescue) (part D) (description ""))
      (sheetpath (names /) (tstamps /))
      (tstamp 5C531ED1))
    (comp (ref R8)
      (value 10K)
      (footprint Resistor_SMD:R_0603_1608Metric_Pad1.05x0.95mm_HandSolder)
      (datasheet ~)
      (libsource (lib Device) (part R) (description Resistor))
      (sheetpath (names /) (tstamps /))
      (tstamp 5C531EEA))
    (comp (ref D9)
      (value LED)
      (footprint LED_SMD:LED_0603_1608Metric)
      (datasheet ~)
      (libsource (lib Device) (part LED) (description "Light emitting diode"))
      (sheetpath (names /) (tstamps /))
      (tstamp 5C4B581A))
    (comp (ref R18)
      (value 12K)
      (footprint Resistor_SMD:R_0603_1608Metric_Pad1.05x0.95mm_HandSolder)
      (datasheet ~)
      (libsource (lib Device) (part R) (description Resistor))
      (sheetpath (names /) (tstamps /))
      (tstamp 5C4B58A4))
    (comp (ref R16)
      (value 100k)
      (footprint Resistor_SMD:R_0603_1608Metric_Pad1.05x0.95mm_HandSolder)
      (datasheet ~)
      (libsource (lib Device) (part R) (description Resistor))
      (sheetpath (names /) (tstamps /))
      (tstamp 5CFE8D34))
    (comp (ref R15)
      (value 100k)
      (footprint Resistor_SMD:R_0603_1608Metric_Pad1.05x0.95mm_HandSolder)
      (datasheet ~)
      (libsource (lib Device) (part R) (description Resistor))
      (sheetpath (names /) (tstamps /))
      (tstamp 5CFE8DBE))
    (comp (ref J1)
      (value "Generic IO1")
      (footprint Connector_PinHeader_2.54mm:PinHeader_1x06_P2.54mm_Vertical)
      (datasheet ~)
      (libsource (lib Connector) (part Conn_01x06_Male) (description "Generic connector, single row, 01x06, script generated (kicad-library-utils/schlib/autogen/connector/)"))
      (sheetpath (names /) (tstamps /))
      (tstamp 5D04E407))
    (comp (ref J2)
      (value "Generic IO2")
      (footprint Connector_PinHeader_2.54mm:PinHeader_1x06_P2.54mm_Vertical)
      (datasheet ~)
      (libsource (lib Connector) (part Conn_01x06_Male) (description "Generic connector, single row, 01x06, script generated (kicad-library-utils/schlib/autogen/connector/)"))
      (sheetpath (names /) (tstamps /))
      (tstamp 5D04E4A5))
    (comp (ref P8)
      (value POWAH)
      (footprint esp32:TerminalPluggable)
      (libsource (lib esplamp-rescue) (part CONN_01X02) (description ""))
      (sheetpath (names /) (tstamps /))
      (tstamp 5D11C031))
    (comp (ref P7)
      (value POWAH)
      (footprint esp32:TerminalPluggable)
      (libsource (lib esplamp-rescue) (part CONN_01X02) (description ""))
      (sheetpath (names /) (tstamps /))
      (tstamp 5D12258F))
    (comp (ref P12)
      (value "Generic IO4")
      (footprint Connector_PinHeader_2.54mm:PinHeader_1x03_P2.54mm_Vertical)
      (libsource (lib esplamp-rescue) (part CONN_01X03) (description ""))
      (sheetpath (names /) (tstamps /))
      (tstamp 5D12CA38))
    (comp (ref P10)
      (value "Generic IO3")
      (footprint Connector_PinHeader_2.54mm:PinHeader_1x03_P2.54mm_Vertical)
      (libsource (lib esplamp-rescue) (part CONN_01X03) (description ""))
      (sheetpath (names /) (tstamps /))
      (tstamp 5D12CADE))
    (comp (ref SW4)
      (value SW_Push)
      (footprint Button_Switch_THT:SW_PUSH_6mm_H5mm)
      (libsource (lib Switch) (part SW_Push) (description "Push button switch, generic, two pins"))
      (sheetpath (names /) (tstamps /))
      (tstamp 5D14430A))
    (comp (ref R14)
      (value 100k)
      (footprint Resistor_SMD:R_0603_1608Metric_Pad1.05x0.95mm_HandSolder)
      (datasheet ~)
      (libsource (lib Device) (part R) (description Resistor))
      (sheetpath (names /) (tstamps /))
      (tstamp 5D144398))
    (comp (ref P9)
      (value CONN_01X02)
      (footprint Connector_PinHeader_2.54mm:PinHeader_1x02_P2.54mm_Vertical)
      (libsource (lib esplamp-rescue) (part CONN_01X02) (description ""))
      (sheetpath (names /) (tstamps /))
      (tstamp 5D1F4022))
    (comp (ref J3)
      (value Conn_01x06)
      (footprint Connector_PinHeader_2.54mm:PinHeader_1x06_P2.54mm_Vertical)
      (datasheet ~)
      (libsource (lib Connector_Generic) (part Conn_01x06) (description "Generic connector, single row, 01x06, script generated (kicad-library-utils/schlib/autogen/connector/)"))
      (sheetpath (names /) (tstamps /))
      (tstamp 5D767E4C))
    (comp (ref P2)
      (value CONN_01X02)
      (footprint Connector_PinHeader_2.54mm:PinHeader_1x02_P2.54mm_Vertical)
      (libsource (lib esplamp-rescue) (part CONN_01X02) (description ""))
      (sheetpath (names /) (tstamps /))
      (tstamp 5F75858D))
    (comp (ref U2)
      (value LM2596_MODULE)
      (footprint esp32:LM2596_MODULE)
      (libsource (lib esplamp-rescue) (part LM2596_MODULE) (description ""))
      (sheetpath (names /) (tstamps /))
      (tstamp 5ACA6987))
    (comp (ref Q5)
      (value MMBT2222A)
      (footprint Package_TO_SOT_SMD:SOT-23)
      (datasheet http://www.fairchildsemi.com/ds/PN/PN2222A.pdf)
      (libsource (lib esplamp-rescue) (part MMBT2222A) (description "1A Ic, 40V Vce, NPN Transistor, General Purpose Transistor, TO-92"))
      (sheetpath (names /) (tstamps /))
      (tstamp 5F9747E5))
    (comp (ref Q2)
      (value MMBT2222A)
      (footprint Package_TO_SOT_SMD:SOT-23)
      (datasheet http://www.fairchildsemi.com/ds/PN/PN2222A.pdf)
      (libsource (lib esplamp-rescue) (part MMBT2222A) (description "1A Ic, 40V Vce, NPN Transistor, General Purpose Transistor, TO-92"))
      (sheetpath (names /) (tstamps /))
      (tstamp 5F975A8A))
    (comp (ref Q3)
      (value MMBT2222A)
      (footprint Package_TO_SOT_SMD:SOT-23)
      (datasheet http://www.fairchildsemi.com/ds/PN/PN2222A.pdf)
      (libsource (lib esplamp-rescue) (part MMBT2222A) (description "1A Ic, 40V Vce, NPN Transistor, General Purpose Transistor, TO-92"))
      (sheetpath (names /) (tstamps /))
      (tstamp 5F9760FD))
    (comp (ref Q6)
      (value MMBT2222A)
      (footprint Package_TO_SOT_SMD:SOT-23)
      (datasheet http://www.fairchildsemi.com/ds/PN/PN2222A.pdf)
      (libsource (lib esplamp-rescue) (part MMBT2222A) (description "1A Ic, 40V Vce, NPN Transistor, General Purpose Transistor, TO-92"))
      (sheetpath (names /) (tstamps /))
      (tstamp 5F976C5F))
    (comp (ref Q11)
      (value MMBT2222A)
      (footprint Package_TO_SOT_SMD:SOT-23)
      (datasheet http://www.fairchildsemi.com/ds/PN/PN2222A.pdf)
      (libsource (lib esplamp-rescue) (part MMBT2222A) (description "1A Ic, 40V Vce, NPN Transistor, General Purpose Transistor, TO-92"))
      (sheetpath (names /) (tstamps /))
      (tstamp 5F985E06))
    (comp (ref Q10)
      (value MMBT2222A)
      (footprint Package_TO_SOT_SMD:SOT-23)
      (datasheet http://www.fairchildsemi.com/ds/PN/PN2222A.pdf)
      (libsource (lib esplamp-rescue) (part MMBT2222A) (description "1A Ic, 40V Vce, NPN Transistor, General Purpose Transistor, TO-92"))
      (sheetpath (names /) (tstamps /))
      (tstamp 5F9864D8))
    (comp (ref R20)
      (value 10K)
      (footprint Resistor_SMD:R_0603_1608Metric_Pad1.05x0.95mm_HandSolder)
      (datasheet ~)
      (libsource (lib Device) (part R) (description Resistor))
      (sheetpath (names /) (tstamps /))
      (tstamp 5F99FAD9))
    (comp (ref R19)
      (value 10K)
      (footprint Resistor_SMD:R_0603_1608Metric_Pad1.05x0.95mm_HandSolder)
      (datasheet ~)
      (libsource (lib Device) (part R) (description Resistor))
      (sheetpath (names /) (tstamps /))
      (tstamp 5F9A0198))
    (comp (ref R17)
      (value 500)
      (footprint Resistor_SMD:R_0603_1608Metric_Pad1.05x0.95mm_HandSolder)
      (datasheet ~)
      (libsource (lib Device) (part R) (description Resistor))
      (sheetpath (names /) (tstamps /))
      (tstamp 5D0FAE22))
    (comp (ref Q9)
      (value BSS138)
      (footprint Package_TO_SOT_SMD:SOT-23)
      (datasheet https://www.fairchildsemi.com/datasheets/BS/BSS138.pdf)
      (libsource (lib Transistor_FET) (part BSS138) (description "50V Vds, 0.22A Id, N-Channel MOSFET, SOT-23"))
      (sheetpath (names /) (tstamps /))
      (tstamp 5D0D7CD9))
    (comp (ref P11)
      (value WS2812B)
      (footprint Connector_PinHeader_2.54mm:PinHeader_1x03_P2.54mm_Vertical)
      (libsource (lib esplamp-rescue) (part CONN_01X03) (description ""))
      (sheetpath (names /) (tstamps /))
      (tstamp 5D092F45))
    (comp (ref C4)
      (value 22uF)
      (footprint Capacitor_SMD:C_1206_3216Metric)
      (datasheet ~)
      (libsource (lib Device) (part C) (description "Unpolarized capacitor"))
      (sheetpath (names /) (tstamps /))
      (tstamp 5FB5A965))
    (comp (ref C6)
      (value 22uF)
      (footprint Capacitor_SMD:C_1206_3216Metric)
      (datasheet ~)
      (libsource (lib Device) (part C) (description "Unpolarized capacitor"))
      (sheetpath (names /) (tstamps /))
      (tstamp 5FB718EF))
    (comp (ref C7)
      (value 22uF)
      (footprint Capacitor_SMD:C_1206_3216Metric)
      (datasheet ~)
      (libsource (lib Device) (part C) (description "Unpolarized capacitor"))
      (sheetpath (names /) (tstamps /))
      (tstamp 5FB71AF7))
    (comp (ref C8)
      (value 22uF)
      (footprint Capacitor_SMD:C_1206_3216Metric)
      (datasheet ~)
      (libsource (lib Device) (part C) (description "Unpolarized capacitor"))
      (sheetpath (names /) (tstamps /))
      (tstamp 5FB71E30))
    (comp (ref C5)
      (value 22uF)
      (footprint Capacitor_SMD:C_1206_3216Metric)
      (datasheet ~)
      (libsource (lib Device) (part C) (description "Unpolarized capacitor"))
      (sheetpath (names /) (tstamps /))
      (tstamp 5FB721FB)))
  (libparts
    (libpart (lib Connector) (part Conn_01x06_Male)
      (description "Generic connector, single row, 01x06, script generated (kicad-library-utils/schlib/autogen/connector/)")
      (docs ~)
      (footprints
        (fp Connector*:*_1x??_*))
      (fields
        (field (name Reference) J)
        (field (name Value) Conn_01x06_Male))
      (pins
        (pin (num 1) (name Pin_1) (type passive))
        (pin (num 2) (name Pin_2) (type passive))
        (pin (num 3) (name Pin_3) (type passive))
        (pin (num 4) (name Pin_4) (type passive))
        (pin (num 5) (name Pin_5) (type passive))
        (pin (num 6) (name Pin_6) (type passive))))
    (libpart (lib Connector_Generic) (part Conn_01x06)
      (description "Generic connector, single row, 01x06, script generated (kicad-library-utils/schlib/autogen/connector/)")
      (docs ~)
      (footprints
        (fp Connector*:*_1x??_*))
      (fields
        (field (name Reference) J)
        (field (name Value) Conn_01x06))
      (pins
        (pin (num 1) (name Pin_1) (type passive))
        (pin (num 2) (name Pin_2) (type passive))
        (pin (num 3) (name Pin_3) (type passive))
        (pin (num 4) (name Pin_4) (type passive))
        (pin (num 5) (name Pin_5) (type passive))
        (pin (num 6) (name Pin_6) (type passive))))
    (libpart (lib Device) (part C)
      (description "Unpolarized capacitor")
      (docs ~)
      (footprints
        (fp C_*))
      (fields
        (field (name Reference) C)
        (field (name Value) C))
      (pins
        (pin (num 1) (name ~) (type passive))
        (pin (num 2) (name ~) (type passive))))
    (libpart (lib Device) (part LED)
      (description "Light emitting diode")
      (docs ~)
      (footprints
        (fp LED*)
        (fp LED_SMD:*)
        (fp LED_THT:*))
      (fields
        (field (name Reference) D)
        (field (name Value) LED))
      (pins
        (pin (num 1) (name K) (type passive))
        (pin (num 2) (name A) (type passive))))
    (libpart (lib Device) (part R)
      (description Resistor)
      (docs ~)
      (footprints
        (fp R_*))
      (fields
        (field (name Reference) R)
        (field (name Value) R))
      (pins
        (pin (num 1) (name ~) (type passive))
        (pin (num 2) (name ~) (type passive))))
    (libpart (lib Switch) (part SW_Push)
      (description "Push button switch, generic, two pins")
      (docs ~)
      (fields
        (field (name Reference) SW)
        (field (name Value) SW_Push))
      (pins
        (pin (num 1) (name 1) (type passive))
        (pin (num 2) (name 2) (type passive))))
    (libpart (lib Transistor_FET) (part BSS138)
      (aliases
        (alias 2N7002)
        (alias 2N7002E)
        (alias 2N7002H)
        (alias 2N7002K)
        (alias BS170F)
        (alias BS870)
        (alias BSN20)
        (alias BSS123)
        (alias BSS127S)
        (alias DMG2302U)
        (alias DMG3402L)
        (alias DMG3404L)
        (alias DMG3406L)
        (alias DMG3414U)
        (alias DMG3418L)
        (alias DMN10H220L)
        (alias DMN10H700S)
        (alias DMN13H750S)
        (alias DMN2041L)
        (alias DMN2050L)
        (alias DMN2056U)
        (alias DMN2058U)
        (alias DMN2075U)
        (alias DMN2230U)
        (alias DMN24H11DS)
        (alias DMN24H3D5L)
        (alias DMN3042L)
        (alias DMN3051L)
        (alias DMN30H4D0L)
        (alias DMN3110S)
        (alias DMN3150L)
        (alias DMN3300U)
        (alias DMN3404L)
        (alias DMN6075S)
        (alias DMN6140L)
        (alias DMN67D7L)
        (alias DMN67D8L)
        (alias MMBF170)
        (alias VN10LF)
        (alias ZVN3306F)
        (alias ZVN3310F)
        (alias ZVN3320F)
        (alias ZVN4106F)
        (alias ZXM61N02F)
        (alias ZXM61N03F)
        (alias ZXMN10A07F)
        (alias ZXMN2A01F)
        (alias ZXMN2A14F)
        (alias ZXMN2B01F)
        (alias ZXMN2B14FH)
        (alias ZXMN2F30FH)
        (alias ZXMN2F34FH)
        (alias ZXMN3A01F)
        (alias ZXMN3A14F)
        (alias ZXMN3B01F)
        (alias ZXMN3B14F)
        (alias ZXMN3F30FH)
        (alias ZXMN6A07F)
        (alias IRLML0030)
        (alias IRLML2060)
        (alias TSM2302CX))
      (description "50V Vds, 0.22A Id, N-Channel MOSFET, SOT-23")
      (docs https://www.fairchildsemi.com/datasheets/BS/BSS138.pdf)
      (footprints
        (fp SOT?23*))
      (fields
        (field (name Reference) Q)
        (field (name Value) BSS138)
        (field (name Footprint) Package_TO_SOT_SMD:SOT-23))
      (pins
        (pin (num 1) (name G) (type input))
        (pin (num 2) (name S) (type passive))
        (pin (num 3) (name D) (type passive))))
    (libpart (lib esplamp-rescue) (part C)
      (footprints
        (fp C?)
        (fp C_????_*)
        (fp C_????)
        (fp SMD*_c)
        (fp Capacitor*))
      (fields
        (field (name Reference) C)
        (field (name Value) C))
      (pins
        (pin (num 1) (name ~) (type passive))
        (pin (num 2) (name ~) (type passive))))
    (libpart (lib esplamp-rescue) (part CONN_01X02)
      (footprints
        (fp Pin_Header_Straight_1X02)
        (fp Pin_Header_Angled_1X02)
        (fp Socket_Strip_Straight_1X02)
        (fp Socket_Strip_Angled_1X02))
      (fields
        (field (name Reference) P)
        (field (name Value) CONN_01X02))
      (pins
        (pin (num 1) (name P1) (type passive))
        (pin (num 2) (name P2) (type passive))))
    (libpart (lib esplamp-rescue) (part CONN_01X03)
      (footprints
        (fp Pin_Header_Straight_1X03)
        (fp Pin_Header_Angled_1X03)
        (fp Socket_Strip_Straight_1X03)
        (fp Socket_Strip_Angled_1X03))
      (fields
        (field (name Reference) P)
        (field (name Value) CONN_01X03))
      (pins
        (pin (num 1) (name P1) (type passive))
        (pin (num 2) (name P2) (type passive))
        (pin (num 3) (name P3) (type passive))))
    (libpart (lib esplamp-rescue) (part D)
      (footprints
        (fp Diode_*)
        (fp D-*)
        (fp *SingleDiode)
        (fp *_Diode_*)
        (fp *SingleDiode*)
        (fp D_*))
      (fields
        (field (name Reference) D)
        (field (name Value) D))
      (pins
        (pin (num 1) (name K) (type passive))
        (pin (num 2) (name A) (type passive))))
    (libpart (lib esplamp-rescue) (part ESP-WROOM-32)
      (fields
        (field (name Reference) U)
        (field (name Value) ESP-WROOM-32))
      (pins
        (pin (num 1) (name GND) (type input))
        (pin (num 2) (name 3V3) (type input))
        (pin (num 3) (name EN) (type input))
        (pin (num 4) (name SENSOR_VP) (type input))
        (pin (num 5) (name SENSOR_VN) (type input))
        (pin (num 6) (name IO34) (type input))
        (pin (num 7) (name IO35) (type input))
        (pin (num 8) (name IO32) (type input))
        (pin (num 9) (name IO33) (type input))
        (pin (num 10) (name IO25) (type input))
        (pin (num 11) (name IO26) (type input))
        (pin (num 12) (name IO27) (type input))
        (pin (num 13) (name IO14) (type input))
        (pin (num 14) (name IO12) (type input))
        (pin (num 15) (name GND) (type input))
        (pin (num 16) (name IO13) (type input))
        (pin (num 17) (name SD2) (type input))
        (pin (num 18) (name SD3) (type input))
        (pin (num 19) (name CMD) (type input))
        (pin (num 20) (name CLK) (type input))
        (pin (num 21) (name SD0) (type input))
        (pin (num 23) (name IO15) (type input))
        (pin (num 24) (name IO2) (type input))
        (pin (num 25) (name IO0) (type input))
        (pin (num 26) (name IO4) (type input))
        (pin (num 27) (name IO16) (type input))
        (pin (num 28) (name IO17) (type input))
        (pin (num 29) (name IO5) (type input))
        (pin (num 30) (name IO18) (type input))
        (pin (num 31) (name IO19) (type input))
        (pin (num 32) (name NC) (type input))
        (pin (num 33) (name IO21) (type input))
        (pin (num 34) (name RSD0) (type input))
        (pin (num 35) (name TXDO) (type input))
        (pin (num 36) (name IO22) (type input))
        (pin (num 37) (name IS23) (type input))
        (pin (num 38) (name GND) (type input))))
    (libpart (lib esplamp-rescue) (part IRFR3708)
      (footprints
        (fp TO-252))
      (fields
        (field (name Reference) Q)
        (field (name Value) IRFR3708)
        (field (name Footprint) TO-252))
      (pins
        (pin (num 1) (name G) (type input))
        (pin (num 2) (name D) (type passive))
        (pin (num 3) (name S) (type passive))))
    (libpart (lib esplamp-rescue) (part LM2596_MODULE)
      (fields
        (field (name Reference) U)
        (field (name Value) LM2596_MODULE))
      (pins
        (pin (num 1) (name Vin-) (type input))
        (pin (num 2) (name Vin+) (type input))
        (pin (num 3) (name Vou+) (type input))
        (pin (num 4) (name Vout-) (type input))))
    (libpart (lib esplamp-rescue) (part MMBT2222A)
      (description "1A Ic, 40V Vce, NPN Transistor, General Purpose Transistor, TO-92")
      (docs http://www.fairchildsemi.com/ds/PN/PN2222A.pdf)
      (footprints
        (fp TO?92*))
      (fields
        (field (name Reference) Q)
        (field (name Value) MMBT2222A)
        (field (name Footprint) Package_SOT_23))
      (pins
        (pin (num 1) (name B) (type input))
        (pin (num 2) (name E) (type passive))
        (pin (num 3) (name C) (type passive))))
    (libpart (lib esplamp-rescue) (part R)
      (footprints
        (fp R_*)
        (fp Resistor_*))
      (fields
        (field (name Reference) R)
        (field (name Value) R))
      (pins
        (pin (num 1) (name ~) (type passive))
        (pin (num 2) (name ~) (type passive)))))
  (libraries
    (library (logical Connector)
      (uri "C:\\Program Files\\KiCad\\share\\kicad\\library/Connector.lib"))
    (library (logical Connector_Generic)
      (uri "C:\\Program Files\\KiCad\\share\\kicad\\library/Connector_Generic.lib"))
    (library (logical Device)
      (uri "C:\\Program Files\\KiCad\\share\\kicad\\library/Device.lib"))
    (library (logical Switch)
      (uri "C:\\Program Files\\KiCad\\share\\kicad\\library/Switch.lib"))
    (library (logical Transistor_FET)
      (uri "C:\\Program Files\\KiCad\\share\\kicad\\library/Transistor_FET.lib"))
    (library (logical esplamp-rescue)
      (uri C:\Users\password\Documents\Projects\kicad\esplamp/esplamp-rescue.lib)))
  (nets
    (net (code 1) (name +5V)
      (node (ref P8) (pin 2))
      (node (ref P11) (pin 3))
      (node (ref R17) (pin 1)))
    (net (code 2) (name /GPIO10)
      (node (ref U1) (pin 30))
      (node (ref P12) (pin 2)))
    (net (code 3) (name /ws2812)
      (node (ref U1) (pin 33))
      (node (ref Q9) (pin 1)))
    (net (code 4) (name +3V3)
      (node (ref J2) (pin 1))
      (node (ref R14) (pin 1))
      (node (ref R16) (pin 1))
      (node (ref R15) (pin 1))
      (node (ref P2) (pin 1))
      (node (ref J1) (pin 1))
      (node (ref U1) (pin 2))
      (node (ref R1) (pin 1))
      (node (ref C2) (pin 1))
      (node (ref P12) (pin 3))
      (node (ref C3) (pin 1))
      (node (ref P10) (pin 3)))
    (net (code 5) (name /SensorVN)
      (node (ref U1) (pin 5))
      (node (ref P9) (pin 2)))
    (net (code 6) (name /DTR)
      (node (ref R19) (pin 1))
      (node (ref J3) (pin 1))
      (node (ref Q11) (pin 2)))
    (net (code 7) (name /VCC_SER)
      (node (ref J3) (pin 4)))
    (net (code 8) (name /RTS)
      (node (ref Q10) (pin 2))
      (node (ref R20) (pin 1))
      (node (ref J3) (pin 5)))
    (net (code 9) (name "Net-(R14-Pad2)")
      (node (ref SW4) (pin 2))
      (node (ref U1) (pin 8))
      (node (ref R14) (pin 2)))
    (net (code 10) (name "Net-(R16-Pad2)")
      (node (ref U1) (pin 6))
      (node (ref R16) (pin 2))
      (node (ref SW2) (pin 2)))
    (net (code 11) (name "Net-(D9-Pad2)")
      (node (ref R18) (pin 2))
      (node (ref D9) (pin 2)))
    (net (code 12) (name "Net-(R15-Pad2)")
      (node (ref U1) (pin 7))
      (node (ref SW3) (pin 2))
      (node (ref R15) (pin 2)))
    (net (code 13) (name "Net-(U1-Pad17)")
      (node (ref U1) (pin 17)))
    (net (code 14) (name "Net-(U1-Pad18)")
      (node (ref U1) (pin 18)))
    (net (code 15) (name "Net-(U1-Pad19)")
      (node (ref U1) (pin 19)))
    (net (code 16) (name "Net-(U1-Pad20)")
      (node (ref U1) (pin 20)))
    (net (code 17) (name "Net-(U1-Pad21)")
      (node (ref U1) (pin 21)))
    (net (code 18) (name "Net-(U1-Pad21)")
      (node (ref U1) (pin 21)))
    (net (code 19) (name /pwm3)
      (node (ref R5) (pin 1))
      (node (ref U1) (pin 27)))
    (net (code 20) (name /EN)
      (node (ref SW1) (pin 2))
      (node (ref U1) (pin 3))
      (node (ref Q10) (pin 3))
      (node (ref R1) (pin 2))
      (node (ref C1) (pin 1)))
    (net (code 21) (name "Net-(Q10-Pad1)")
      (node (ref Q10) (pin 1))
      (node (ref R19) (pin 2)))
    (net (code 22) (name "Net-(P11-Pad2)")
      (node (ref Q9) (pin 3))
      (node (ref R17) (pin 2))
      (node (ref P11) (pin 2)))
    (net (code 23) (name +12V)
      (node (ref P3) (pin 1))
      (node (ref P7) (pin 1))
      (node (ref R2) (pin 1))
      (node (ref R3) (pin 1))
      (node (ref P4) (pin 1))
      (node (ref D8) (pin 1))
      (node (ref P6) (pin 1))
      (node (ref R11) (pin 1))
      (node (ref R7) (pin 1))
      (node (ref R6) (pin 1))
      (node (ref D3) (pin 1))
      (node (ref P5) (pin 1))
      (node (ref D1) (pin 1))
      (node (ref R12) (pin 1))
      (node (ref R10) (pin 1))
      (node (ref D7) (pin 1))
      (node (ref R13) (pin 1))
      (node (ref C7) (pin 1))
      (node (ref C6) (pin 1))
      (node (ref C4) (pin 1))
      (node (ref U2) (pin 2))
      (node (ref R18) (pin 1))
      (node (ref C5) (pin 1))
      (node (ref C8) (pin 1)))
    (net (code 24) (name "Net-(P2-Pad2)")
      (node (ref P2) (pin 2))
      (node (ref U2) (pin 3)))
    (net (code 25) (name "Net-(Q3-Pad1)")
      (node (ref R5) (pin 2))
      (node (ref Q3) (pin 1)))
    (net (code 26) (name /RX)
      (node (ref U1) (pin 35))
      (node (ref J3) (pin 2)))
    (net (code 27) (name "Net-(Q6-Pad3)")
      (node (ref Q6) (pin 3))
      (node (ref R11) (pin 2))
      (node (ref Q8) (pin 1)))
    (net (code 28) (name /TX)
      (node (ref J3) (pin 3))
      (node (ref U1) (pin 34)))
    (net (code 29) (name /GPIO00)
      (node (ref U1) (pin 25))
      (node (ref Q11) (pin 3)))
    (net (code 30) (name "Net-(Q11-Pad1)")
      (node (ref R20) (pin 2))
      (node (ref Q11) (pin 1)))
    (net (code 31) (name "Net-(D5-Pad2)")
      (node (ref R3) (pin 2))
      (node (ref D5) (pin 2)))
    (net (code 32) (name GND)
      (node (ref SW4) (pin 1))
      (node (ref C7) (pin 2))
      (node (ref J1) (pin 6))
      (node (ref U1) (pin 1))
      (node (ref Q1) (pin 3))
      (node (ref U1) (pin 15))
      (node (ref Q9) (pin 2))
      (node (ref U1) (pin 38))
      (node (ref U1) (pin 37))
      (node (ref P8) (pin 1))
      (node (ref P11) (pin 1))
      (node (ref Q7) (pin 3))
      (node (ref C4) (pin 2))
      (node (ref C6) (pin 2))
      (node (ref P10) (pin 1))
      (node (ref C1) (pin 2))
      (node (ref C3) (pin 2))
      (node (ref P12) (pin 1))
      (node (ref C2) (pin 2))
      (node (ref P7) (pin 2))
      (node (ref U2) (pin 4))
      (node (ref Q4) (pin 3))
      (node (ref SW2) (pin 1))
      (node (ref SW3) (pin 1))
      (node (ref D9) (pin 1))
      (node (ref SW1) (pin 1))
      (node (ref J3) (pin 6))
      (node (ref Q3) (pin 2))
      (node (ref Q6) (pin 2))
      (node (ref Q2) (pin 2))
      (node (ref U2) (pin 1))
      (node (ref Q5) (pin 2))
      (node (ref J2) (pin 6))
      (node (ref C8) (pin 2))
      (node (ref C5) (pin 2))
      (node (ref Q8) (pin 3)))
    (net (code 33) (name /pwm4)
      (node (ref R9) (pin 1))
      (node (ref U1) (pin 26)))
    (net (code 34) (name /pwm1)
      (node (ref R4) (pin 1))
      (node (ref U1) (pin 29)))
    (net (code 35) (name /pwm2)
      (node (ref R8) (pin 1))
      (node (ref U1) (pin 28)))
    (net (code 36) (name "Net-(Q2-Pad1)")
      (node (ref R4) (pin 2))
      (node (ref Q2) (pin 1)))
    (net (code 37) (name "Net-(Q1-Pad1)")
      (node (ref Q1) (pin 1))
      (node (ref R2) (pin 2))
      (node (ref Q2) (pin 3)))
    (net (code 38) (name "Net-(U1-Pad32)")
      (node (ref U1) (pin 32)))
    (net (code 39) (name /GPIO09)
      (node (ref P10) (pin 2))
      (node (ref U1) (pin 24)))
    (net (code 40) (name "Net-(U1-Pad31)")
      (node (ref U1) (pin 31)))
    (net (code 41) (name /GPIO08)
      (node (ref J2) (pin 5))
      (node (ref U1) (pin 23)))
    (net (code 42) (name "Net-(U1-Pad36)")
      (node (ref U1) (pin 36)))
    (net (code 43) (name /SensorVP)
      (node (ref P9) (pin 1))
      (node (ref U1) (pin 4)))
    (net (code 44) (name /GPIO02)
      (node (ref U1) (pin 10))
      (node (ref J1) (pin 3)))
    (net (code 45) (name /GPIO03)
      (node (ref U1) (pin 11))
      (node (ref J1) (pin 4)))
    (net (code 46) (name /GPIO04)
      (node (ref J1) (pin 5))
      (node (ref U1) (pin 12)))
    (net (code 47) (name /GPIO05)
      (node (ref U1) (pin 13))
      (node (ref J2) (pin 2)))
    (net (code 48) (name /GPIO06)
      (node (ref U1) (pin 14))
      (node (ref J2) (pin 3)))
    (net (code 49) (name /GPIO07)
      (node (ref J2) (pin 4))
      (node (ref U1) (pin 16)))
    (net (code 50) (name "Net-(D1-Pad2)")
      (node (ref P3) (pin 2))
      (node (ref Q1) (pin 2))
      (node (ref D1) (pin 2))
      (node (ref D5) (pin 1)))
    (net (code 51) (name /GPIO01)
      (node (ref U1) (pin 9))
      (node (ref J1) (pin 2)))
    (net (code 52) (name "Net-(D4-Pad1)")
      (node (ref D4) (pin 1))
      (node (ref P5) (pin 2))
      (node (ref Q7) (pin 2))
      (node (ref D7) (pin 2)))
    (net (code 53) (name "Net-(D2-Pad1)")
      (node (ref Q4) (pin 2))
      (node (ref D2) (pin 1))
      (node (ref P4) (pin 2))
      (node (ref D3) (pin 2)))
    (net (code 54) (name "Net-(D4-Pad2)")
      (node (ref R12) (pin 2))
      (node (ref D4) (pin 2)))
    (net (code 55) (name "Net-(Q5-Pad1)")
      (node (ref Q5) (pin 1))
      (node (ref R8) (pin 2)))
    (net (code 56) (name "Net-(Q5-Pad3)")
      (node (ref R10) (pin 2))
      (node (ref Q5) (pin 3))
      (node (ref Q7) (pin 1)))
    (net (code 57) (name "Net-(D6-Pad2)")
      (node (ref D6) (pin 2))
      (node (ref R13) (pin 2)))
    (net (code 58) (name "Net-(D6-Pad1)")
      (node (ref P6) (pin 2))
      (node (ref Q8) (pin 2))
      (node (ref D6) (pin 1))
      (node (ref D8) (pin 2)))
    (net (code 59) (name "Net-(Q3-Pad3)")
      (node (ref Q3) (pin 3))
      (node (ref R6) (pin 2))
      (node (ref Q4) (pin 1)))
    (net (code 60) (name "Net-(D2-Pad2)")
      (node (ref R7) (pin 2))
      (node (ref D2) (pin 2)))
    (net (code 61) (name "Net-(Q6-Pad1)")
      (node (ref R9) (pin 2))
      (node (ref Q6) (pin 1)))))