EESchema Schematic File Version 4
EELAYER 30 0
EELAYER END
$Descr A4 11693 8268
encoding utf-8
Sheet 1 1
Title ""
Date ""
Rev ""
Comp ""
Comment1 ""
Comment2 ""
Comment3 ""
Comment4 ""
$EndDescr
$Comp
L esplamp-rescue:IRFR3708 Q1
U 1 1 5AA41475
P 7450 2800
F 0 "Q1" H 7600 2925 50  0000 L CNN
F 1 "IRFR3708" H 7600 2850 50  0000 L CNN
F 2 "esp32:TO-252" H 7600 2775 50  0000 L CIN
F 3 "" H 7350 2850 50  0000 L CNN
	1    7450 2800
	1    0    0    -1  
$EndComp
$Comp
L esplamp-rescue:C C3
U 1 1 5AB91873
P 3050 1550
F 0 "C3" H 3075 1650 50  0000 L CNN
F 1 "10uF" H 3075 1450 50  0000 L CNN
F 2 "Capacitor_THT:CP_Radial_D4.0mm_P2.00mm" H 3088 1400 50  0001 C CNN
F 3 "" H 3050 1550 50  0000 C CNN
	1    3050 1550
	1    0    0    -1  
$EndComp
$Comp
L esplamp-rescue:C C2
U 1 1 5AB91912
P 2800 1550
F 0 "C2" H 2825 1650 50  0000 L CNN
F 1 "0.1uF" H 2825 1450 50  0000 L CNN
F 2 "Capacitor_SMD:C_0805_2012Metric" H 2838 1400 50  0001 C CNN
F 3 "" H 2800 1550 50  0000 C CNN
	1    2800 1550
	1    0    0    -1  
$EndComp
$Comp
L esplamp-rescue:C C1
U 1 1 5AB919AB
P 2150 2400
F 0 "C1" H 2175 2500 50  0000 L CNN
F 1 "0.1uF" H 2175 2300 50  0000 L CNN
F 2 "Capacitor_SMD:C_0805_2012Metric" H 2188 2250 50  0001 C CNN
F 3 "" H 2150 2400 50  0000 C CNN
	1    2150 2400
	1    0    0    -1  
$EndComp
$Comp
L esplamp-rescue:GND #PWR01
U 1 1 5AB91A1E
P 3500 4100
F 0 "#PWR01" H 3500 3850 50  0001 C CNN
F 1 "GND" H 3500 3950 50  0000 C CNN
F 2 "" H 3500 4100 50  0001 C CNN
F 3 "" H 3500 4100 50  0001 C CNN
	1    3500 4100
	1    0    0    -1  
$EndComp
$Comp
L esplamp-rescue:GND #PWR02
U 1 1 5AB91A3C
P 2150 2750
F 0 "#PWR02" H 2150 2500 50  0001 C CNN
F 1 "GND" H 2150 2600 50  0000 C CNN
F 2 "" H 2150 2750 50  0001 C CNN
F 3 "" H 2150 2750 50  0001 C CNN
	1    2150 2750
	1    0    0    -1  
$EndComp
$Comp
L esplamp-rescue:GND #PWR03
U 1 1 5AB91A5A
P 3050 1850
F 0 "#PWR03" H 3050 1600 50  0001 C CNN
F 1 "GND" H 3050 1700 50  0000 C CNN
F 2 "" H 3050 1850 50  0001 C CNN
F 3 "" H 3050 1850 50  0001 C CNN
	1    3050 1850
	1    0    0    -1  
$EndComp
$Comp
L esplamp-rescue:GND #PWR04
U 1 1 5AB91A78
P 4900 1850
F 0 "#PWR04" H 4900 1600 50  0001 C CNN
F 1 "GND" H 4900 1700 50  0000 C CNN
F 2 "" H 4900 1850 50  0001 C CNN
F 3 "" H 4900 1850 50  0001 C CNN
	1    4900 1850
	1    0    0    -1  
$EndComp
$Comp
L esplamp-rescue:+3V3 #PWR06
U 1 1 5AB91B78
P 2550 1250
F 0 "#PWR06" H 2550 1100 50  0001 C CNN
F 1 "+3V3" H 2550 1390 50  0000 C CNN
F 2 "" H 2550 1250 50  0001 C CNN
F 3 "" H 2550 1250 50  0001 C CNN
	1    2550 1250
	1    0    0    -1  
$EndComp
$Comp
L esplamp-rescue:R R1
U 1 1 5AB91C63
P 2500 1850
F 0 "R1" V 2580 1850 50  0000 C CNN
F 1 "10k" V 2500 1850 50  0000 C CNN
F 2 "Resistor_SMD:R_0603_1608Metric_Pad1.05x0.95mm_HandSolder" V 2430 1850 50  0001 C CNN
F 3 "" H 2500 1850 50  0000 C CNN
	1    2500 1850
	1    0    0    -1  
$EndComp
NoConn ~ 4800 2700
$Comp
L esplamp-rescue:CONN_01X02 P3
U 1 1 5AB93731
P 8150 2200
F 0 "P3" H 8150 2350 50  0000 C CNN
F 1 "LED4" V 8250 2200 50  0000 C CNN
F 2 "esp32:TerminalPluggable" H 8150 2200 50  0001 C CNN
F 3 "" H 8150 2200 50  0000 C CNN
	1    8150 2200
	1    0    0    -1  
$EndComp
$Comp
L esplamp-rescue:+12V #PWR07
U 1 1 5AB9CCDD
P 7450 1800
F 0 "#PWR07" H 7450 1650 50  0001 C CNN
F 1 "+12V" H 7450 1940 50  0000 C CNN
F 2 "" H 7450 1800 50  0001 C CNN
F 3 "" H 7450 1800 50  0001 C CNN
	1    7450 1800
	1    0    0    -1  
$EndComp
Wire Wire Line
	2550 1250 2550 1400
Wire Wire Line
	2800 1700 3050 1700
Wire Wire Line
	3050 1700 3050 1850
Wire Wire Line
	2500 1700 2500 1400
Wire Wire Line
	2150 2550 2150 2600
Wire Wire Line
	3500 4100 3500 3800
Wire Wire Line
	7450 2500 7450 2550
$Comp
L esplamp-rescue:+12V #PWR011
U 1 1 5ACA6DBE
P 3400 5150
F 0 "#PWR011" H 3400 5000 50  0001 C CNN
F 1 "+12V" H 3400 5290 50  0000 C CNN
F 2 "" H 3400 5150 50  0001 C CNN
F 3 "" H 3400 5150 50  0001 C CNN
	1    3400 5150
	1    0    0    -1  
$EndComp
$Comp
L esplamp-rescue:GND #PWR012
U 1 1 5ACA6DFE
P 2250 5650
F 0 "#PWR012" H 2250 5400 50  0001 C CNN
F 1 "GND" H 2250 5500 50  0000 C CNN
F 2 "" H 2250 5650 50  0001 C CNN
F 3 "" H 2250 5650 50  0001 C CNN
	1    2250 5650
	1    0    0    -1  
$EndComp
Wire Wire Line
	2250 5650 2250 5550
$Comp
L esplamp-rescue:GND #PWR013
U 1 1 5ACA70C8
P 3400 5550
F 0 "#PWR013" H 3400 5300 50  0001 C CNN
F 1 "GND" H 3400 5400 50  0000 C CNN
F 2 "" H 3400 5550 50  0001 C CNN
F 3 "" H 3400 5550 50  0001 C CNN
	1    3400 5550
	1    0    0    -1  
$EndComp
Wire Wire Line
	2800 1400 3050 1400
Wire Wire Line
	2150 2100 2150 2250
Wire Wire Line
	4800 2100 4800 2200
$Comp
L Device:LED D5
U 1 1 5B60E6DC
P 7450 2350
F 0 "D5" H 7441 2566 50  0000 C CNN
F 1 "LED" H 7441 2475 50  0000 C CNN
F 2 "LED_SMD:LED_0603_1608Metric" H 7450 2350 50  0001 C CNN
F 3 "~" H 7450 2350 50  0001 C CNN
	1    7450 2350
	0    -1   -1   0   
$EndComp
$Comp
L Switch:SW_Push SW2
U 1 1 5B6149A8
P 1300 3200
F 0 "SW2" H 1300 3485 50  0000 C CNN
F 1 "SW_Push" H 1300 3394 50  0000 C CNN
F 2 "Button_Switch_THT:SW_PUSH_6mm_H5mm" H 1300 3400 50  0001 C CNN
F 3 "" H 1300 3400 50  0001 C CNN
	1    1300 3200
	1    0    0    -1  
$EndComp
$Comp
L Switch:SW_Push SW3
U 1 1 5B614A62
P 1300 3600
F 0 "SW3" H 1300 3885 50  0000 C CNN
F 1 "SW_Push" H 1300 3794 50  0000 C CNN
F 2 "Button_Switch_THT:SW_PUSH_6mm_H5mm" H 1300 3800 50  0001 C CNN
F 3 "" H 1300 3800 50  0001 C CNN
	1    1300 3600
	1    0    0    -1  
$EndComp
$Comp
L Switch:SW_Push SW1
U 1 1 5B614B24
P 1950 2100
F 0 "SW1" H 1950 2385 50  0000 C CNN
F 1 "Reset" H 1950 2294 50  0000 C CNN
F 2 "Button_Switch_THT:SW_PUSH_6mm_H5mm" H 1950 2300 50  0001 C CNN
F 3 "" H 1950 2300 50  0001 C CNN
	1    1950 2100
	1    0    0    -1  
$EndComp
$Comp
L Device:R R3
U 1 1 5B65C774
P 7450 2050
F 0 "R3" V 7243 2050 50  0000 C CNN
F 1 "12k" V 7334 2050 50  0000 C CNN
F 2 "Resistor_SMD:R_0603_1608Metric_Pad1.05x0.95mm_HandSolder" V 7380 2050 50  0001 C CNN
F 3 "~" H 7450 2050 50  0001 C CNN
	1    7450 2050
	1    0    0    -1  
$EndComp
Wire Wire Line
	1750 2100 1750 2600
Connection ~ 2150 2600
Wire Wire Line
	2150 2600 2150 2750
Wire Wire Line
	1100 3600 1100 3200
$Comp
L Device:R R2
U 1 1 5C451F2E
P 7050 2400
F 0 "R2" H 6850 2500 50  0000 L CNN
F 1 "12K" H 6850 2350 50  0000 L CNN
F 2 "Resistor_SMD:R_0603_1608Metric_Pad1.05x0.95mm_HandSolder" V 6980 2400 50  0001 C CNN
F 3 "~" H 7050 2400 50  0001 C CNN
	1    7050 2400
	1    0    0    -1  
$EndComp
Wire Wire Line
	7050 2800 7150 2800
$Comp
L esplamp-rescue:D D1
U 1 1 5AB9D177
P 7700 2200
F 0 "D1" H 7700 2300 50  0000 C CNN
F 1 "D" H 7700 2100 50  0000 C CNN
F 2 "Diode_SMD:D_SMA" H 7700 2200 50  0001 C CNN
F 3 "" H 7700 2200 50  0000 C CNN
	1    7700 2200
	0    1    1    0   
$EndComp
Wire Wire Line
	7050 2550 7050 2800
Connection ~ 7050 2800
Wire Wire Line
	7450 2950 7450 3300
Wire Wire Line
	7450 3300 7250 3300
Wire Wire Line
	7050 3300 7050 3200
Wire Wire Line
	7050 1900 7450 1900
Wire Wire Line
	7050 1900 7050 2250
Connection ~ 7450 1900
Connection ~ 7450 2550
$Comp
L esplamp-rescue:GND #PWR0102
U 1 1 5C4B6023
P 7250 3450
F 0 "#PWR0102" H 7250 3200 50  0001 C CNN
F 1 "GND" H 7255 3277 50  0000 C CNN
F 2 "" H 7250 3450 50  0001 C CNN
F 3 "" H 7250 3450 50  0001 C CNN
	1    7250 3450
	1    0    0    -1  
$EndComp
Wire Wire Line
	7250 3450 7250 3300
Connection ~ 7250 3300
Wire Wire Line
	7250 3300 7050 3300
Text Label 5000 3000 0    50   ~ 0
pwm1
Text Label 5000 3100 0    50   ~ 0
pwm2
Text Label 5000 3200 0    50   ~ 0
pwm3
Text Label 5000 3300 0    50   ~ 0
pwm4
Wire Wire Line
	5000 3000 4800 3000
Wire Wire Line
	4800 3100 5000 3100
Wire Wire Line
	5000 3200 4800 3200
Wire Wire Line
	4800 3300 5000 3300
$Comp
L Device:R R4
U 1 1 5C50BBF9
P 6550 3000
F 0 "R4" V 6750 2900 50  0000 C CNN
F 1 "10K" V 6650 2950 50  0000 C CNN
F 2 "Resistor_SMD:R_0603_1608Metric_Pad1.05x0.95mm_HandSolder" V 6480 3000 50  0001 C CNN
F 3 "~" H 6550 3000 50  0001 C CNN
	1    6550 3000
	0    -1   -1   0   
$EndComp
Wire Wire Line
	7450 2550 7700 2550
Wire Wire Line
	7700 2350 7700 2550
Wire Wire Line
	7700 2050 7700 1900
Wire Wire Line
	7950 2150 7950 1900
Wire Wire Line
	7950 1900 7850 1900
Connection ~ 7700 1900
Wire Wire Line
	7950 2250 7950 2550
Wire Wire Line
	7950 2550 7700 2550
Connection ~ 7700 2550
Wire Wire Line
	6200 3000 6400 3000
Wire Wire Line
	6700 3000 6750 3000
Wire Wire Line
	7450 1900 7700 1900
Wire Wire Line
	7450 1800 7450 1900
Text Label 6200 3000 0    50   ~ 0
pwm1
Wire Notes Line
	8300 3700 8300 1600
Wire Notes Line
	8300 1600 6150 1600
Wire Notes Line
	6150 1600 6150 3700
Wire Notes Line
	6150 3700 8300 3700
Text Notes 6150 1600 0    50   ~ 0
LED PWM DRIVER
$Comp
L esplamp-rescue:IRFR3708 Q8
U 1 1 5C526FB5
P 9800 5150
F 0 "Q8" H 9950 5275 50  0000 L CNN
F 1 "IRFR3708" H 9950 5200 50  0000 L CNN
F 2 "esp32:TO-252" H 9950 5125 50  0000 L CIN
F 3 "" H 9700 5200 50  0000 L CNN
	1    9800 5150
	1    0    0    -1  
$EndComp
$Comp
L esplamp-rescue:CONN_01X02 P6
U 1 1 5C526FBC
P 10500 4550
F 0 "P6" H 10500 4700 50  0000 C CNN
F 1 "LED4" V 10600 4550 50  0000 C CNN
F 2 "esp32:TerminalPluggable" H 10500 4550 50  0001 C CNN
F 3 "" H 10500 4550 50  0000 C CNN
	1    10500 4550
	1    0    0    -1  
$EndComp
$Comp
L esplamp-rescue:+12V #PWR0103
U 1 1 5C526FC3
P 9800 4150
F 0 "#PWR0103" H 9800 4000 50  0001 C CNN
F 1 "+12V" H 9800 4290 50  0000 C CNN
F 2 "" H 9800 4150 50  0001 C CNN
F 3 "" H 9800 4150 50  0001 C CNN
	1    9800 4150
	1    0    0    -1  
$EndComp
Wire Wire Line
	9800 4850 9800 4900
$Comp
L Device:LED D6
U 1 1 5C526FCA
P 9800 4700
F 0 "D6" H 9791 4916 50  0000 C CNN
F 1 "LED" H 9791 4825 50  0000 C CNN
F 2 "LED_SMD:LED_0603_1608Metric" H 9800 4700 50  0001 C CNN
F 3 "~" H 9800 4700 50  0001 C CNN
	1    9800 4700
	0    -1   -1   0   
$EndComp
$Comp
L Device:R R13
U 1 1 5C526FD1
P 9800 4400
F 0 "R13" V 9593 4400 50  0000 C CNN
F 1 "12k" V 9684 4400 50  0000 C CNN
F 2 "Resistor_SMD:R_0603_1608Metric_Pad1.05x0.95mm_HandSolder" V 9730 4400 50  0001 C CNN
F 3 "~" H 9800 4400 50  0001 C CNN
	1    9800 4400
	1    0    0    -1  
$EndComp
$Comp
L Device:R R11
U 1 1 5C526FDF
P 9400 4750
F 0 "R11" H 9200 4850 50  0000 L CNN
F 1 "12K" H 9200 4700 50  0000 L CNN
F 2 "Resistor_SMD:R_0603_1608Metric_Pad1.05x0.95mm_HandSolder" V 9330 4750 50  0001 C CNN
F 3 "~" H 9400 4750 50  0001 C CNN
	1    9400 4750
	1    0    0    -1  
$EndComp
Wire Wire Line
	9400 5150 9500 5150
$Comp
L esplamp-rescue:D D8
U 1 1 5C526FE7
P 10050 4550
F 0 "D8" H 10050 4650 50  0000 C CNN
F 1 "D" H 10050 4450 50  0000 C CNN
F 2 "Diode_SMD:D_SMA" H 10050 4550 50  0001 C CNN
F 3 "" H 10050 4550 50  0000 C CNN
	1    10050 4550
	0    1    1    0   
$EndComp
Wire Wire Line
	9400 4900 9400 5150
Wire Wire Line
	9800 5300 9800 5650
Wire Wire Line
	9800 5650 9600 5650
Wire Wire Line
	9400 5650 9400 5550
Wire Wire Line
	9400 4250 9800 4250
Wire Wire Line
	9400 4250 9400 4600
Connection ~ 9800 4250
Connection ~ 9800 4900
$Comp
L esplamp-rescue:GND #PWR0104
U 1 1 5C526FF7
P 9600 5800
F 0 "#PWR0104" H 9600 5550 50  0001 C CNN
F 1 "GND" H 9605 5627 50  0000 C CNN
F 2 "" H 9600 5800 50  0001 C CNN
F 3 "" H 9600 5800 50  0001 C CNN
	1    9600 5800
	1    0    0    -1  
$EndComp
Wire Wire Line
	9600 5800 9600 5650
Connection ~ 9600 5650
Wire Wire Line
	9600 5650 9400 5650
$Comp
L Device:R R9
U 1 1 5C527000
P 8900 5350
F 0 "R9" V 9100 5250 50  0000 C CNN
F 1 "10K" V 9000 5300 50  0000 C CNN
F 2 "Resistor_SMD:R_0603_1608Metric_Pad1.05x0.95mm_HandSolder" V 8830 5350 50  0001 C CNN
F 3 "~" H 8900 5350 50  0001 C CNN
	1    8900 5350
	0    -1   -1   0   
$EndComp
Wire Wire Line
	9800 4900 10050 4900
Wire Wire Line
	10050 4700 10050 4900
Wire Wire Line
	10050 4400 10050 4250
Wire Wire Line
	10300 4500 10300 4250
Wire Wire Line
	10300 4250 10200 4250
Connection ~ 10050 4250
Wire Wire Line
	10300 4600 10300 4900
Wire Wire Line
	10300 4900 10050 4900
Connection ~ 10050 4900
Wire Wire Line
	8550 5350 8750 5350
Wire Wire Line
	9050 5350 9100 5350
Wire Wire Line
	9800 4250 10050 4250
Wire Wire Line
	9800 4150 9800 4250
Text Label 8550 5350 0    50   ~ 0
pwm4
Wire Notes Line
	10650 6050 10650 3950
Wire Notes Line
	10650 3950 8500 3950
Wire Notes Line
	8500 3950 8500 6050
Wire Notes Line
	8500 6050 10650 6050
Text Notes 8500 3950 0    50   ~ 0
LED PWM DRIVER
$Comp
L esplamp-rescue:IRFR3708 Q4
U 1 1 5C52EF3D
P 7450 5150
F 0 "Q4" H 7600 5275 50  0000 L CNN
F 1 "IRFR3708" H 7600 5200 50  0000 L CNN
F 2 "esp32:TO-252" H 7600 5125 50  0000 L CIN
F 3 "" H 7350 5200 50  0000 L CNN
	1    7450 5150
	1    0    0    -1  
$EndComp
$Comp
L esplamp-rescue:CONN_01X02 P4
U 1 1 5C52EF44
P 8150 4550
F 0 "P4" H 8150 4700 50  0000 C CNN
F 1 "LED4" V 8250 4550 50  0000 C CNN
F 2 "esp32:TerminalPluggable" H 8150 4550 50  0001 C CNN
F 3 "" H 8150 4550 50  0000 C CNN
	1    8150 4550
	1    0    0    -1  
$EndComp
$Comp
L esplamp-rescue:+12V #PWR0105
U 1 1 5C52EF4B
P 7450 4150
F 0 "#PWR0105" H 7450 4000 50  0001 C CNN
F 1 "+12V" H 7450 4290 50  0000 C CNN
F 2 "" H 7450 4150 50  0001 C CNN
F 3 "" H 7450 4150 50  0001 C CNN
	1    7450 4150
	1    0    0    -1  
$EndComp
Wire Wire Line
	7450 4850 7450 4900
$Comp
L Device:LED D2
U 1 1 5C52EF52
P 7450 4700
F 0 "D2" H 7441 4916 50  0000 C CNN
F 1 "LED" H 7441 4825 50  0000 C CNN
F 2 "LED_SMD:LED_0603_1608Metric" H 7450 4700 50  0001 C CNN
F 3 "~" H 7450 4700 50  0001 C CNN
	1    7450 4700
	0    -1   -1   0   
$EndComp
$Comp
L Device:R R7
U 1 1 5C52EF59
P 7450 4400
F 0 "R7" V 7243 4400 50  0000 C CNN
F 1 "12k" V 7334 4400 50  0000 C CNN
F 2 "Resistor_SMD:R_0603_1608Metric_Pad1.05x0.95mm_HandSolder" V 7380 4400 50  0001 C CNN
F 3 "~" H 7450 4400 50  0001 C CNN
	1    7450 4400
	1    0    0    -1  
$EndComp
$Comp
L Device:R R6
U 1 1 5C52EF67
P 7050 4750
F 0 "R6" H 6850 4850 50  0000 L CNN
F 1 "12K" H 6850 4700 50  0000 L CNN
F 2 "Resistor_SMD:R_0603_1608Metric_Pad1.05x0.95mm_HandSolder" V 6980 4750 50  0001 C CNN
F 3 "~" H 7050 4750 50  0001 C CNN
	1    7050 4750
	1    0    0    -1  
$EndComp
Wire Wire Line
	7050 5150 7150 5150
$Comp
L esplamp-rescue:D D3
U 1 1 5C52EF6F
P 7700 4550
F 0 "D3" H 7700 4650 50  0000 C CNN
F 1 "D" H 7700 4450 50  0000 C CNN
F 2 "Diode_SMD:D_SMA" H 7700 4550 50  0001 C CNN
F 3 "" H 7700 4550 50  0000 C CNN
	1    7700 4550
	0    1    1    0   
$EndComp
Wire Wire Line
	7050 4900 7050 5150
Wire Wire Line
	7450 5300 7450 5650
Wire Wire Line
	7450 5650 7250 5650
Wire Wire Line
	7050 5650 7050 5550
Wire Wire Line
	7050 4250 7450 4250
Wire Wire Line
	7050 4250 7050 4600
Connection ~ 7450 4250
Connection ~ 7450 4900
$Comp
L esplamp-rescue:GND #PWR0106
U 1 1 5C52EF7F
P 7250 5800
F 0 "#PWR0106" H 7250 5550 50  0001 C CNN
F 1 "GND" H 7255 5627 50  0000 C CNN
F 2 "" H 7250 5800 50  0001 C CNN
F 3 "" H 7250 5800 50  0001 C CNN
	1    7250 5800
	1    0    0    -1  
$EndComp
Wire Wire Line
	7250 5800 7250 5650
Connection ~ 7250 5650
Wire Wire Line
	7250 5650 7050 5650
$Comp
L Device:R R5
U 1 1 5C52EF88
P 6550 5350
F 0 "R5" V 6750 5250 50  0000 C CNN
F 1 "10K" V 6650 5300 50  0000 C CNN
F 2 "Resistor_SMD:R_0603_1608Metric_Pad1.05x0.95mm_HandSolder" V 6480 5350 50  0001 C CNN
F 3 "~" H 6550 5350 50  0001 C CNN
	1    6550 5350
	0    -1   -1   0   
$EndComp
Wire Wire Line
	7450 4900 7700 4900
Wire Wire Line
	7700 4700 7700 4900
Wire Wire Line
	7700 4400 7700 4250
Wire Wire Line
	7950 4500 7950 4250
Wire Wire Line
	7950 4250 7850 4250
Connection ~ 7700 4250
Wire Wire Line
	7950 4600 7950 4900
Wire Wire Line
	7950 4900 7700 4900
Connection ~ 7700 4900
Wire Wire Line
	6700 5350 6750 5350
Wire Wire Line
	7450 4250 7700 4250
Wire Wire Line
	7450 4150 7450 4250
Wire Notes Line
	8300 6050 8300 3950
Wire Notes Line
	8300 3950 6150 3950
Text Notes 6150 3950 0    50   ~ 0
LED PWM DRIVER
$Comp
L esplamp-rescue:IRFR3708 Q7
U 1 1 5C531E9F
P 9800 2800
F 0 "Q7" H 9950 2925 50  0000 L CNN
F 1 "IRFR3708" H 9950 2850 50  0000 L CNN
F 2 "esp32:TO-252" H 9950 2775 50  0000 L CIN
F 3 "" H 9700 2850 50  0000 L CNN
	1    9800 2800
	1    0    0    -1  
$EndComp
$Comp
L esplamp-rescue:CONN_01X02 P5
U 1 1 5C531EA6
P 10500 2200
F 0 "P5" H 10500 2350 50  0000 C CNN
F 1 "LED4" V 10600 2200 50  0000 C CNN
F 2 "esp32:TerminalPluggable" H 10500 2200 50  0001 C CNN
F 3 "" H 10500 2200 50  0000 C CNN
	1    10500 2200
	1    0    0    -1  
$EndComp
$Comp
L esplamp-rescue:+12V #PWR0107
U 1 1 5C531EAD
P 9800 1800
F 0 "#PWR0107" H 9800 1650 50  0001 C CNN
F 1 "+12V" H 9800 1940 50  0000 C CNN
F 2 "" H 9800 1800 50  0001 C CNN
F 3 "" H 9800 1800 50  0001 C CNN
	1    9800 1800
	1    0    0    -1  
$EndComp
Wire Wire Line
	9800 2500 9800 2550
$Comp
L Device:LED D4
U 1 1 5C531EB4
P 9800 2350
F 0 "D4" H 9791 2566 50  0000 C CNN
F 1 "LED" H 9791 2475 50  0000 C CNN
F 2 "LED_SMD:LED_0603_1608Metric" H 9800 2350 50  0001 C CNN
F 3 "~" H 9800 2350 50  0001 C CNN
	1    9800 2350
	0    -1   -1   0   
$EndComp
$Comp
L Device:R R12
U 1 1 5C531EBB
P 9800 2050
F 0 "R12" V 9593 2050 50  0000 C CNN
F 1 "12k" V 9684 2050 50  0000 C CNN
F 2 "Resistor_SMD:R_0603_1608Metric_Pad1.05x0.95mm_HandSolder" V 9730 2050 50  0001 C CNN
F 3 "~" H 9800 2050 50  0001 C CNN
	1    9800 2050
	1    0    0    -1  
$EndComp
$Comp
L Device:R R10
U 1 1 5C531EC9
P 9400 2400
F 0 "R10" H 9200 2500 50  0000 L CNN
F 1 "12K" H 9200 2350 50  0000 L CNN
F 2 "Resistor_SMD:R_0603_1608Metric_Pad1.05x0.95mm_HandSolder" V 9330 2400 50  0001 C CNN
F 3 "~" H 9400 2400 50  0001 C CNN
	1    9400 2400
	1    0    0    -1  
$EndComp
Wire Wire Line
	9400 2800 9500 2800
$Comp
L esplamp-rescue:D D7
U 1 1 5C531ED1
P 10050 2200
F 0 "D7" H 10050 2300 50  0000 C CNN
F 1 "D" H 10050 2100 50  0000 C CNN
F 2 "Diode_SMD:D_SMA" H 10050 2200 50  0001 C CNN
F 3 "" H 10050 2200 50  0000 C CNN
	1    10050 2200
	0    1    1    0   
$EndComp
Wire Wire Line
	9400 2550 9400 2800
Wire Wire Line
	9800 2950 9800 3300
Wire Wire Line
	9800 3300 9600 3300
Wire Wire Line
	9400 3300 9400 3200
Wire Wire Line
	9400 1900 9800 1900
Wire Wire Line
	9400 1900 9400 2250
Connection ~ 9800 1900
Connection ~ 9800 2550
$Comp
L esplamp-rescue:GND #PWR0108
U 1 1 5C531EE1
P 9600 3450
F 0 "#PWR0108" H 9600 3200 50  0001 C CNN
F 1 "GND" H 9605 3277 50  0000 C CNN
F 2 "" H 9600 3450 50  0001 C CNN
F 3 "" H 9600 3450 50  0001 C CNN
	1    9600 3450
	1    0    0    -1  
$EndComp
Wire Wire Line
	9600 3450 9600 3300
Connection ~ 9600 3300
Wire Wire Line
	9600 3300 9400 3300
$Comp
L Device:R R8
U 1 1 5C531EEA
P 8900 3000
F 0 "R8" V 9100 2900 50  0000 C CNN
F 1 "10K" V 9000 2950 50  0000 C CNN
F 2 "Resistor_SMD:R_0603_1608Metric_Pad1.05x0.95mm_HandSolder" V 8830 3000 50  0001 C CNN
F 3 "~" H 8900 3000 50  0001 C CNN
	1    8900 3000
	0    -1   -1   0   
$EndComp
Wire Wire Line
	9800 2550 10050 2550
Wire Wire Line
	10050 2350 10050 2550
Wire Wire Line
	10050 2050 10050 1900
Wire Wire Line
	10300 2150 10300 1900
Wire Wire Line
	10300 1900 10150 1900
Connection ~ 10050 1900
Wire Wire Line
	10300 2250 10300 2550
Wire Wire Line
	10300 2550 10050 2550
Connection ~ 10050 2550
Wire Wire Line
	8550 3000 8750 3000
Wire Wire Line
	9050 3000 9100 3000
Wire Wire Line
	9800 1900 10050 1900
Wire Wire Line
	9800 1800 9800 1900
Text Label 8550 3000 0    50   ~ 0
pwm2
Wire Notes Line
	10650 3700 10650 1600
Wire Notes Line
	10650 1600 8500 1600
Wire Notes Line
	8500 1600 8500 3700
Wire Notes Line
	8500 3700 10650 3700
Text Notes 8500 1600 0    50   ~ 0
LED PWM DRIVER
$Comp
L Device:LED D9
U 1 1 5C4B581A
P 900 6550
F 0 "D9" H 891 6766 50  0000 C CNN
F 1 "LED" H 891 6675 50  0000 C CNN
F 2 "LED_SMD:LED_0603_1608Metric" H 900 6550 50  0001 C CNN
F 3 "~" H 900 6550 50  0001 C CNN
	1    900  6550
	0    -1   -1   0   
$EndComp
$Comp
L Device:R R18
U 1 1 5C4B58A4
P 900 6250
F 0 "R18" V 693 6250 50  0000 C CNN
F 1 "12K" V 784 6250 50  0000 C CNN
F 2 "Resistor_SMD:R_0603_1608Metric_Pad1.05x0.95mm_HandSolder" V 830 6250 50  0001 C CNN
F 3 "~" H 900 6250 50  0001 C CNN
	1    900  6250
	1    0    0    -1  
$EndComp
$Comp
L esplamp-rescue:GND #PWR0109
U 1 1 5C4B5942
P 900 6700
F 0 "#PWR0109" H 900 6450 50  0001 C CNN
F 1 "GND" H 900 6550 50  0000 C CNN
F 2 "" H 900 6700 50  0001 C CNN
F 3 "" H 900 6700 50  0001 C CNN
	1    900  6700
	1    0    0    -1  
$EndComp
$Comp
L esplamp-rescue:+12V #PWR0110
U 1 1 5C4B59A9
P 900 6100
F 0 "#PWR0110" H 900 5950 50  0001 C CNN
F 1 "+12V" H 900 6240 50  0000 C CNN
F 2 "" H 900 6100 50  0001 C CNN
F 3 "" H 900 6100 50  0001 C CNN
	1    900  6100
	1    0    0    -1  
$EndComp
Wire Wire Line
	2300 3200 2300 2600
Wire Wire Line
	2300 2600 3050 2600
Wire Wire Line
	3050 2700 2400 2700
Wire Wire Line
	2400 2700 2400 3600
NoConn ~ 3700 3800
NoConn ~ 3800 3800
NoConn ~ 3900 3800
NoConn ~ 4000 3800
NoConn ~ 4100 3800
NoConn ~ 4200 3800
$Comp
L esplamp-rescue:+3V3 #PWR0101
U 1 1 5CFBDEA4
P 4550 6700
F 0 "#PWR0101" H 4550 6550 50  0001 C CNN
F 1 "+3V3" H 4550 6840 50  0000 C CNN
F 2 "" H 4550 6700 50  0001 C CNN
F 3 "" H 4550 6700 50  0001 C CNN
	1    4550 6700
	1    0    0    -1  
$EndComp
$Comp
L Device:R R16
U 1 1 5CFE8D34
P 1850 3050
F 0 "R16" H 1920 3096 50  0000 L CNN
F 1 "100k" H 1920 3005 50  0000 L CNN
F 2 "Resistor_SMD:R_0603_1608Metric_Pad1.05x0.95mm_HandSolder" V 1780 3050 50  0001 C CNN
F 3 "~" H 1850 3050 50  0001 C CNN
	1    1850 3050
	1    0    0    -1  
$EndComp
$Comp
L Device:R R15
U 1 1 5CFE8DBE
P 1700 3450
F 0 "R15" H 1770 3496 50  0000 L CNN
F 1 "100k" H 1770 3405 50  0000 L CNN
F 2 "Resistor_SMD:R_0603_1608Metric_Pad1.05x0.95mm_HandSolder" V 1630 3450 50  0001 C CNN
F 3 "~" H 1700 3450 50  0001 C CNN
	1    1700 3450
	1    0    0    -1  
$EndComp
$Comp
L esplamp-rescue:+3V3 #PWR0111
U 1 1 5CFEFB2D
P 1700 2850
F 0 "#PWR0111" H 1700 2700 50  0001 C CNN
F 1 "+3V3" H 1700 2990 50  0000 C CNN
F 2 "" H 1700 2850 50  0001 C CNN
F 3 "" H 1700 2850 50  0001 C CNN
	1    1700 2850
	1    0    0    -1  
$EndComp
Wire Wire Line
	1500 3200 1850 3200
Wire Wire Line
	1700 3600 1500 3600
Wire Wire Line
	1700 3300 1700 2850
Wire Wire Line
	1850 2900 1850 2850
Wire Wire Line
	1850 2850 1700 2850
Connection ~ 1700 2850
$Comp
L esplamp-rescue:GND #PWR0112
U 1 1 5D0226FA
P 4550 7400
F 0 "#PWR0112" H 4550 7150 50  0001 C CNN
F 1 "GND" H 4550 7250 50  0000 C CNN
F 2 "" H 4550 7400 50  0001 C CNN
F 3 "" H 4550 7400 50  0001 C CNN
	1    4550 7400
	1    0    0    -1  
$EndComp
Wire Wire Line
	4300 7400 4550 7400
Wire Wire Line
	4300 6900 4550 6900
Wire Wire Line
	4550 6900 4550 6700
$Comp
L esplamp-rescue:+3V3 #PWR0113
U 1 1 5D02F22E
P 5950 7000
F 0 "#PWR0113" H 5950 6850 50  0001 C CNN
F 1 "+3V3" H 5950 7140 50  0000 C CNN
F 2 "" H 5950 7000 50  0001 C CNN
F 3 "" H 5950 7000 50  0001 C CNN
	1    5950 7000
	1    0    0    -1  
$EndComp
$Comp
L esplamp-rescue:GND #PWR0114
U 1 1 5D02F234
P 6050 7400
F 0 "#PWR0114" H 6050 7150 50  0001 C CNN
F 1 "GND" H 6050 7250 50  0000 C CNN
F 2 "" H 6050 7400 50  0001 C CNN
F 3 "" H 6050 7400 50  0001 C CNN
	1    6050 7400
	1    0    0    -1  
$EndComp
Wire Wire Line
	5800 7400 6050 7400
Wire Wire Line
	5000 6900 5250 6900
Wire Wire Line
	5950 7200 5950 7000
Text Label 4300 7000 0    50   ~ 0
GPIO01
Text Label 4300 7100 0    50   ~ 0
GPIO02
Text Label 4300 7200 0    50   ~ 0
GPIO03
Text Label 4300 7300 0    50   ~ 0
GPIO04
Text Label 5000 7000 0    50   ~ 0
GPIO05
Text Label 5000 7100 0    50   ~ 0
GPIO06
$Comp
L Connector:Conn_01x06_Male J1
U 1 1 5D04E407
P 4100 7100
F 0 "J1" H 4206 7478 50  0000 C CNN
F 1 "Generic IO1" V 4050 7050 50  0000 C CNN
F 2 "Connector_PinHeader_2.54mm:PinHeader_1x06_P2.54mm_Vertical" H 4100 7100 50  0001 C CNN
F 3 "~" H 4100 7100 50  0001 C CNN
	1    4100 7100
	1    0    0    -1  
$EndComp
$Comp
L Connector:Conn_01x06_Male J2
U 1 1 5D04E4A5
P 4800 7100
F 0 "J2" H 4906 7478 50  0000 C CNN
F 1 "Generic IO2" V 4750 7050 50  0000 C CNN
F 2 "Connector_PinHeader_2.54mm:PinHeader_1x06_P2.54mm_Vertical" H 4800 7100 50  0001 C CNN
F 3 "~" H 4800 7100 50  0001 C CNN
	1    4800 7100
	1    0    0    -1  
$EndComp
Text Label 5000 7200 0    50   ~ 0
GPIO07
Text Label 5000 7300 0    50   ~ 0
GPIO08
Text Label 3050 2900 2    50   ~ 0
GPIO01
Text Label 3050 3000 2    50   ~ 0
GPIO02
Text Label 3050 3100 2    50   ~ 0
GPIO03
Text Label 3050 3200 2    50   ~ 0
GPIO04
Text Label 3050 3300 2    50   ~ 0
GPIO05
Text Label 3050 3400 2    50   ~ 0
GPIO06
Text Label 3600 3800 3    50   ~ 0
GPIO07
Text Label 5050 2600 0    50   ~ 0
ws2812
$Comp
L esplamp-rescue:CONN_01X02 P8
U 1 1 5D11C031
P 750 4750
F 0 "P8" H 750 4900 50  0000 C CNN
F 1 "POWAH" V 850 4750 50  0000 C CNN
F 2 "esp32:TerminalPluggable" H 750 4750 50  0001 C CNN
F 3 "" H 750 4750 50  0000 C CNN
	1    750  4750
	-1   0    0    1   
$EndComp
$Comp
L esplamp-rescue:+12V #PWR0119
U 1 1 5D11C038
P 1100 5350
F 0 "#PWR0119" H 1100 5200 50  0001 C CNN
F 1 "+12V" H 1100 5490 50  0000 C CNN
F 2 "" H 1100 5350 50  0001 C CNN
F 3 "" H 1100 5350 50  0001 C CNN
	1    1100 5350
	1    0    0    -1  
$EndComp
$Comp
L esplamp-rescue:GND #PWR0120
U 1 1 5D11C03E
P 1100 5650
F 0 "#PWR0120" H 1100 5400 50  0001 C CNN
F 1 "GND" H 1100 5500 50  0000 C CNN
F 2 "" H 1100 5650 50  0001 C CNN
F 3 "" H 1100 5650 50  0001 C CNN
	1    1100 5650
	1    0    0    -1  
$EndComp
Wire Wire Line
	1100 5650 1100 5600
Wire Wire Line
	1100 5600 950  5600
Wire Wire Line
	950  5500 1100 5500
$Comp
L esplamp-rescue:CONN_01X02 P7
U 1 1 5D12258F
P 750 5550
F 0 "P7" H 750 5700 50  0000 C CNN
F 1 "POWAH" V 850 5550 50  0000 C CNN
F 2 "esp32:TerminalPluggable" H 750 5550 50  0001 C CNN
F 3 "" H 750 5550 50  0000 C CNN
	1    750  5550
	-1   0    0    -1  
$EndComp
$Comp
L esplamp-rescue:GND #PWR0121
U 1 1 5D12259C
P 1100 4850
F 0 "#PWR0121" H 1100 4600 50  0001 C CNN
F 1 "GND" H 1100 4700 50  0000 C CNN
F 2 "" H 1100 4850 50  0001 C CNN
F 3 "" H 1100 4850 50  0001 C CNN
	1    1100 4850
	1    0    0    -1  
$EndComp
Wire Wire Line
	1100 4850 1100 4800
Wire Wire Line
	1100 4800 950  4800
Wire Wire Line
	950  4700 1100 4700
Wire Wire Line
	1100 4700 1100 4550
$Comp
L power:+5V #PWR0122
U 1 1 5D12B031
P 1100 4550
F 0 "#PWR0122" H 1100 4400 50  0001 C CNN
F 1 "+5V" H 1115 4723 50  0000 C CNN
F 2 "" H 1100 4550 50  0001 C CNN
F 3 "" H 1100 4550 50  0001 C CNN
	1    1100 4550
	1    0    0    -1  
$EndComp
$Comp
L esplamp-rescue:CONN_01X03 P12
U 1 1 5D12CA38
P 6350 7250
F 0 "P12" H 6350 7450 50  0000 C CNN
F 1 "Generic IO4" V 6450 7250 50  0000 C CNN
F 2 "Connector_PinHeader_2.54mm:PinHeader_1x03_P2.54mm_Vertical" H 6350 7250 50  0001 C CNN
F 3 "" H 6350 7250 50  0000 C CNN
	1    6350 7250
	-1   0    0    1   
$EndComp
$Comp
L esplamp-rescue:CONN_01X03 P10
U 1 1 5D12CADE
P 5600 7300
F 0 "P10" H 5600 7500 50  0000 C CNN
F 1 "Generic IO3" V 5700 7300 50  0000 C CNN
F 2 "Connector_PinHeader_2.54mm:PinHeader_1x03_P2.54mm_Vertical" H 5600 7300 50  0001 C CNN
F 3 "" H 5600 7300 50  0000 C CNN
	1    5600 7300
	-1   0    0    1   
$EndComp
Text Label 4400 3800 3    50   ~ 0
GPIO09
Text Label 4300 3800 3    50   ~ 0
GPIO08
$Comp
L esplamp-rescue:GND #PWR0123
U 1 1 5D13698F
P 1100 4100
F 0 "#PWR0123" H 1100 3850 50  0001 C CNN
F 1 "GND" H 1105 3927 50  0000 C CNN
F 2 "" H 1100 4100 50  0001 C CNN
F 3 "" H 1100 4100 50  0001 C CNN
	1    1100 4100
	1    0    0    -1  
$EndComp
Wire Wire Line
	1100 4100 1100 3950
Connection ~ 1100 3600
$Comp
L Switch:SW_Push SW4
U 1 1 5D14430A
P 1300 3950
F 0 "SW4" H 1300 4235 50  0000 C CNN
F 1 "SW_Push" H 1300 4144 50  0000 C CNN
F 2 "Button_Switch_THT:SW_PUSH_6mm_H5mm" H 1300 4150 50  0001 C CNN
F 3 "" H 1300 4150 50  0001 C CNN
	1    1300 3950
	1    0    0    -1  
$EndComp
Connection ~ 1100 3950
Wire Wire Line
	1100 3950 1100 3600
$Comp
L Device:R R14
U 1 1 5D144398
P 1550 3800
F 0 "R14" H 1620 3846 50  0000 L CNN
F 1 "100k" H 1620 3755 50  0000 L CNN
F 2 "Resistor_SMD:R_0603_1608Metric_Pad1.05x0.95mm_HandSolder" V 1480 3800 50  0001 C CNN
F 3 "~" H 1550 3800 50  0001 C CNN
	1    1550 3800
	1    0    0    -1  
$EndComp
Wire Wire Line
	1500 3950 1550 3950
Wire Wire Line
	1550 3650 1550 2850
Wire Wire Line
	1550 2850 1700 2850
Wire Wire Line
	2500 3950 2500 2800
Wire Wire Line
	2500 2800 3050 2800
Text Label 5800 7300 0    50   ~ 0
GPIO09
Wire Wire Line
	5950 7200 5800 7200
$Comp
L esplamp-rescue:GND #PWR0125
U 1 1 5D1C40C6
P 5250 7400
F 0 "#PWR0125" H 5250 7150 50  0001 C CNN
F 1 "GND" H 5250 7250 50  0000 C CNN
F 2 "" H 5250 7400 50  0001 C CNN
F 3 "" H 5250 7400 50  0001 C CNN
	1    5250 7400
	1    0    0    -1  
$EndComp
Wire Wire Line
	5000 7400 5250 7400
$Comp
L esplamp-rescue:+3V3 #PWR0126
U 1 1 5D1CD061
P 6700 6950
F 0 "#PWR0126" H 6700 6800 50  0001 C CNN
F 1 "+3V3" H 6700 7090 50  0000 C CNN
F 2 "" H 6700 6950 50  0001 C CNN
F 3 "" H 6700 6950 50  0001 C CNN
	1    6700 6950
	1    0    0    -1  
$EndComp
$Comp
L esplamp-rescue:GND #PWR0127
U 1 1 5D1CD067
P 6800 7350
F 0 "#PWR0127" H 6800 7100 50  0001 C CNN
F 1 "GND" H 6800 7200 50  0000 C CNN
F 2 "" H 6800 7350 50  0001 C CNN
F 3 "" H 6800 7350 50  0001 C CNN
	1    6800 7350
	1    0    0    -1  
$EndComp
Wire Wire Line
	6550 7350 6800 7350
Wire Wire Line
	6700 7150 6700 6950
Text Label 6550 7250 0    50   ~ 0
GPIO10
Wire Wire Line
	6700 7150 6550 7150
Text Label 5000 2900 0    50   ~ 0
GPIO10
$Comp
L esplamp-rescue:CONN_01X02 P9
U 1 1 5D1F4022
P 2900 4250
F 0 "P9" H 2900 4400 50  0000 C CNN
F 1 "CONN_01X02" V 3000 4250 50  0000 C CNN
F 2 "Connector_PinHeader_2.54mm:PinHeader_1x02_P2.54mm_Vertical" H 2900 4250 50  0001 C CNN
F 3 "" H 2900 4250 50  0000 C CNN
	1    2900 4250
	1    0    0    -1  
$EndComp
Text Label 2700 4200 2    50   ~ 0
SensorVP
Text Label 2700 4300 2    50   ~ 0
SensorVN
Text Label 3050 2400 2    50   ~ 0
SensorVP
Text Label 3050 2500 2    50   ~ 0
SensorVN
$Comp
L Connector_Generic:Conn_01x06 J3
U 1 1 5D767E4C
P 5900 2500
F 0 "J3" H 5980 2492 50  0000 L CNN
F 1 "Conn_01x06" H 5980 2401 50  0000 L CNN
F 2 "Connector_PinHeader_2.54mm:PinHeader_1x06_P2.54mm_Vertical" H 5900 2500 50  0001 C CNN
F 3 "~" H 5900 2500 50  0001 C CNN
	1    5900 2500
	1    0    0    -1  
$EndComp
$Comp
L esplamp-rescue:GND #PWR0128
U 1 1 5D76805D
P 5600 2900
F 0 "#PWR0128" H 5600 2650 50  0001 C CNN
F 1 "GND" H 5605 2727 50  0000 C CNN
F 2 "" H 5600 2900 50  0001 C CNN
F 3 "" H 5600 2900 50  0001 C CNN
	1    5600 2900
	1    0    0    -1  
$EndComp
Wire Wire Line
	5600 2900 5600 2800
Wire Wire Line
	5600 2800 5700 2800
Text Label 5700 2300 2    50   ~ 0
DTR
Text Label 5700 2400 2    50   ~ 0
RX
Text Label 5700 2500 2    50   ~ 0
TX
Text Label 5700 2600 2    50   ~ 0
VCC_SER
Text Label 5700 2700 2    50   ~ 0
RTS
$Comp
L esplamp-rescue:CONN_01X02 P2
U 1 1 5F75858D
P 2200 5050
F 0 "P2" H 2200 5200 50  0000 C CNN
F 1 "CONN_01X02" V 2300 5050 50  0000 C CNN
F 2 "Connector_PinHeader_2.54mm:PinHeader_1x02_P2.54mm_Vertical" H 2200 5050 50  0001 C CNN
F 3 "" H 2200 5050 50  0000 C CNN
	1    2200 5050
	0    -1   -1   0   
$EndComp
$Comp
L esplamp-rescue:+3V3 #PWR014
U 1 1 5ACA7108
P 1900 5250
F 0 "#PWR014" H 1900 5100 50  0001 C CNN
F 1 "+3V3" H 1900 5390 50  0000 C CNN
F 2 "" H 1900 5250 50  0001 C CNN
F 3 "" H 1900 5250 50  0001 C CNN
	1    1900 5250
	1    0    0    -1  
$EndComp
$Comp
L esplamp-rescue:LM2596_MODULE U2
U 1 1 5ACA6987
P 2850 5400
F 0 "U2" H 2850 5700 60  0000 C CNN
F 1 "LM2596_MODULE" H 2850 5800 60  0000 C CNN
F 2 "esp32:LM2596_MODULE" H 2850 5400 60  0001 C CNN
F 3 "" H 2850 5400 60  0001 C CNN
	1    2850 5400
	-1   0    0    1   
$EndComp
Wire Wire Line
	3350 5250 3400 5250
Wire Wire Line
	3400 5150 3400 5250
Wire Wire Line
	1900 5250 2150 5250
$Comp
L esplamp-rescue:MMBT2222A Q5
U 1 1 5F9747E5
P 9300 3000
F 0 "Q5" H 9490 3046 50  0000 L CNN
F 1 "MMBT2222A" H 9490 2955 50  0000 L CNN
F 2 "Package_TO_SOT_SMD:SOT-23" H 9500 2925 50  0001 L CIN
F 3 "http://www.fairchildsemi.com/ds/PN/PN2222A.pdf" H 9300 3000 50  0001 L CNN
	1    9300 3000
	1    0    0    -1  
$EndComp
$Comp
L esplamp-rescue:MMBT2222A Q2
U 1 1 5F975A8A
P 6950 3000
F 0 "Q2" H 7140 3046 50  0000 L CNN
F 1 "MMBT2222A" H 7140 2955 50  0000 L CNN
F 2 "Package_TO_SOT_SMD:SOT-23" H 7150 2925 50  0001 L CIN
F 3 "http://www.fairchildsemi.com/ds/PN/PN2222A.pdf" H 6950 3000 50  0001 L CNN
	1    6950 3000
	1    0    0    -1  
$EndComp
$Comp
L esplamp-rescue:MMBT2222A Q3
U 1 1 5F9760FD
P 6950 5350
F 0 "Q3" H 7140 5396 50  0000 L CNN
F 1 "MMBT2222A" H 7140 5305 50  0000 L CNN
F 2 "Package_TO_SOT_SMD:SOT-23" H 7150 5275 50  0001 L CIN
F 3 "http://www.fairchildsemi.com/ds/PN/PN2222A.pdf" H 6950 5350 50  0001 L CNN
	1    6950 5350
	1    0    0    -1  
$EndComp
$Comp
L esplamp-rescue:MMBT2222A Q6
U 1 1 5F976C5F
P 9300 5350
F 0 "Q6" H 9490 5396 50  0000 L CNN
F 1 "MMBT2222A" H 9490 5305 50  0000 L CNN
F 2 "Package_TO_SOT_SMD:SOT-23" H 9500 5275 50  0001 L CIN
F 3 "http://www.fairchildsemi.com/ds/PN/PN2222A.pdf" H 9300 5350 50  0001 L CNN
	1    9300 5350
	1    0    0    -1  
$EndComp
Connection ~ 9400 5150
Connection ~ 7050 5150
Connection ~ 9400 2800
$Comp
L esplamp-rescue:MMBT2222A Q11
U 1 1 5F985E06
P 4450 5350
F 0 "Q11" H 4641 5304 50  0000 L CNN
F 1 "MMBT2222A" H 4641 5395 50  0000 L CNN
F 2 "Package_TO_SOT_SMD:SOT-23" H 4650 5275 50  0001 L CIN
F 3 "http://www.fairchildsemi.com/ds/PN/PN2222A.pdf" H 4450 5350 50  0001 L CNN
	1    4450 5350
	-1   0    0    1   
$EndComp
$Comp
L esplamp-rescue:MMBT2222A Q10
U 1 1 5F9864D8
P 4450 4600
F 0 "Q10" H 4641 4646 50  0000 L CNN
F 1 "MMBT2222A" H 4641 4555 50  0000 L CNN
F 2 "Package_TO_SOT_SMD:SOT-23" H 4650 4525 50  0001 L CIN
F 3 "http://www.fairchildsemi.com/ds/PN/PN2222A.pdf" H 4450 4600 50  0001 L CNN
	1    4450 4600
	-1   0    0    -1  
$EndComp
$Comp
L Device:R R20
U 1 1 5F99FAD9
P 4950 5350
F 0 "R20" V 5150 5250 50  0000 C CNN
F 1 "10K" V 5050 5300 50  0000 C CNN
F 2 "Resistor_SMD:R_0603_1608Metric_Pad1.05x0.95mm_HandSolder" V 4880 5350 50  0001 C CNN
F 3 "~" H 4950 5350 50  0001 C CNN
	1    4950 5350
	0    1    1    0   
$EndComp
$Comp
L Device:R R19
U 1 1 5F9A0198
P 4950 4600
F 0 "R19" V 5150 4500 50  0000 C CNN
F 1 "10K" V 5050 4550 50  0000 C CNN
F 2 "Resistor_SMD:R_0603_1608Metric_Pad1.05x0.95mm_HandSolder" V 4880 4600 50  0001 C CNN
F 3 "~" H 4950 4600 50  0001 C CNN
	1    4950 4600
	0    1    1    0   
$EndComp
Wire Wire Line
	4650 5350 4800 5350
Wire Wire Line
	5200 5350 5100 5350
Wire Wire Line
	4350 5150 4350 5050
Text Label 2600 2300 0    50   ~ 0
EN
Text Label 4000 4400 2    50   ~ 0
EN
Text Label 5000 3400 0    50   ~ 0
GPIO00
Text Label 4050 5550 2    50   ~ 0
GPIO00
Text Label 5700 4600 0    50   ~ 0
DTR
Text Label 5700 5350 0    50   ~ 0
RTS
Connection ~ 5200 5350
Wire Wire Line
	5000 3400 4800 3400
Wire Wire Line
	5000 2900 4800 2900
Wire Wire Line
	5050 2600 4800 2600
Wire Wire Line
	5250 6900 5250 6700
$Comp
L esplamp-rescue:+3V3 #PWR0124
U 1 1 5D1BC371
P 5250 6700
F 0 "#PWR0124" H 5250 6550 50  0001 C CNN
F 1 "+3V3" H 5250 6840 50  0000 C CNN
F 2 "" H 5250 6700 50  0001 C CNN
F 3 "" H 5250 6700 50  0001 C CNN
	1    5250 6700
	1    0    0    -1  
$EndComp
Text Label 3800 7100 0    50   ~ 0
ws2812
Wire Wire Line
	3500 7450 3500 7300
$Comp
L esplamp-rescue:GND #PWR0118
U 1 1 5D10147E
P 3500 7450
F 0 "#PWR0118" H 3500 7200 50  0001 C CNN
F 1 "GND" H 3500 7300 50  0000 C CNN
F 2 "" H 3500 7450 50  0001 C CNN
F 3 "" H 3500 7450 50  0001 C CNN
	1    3500 7450
	1    0    0    -1  
$EndComp
$Comp
L power:+5V #PWR0117
U 1 1 5D0FB317
P 3500 6450
F 0 "#PWR0117" H 3500 6300 50  0001 C CNN
F 1 "+5V" H 3515 6623 50  0000 C CNN
F 2 "" H 3500 6450 50  0001 C CNN
F 3 "" H 3500 6450 50  0001 C CNN
	1    3500 6450
	1    0    0    -1  
$EndComp
Wire Wire Line
	3500 6450 3500 6600
Connection ~ 3500 6900
$Comp
L Device:R R17
U 1 1 5D0FAE22
P 3500 6750
F 0 "R17" H 3570 6796 50  0000 L CNN
F 1 "500" H 3570 6705 50  0000 L CNN
F 2 "Resistor_SMD:R_0603_1608Metric_Pad1.05x0.95mm_HandSolder" V 3430 6750 50  0001 C CNN
F 3 "~" H 3500 6750 50  0001 C CNN
	1    3500 6750
	1    0    0    -1  
$EndComp
$Comp
L Transistor_FET:BSS138 Q9
U 1 1 5D0D7CD9
P 3600 7100
F 0 "Q9" H 3806 7146 50  0000 L CNN
F 1 "BSS138" H 3850 6850 50  0000 L CNN
F 2 "Package_TO_SOT_SMD:SOT-23" H 3800 7025 50  0001 L CIN
F 3 "https://www.fairchildsemi.com/datasheets/BS/BSS138.pdf" H 3600 7100 50  0001 L CNN
	1    3600 7100
	-1   0    0    -1  
$EndComp
$Comp
L power:+5V #PWR0116
U 1 1 5D0D6379
P 3150 6650
F 0 "#PWR0116" H 3150 6500 50  0001 C CNN
F 1 "+5V" H 3165 6823 50  0000 C CNN
F 2 "" H 3150 6650 50  0001 C CNN
F 3 "" H 3150 6650 50  0001 C CNN
	1    3150 6650
	1    0    0    -1  
$EndComp
Wire Wire Line
	3500 6900 2900 6900
Wire Wire Line
	3150 6650 3150 6800
Wire Wire Line
	3150 6800 2900 6800
Wire Wire Line
	2900 7000 3150 7000
$Comp
L esplamp-rescue:GND #PWR0115
U 1 1 5D0A21C2
P 3150 7000
F 0 "#PWR0115" H 3150 6750 50  0001 C CNN
F 1 "GND" H 3150 6850 50  0000 C CNN
F 2 "" H 3150 7000 50  0001 C CNN
F 3 "" H 3150 7000 50  0001 C CNN
	1    3150 7000
	1    0    0    -1  
$EndComp
$Comp
L esplamp-rescue:CONN_01X03 P11
U 1 1 5D092F45
P 2700 6900
F 0 "P11" H 2700 7100 50  0000 C CNN
F 1 "WS2812B" V 2800 6900 50  0000 C CNN
F 2 "Connector_PinHeader_2.54mm:PinHeader_1x03_P2.54mm_Vertical" H 2700 6900 50  0001 C CNN
F 3 "" H 2700 6900 50  0000 C CNN
	1    2700 6900
	-1   0    0    1   
$EndComp
Wire Notes Line
	6150 6050 8300 6050
Wire Notes Line
	6150 3950 6150 6050
Text Label 6200 5350 0    50   ~ 0
pwm3
Wire Wire Line
	6200 5350 6400 5350
Wire Wire Line
	4050 5550 4350 5550
Wire Wire Line
	4000 4400 4350 4400
Wire Wire Line
	4350 4800 4350 4900
Wire Wire Line
	4650 4600 4800 4600
Wire Wire Line
	5100 4600 5250 4600
Wire Wire Line
	5200 5350 5700 5350
Connection ~ 5250 4600
Wire Wire Line
	5250 4600 5700 4600
Wire Wire Line
	4350 5050 5250 5050
Wire Wire Line
	5200 4900 4350 4900
Wire Wire Line
	5200 4900 5200 5350
Wire Wire Line
	5250 4600 5250 5050
$Comp
L Device:C C4
U 1 1 5FB5A965
P 10150 3000
F 0 "C4" H 10265 3046 50  0000 L CNN
F 1 "22uF" H 10265 2955 50  0000 L CNN
F 2 "Capacitor_SMD:C_1206_3216Metric" H 10188 2850 50  0001 C CNN
F 3 "~" H 10150 3000 50  0001 C CNN
	1    10150 3000
	1    0    0    -1  
$EndComp
$Comp
L Device:C C6
U 1 1 5FB718EF
P 7850 3050
F 0 "C6" H 7965 3096 50  0000 L CNN
F 1 "22uF" H 7965 3005 50  0000 L CNN
F 2 "Capacitor_SMD:C_1206_3216Metric" H 7888 2900 50  0001 C CNN
F 3 "~" H 7850 3050 50  0001 C CNN
	1    7850 3050
	1    0    0    -1  
$EndComp
$Comp
L Device:C C7
U 1 1 5FB71AF7
P 7850 5400
F 0 "C7" H 7965 5446 50  0000 L CNN
F 1 "22uF" H 7965 5355 50  0000 L CNN
F 2 "Capacitor_SMD:C_1206_3216Metric" H 7888 5250 50  0001 C CNN
F 3 "~" H 7850 5400 50  0001 C CNN
	1    7850 5400
	1    0    0    -1  
$EndComp
$Comp
L Device:C C8
U 1 1 5FB71E30
P 10200 5400
F 0 "C8" H 10315 5446 50  0000 L CNN
F 1 "22uF" H 10315 5355 50  0000 L CNN
F 2 "Capacitor_SMD:C_1206_3216Metric" H 10238 5250 50  0001 C CNN
F 3 "~" H 10200 5400 50  0001 C CNN
	1    10200 5400
	1    0    0    -1  
$EndComp
$Comp
L Device:C C5
U 1 1 5FB721FB
P 1350 5550
F 0 "C5" H 1465 5596 50  0000 L CNN
F 1 "22uF" H 1465 5505 50  0000 L CNN
F 2 "Capacitor_SMD:C_1206_3216Metric" H 1388 5400 50  0001 C CNN
F 3 "~" H 1350 5550 50  0001 C CNN
	1    1350 5550
	1    0    0    -1  
$EndComp
Wire Wire Line
	1100 5400 1350 5400
Wire Wire Line
	1100 5350 1100 5400
Connection ~ 1100 5400
Wire Wire Line
	1100 5400 1100 5500
Wire Wire Line
	1100 5600 1200 5600
Wire Wire Line
	1200 5600 1200 5700
Wire Wire Line
	1200 5700 1350 5700
Connection ~ 1100 5600
Wire Wire Line
	7850 2900 7850 1900
Connection ~ 7850 1900
Wire Wire Line
	7850 1900 7700 1900
Wire Wire Line
	7850 3200 7850 3300
Wire Wire Line
	7850 3300 7450 3300
Connection ~ 7450 3300
Wire Wire Line
	10150 2850 10150 1900
Connection ~ 10150 1900
Wire Wire Line
	10150 1900 10050 1900
Wire Wire Line
	10150 3150 10150 3300
Wire Wire Line
	10150 3300 9800 3300
Connection ~ 9800 3300
Wire Wire Line
	10200 4250 10200 5250
Wire Wire Line
	10200 5650 9800 5650
Wire Wire Line
	10200 5550 10200 5650
Connection ~ 10200 4250
Wire Wire Line
	10200 4250 10050 4250
Connection ~ 9800 5650
Wire Wire Line
	7850 4250 7850 5250
Wire Wire Line
	7850 5650 7450 5650
Connection ~ 7850 4250
Wire Wire Line
	7850 4250 7700 4250
Connection ~ 7450 5650
Wire Wire Line
	7850 5550 7850 5650
NoConn ~ 4800 2800
NoConn ~ 4800 2300
$Comp
L esplamp-rescue:ESP-WROOM-32 U1
U 1 1 5AA41E56
P 3950 2200
F 0 "U1" H 3950 2750 60  0000 C CNN
F 1 "ESP-WROOM-32" H 3950 2650 60  0000 C CNN
F 2 "esp32:esp32" H 3700 2050 60  0001 C CNN
F 3 "" H 3700 2050 60  0001 C CNN
	1    3950 2200
	1    0    0    -1  
$EndComp
Wire Wire Line
	4800 2100 4800 1750
Wire Wire Line
	4800 1750 4900 1750
Wire Wire Line
	4900 1750 4900 1850
Connection ~ 4800 2100
Connection ~ 3050 1700
Connection ~ 2800 1400
Wire Wire Line
	2800 1700 2800 2100
Connection ~ 2800 1700
Wire Wire Line
	2800 2100 3050 2100
Connection ~ 2650 1400
Wire Wire Line
	2650 1400 2800 1400
Wire Wire Line
	2650 1400 2650 2200
Wire Wire Line
	2650 2200 3050 2200
Wire Wire Line
	2600 2300 2600 2100
Wire Wire Line
	2600 2300 3050 2300
Connection ~ 2550 1400
Wire Wire Line
	2550 1400 2650 1400
Wire Wire Line
	2500 1400 2550 1400
Wire Wire Line
	2500 2000 2500 2100
Connection ~ 2500 2100
Wire Wire Line
	2500 2100 2600 2100
Wire Wire Line
	2150 2100 2500 2100
Wire Wire Line
	1750 2600 2150 2600
Connection ~ 2150 2100
Wire Wire Line
	1550 3950 2500 3950
Connection ~ 1550 3950
Wire Wire Line
	2400 3600 1700 3600
Connection ~ 1700 3600
Wire Wire Line
	1850 3200 2300 3200
Connection ~ 1850 3200
Wire Wire Line
	3400 5550 3350 5550
Wire Wire Line
	2250 5550 2350 5550
Wire Wire Line
	2350 5250 2250 5250
Wire Wire Line
	4800 2500 5700 2500
Wire Wire Line
	4800 2400 5700 2400
$EndSCHEMATC
