(module TerminalPluggable (layer F.Cu) (tedit 5B627B54)
  (fp_text reference REF** (at 0 -3.81) (layer F.SilkS)
    (effects (font (size 1 1) (thickness 0.15)))
  )
  (fp_text value TerminalPluggable (at 0 -5.08) (layer F.Fab)
    (effects (font (size 1 1) (thickness 0.15)))
  )
  (fp_line (start -5.08 -2.54) (end 3.81 -2.54) (layer F.SilkS) (width 0.15))
  (fp_line (start 3.81 -2.54) (end 5.08 -2.54) (layer F.SilkS) (width 0.15))
  (fp_line (start 5.08 -2.54) (end 5.08 16.51) (layer F.SilkS) (width 0.15))
  (fp_line (start 5.08 16.51) (end -5.08 16.51) (layer F.SilkS) (width 0.15))
  (fp_line (start -5.08 16.51) (end -5.08 -2.54) (layer F.SilkS) (width 0.15))
  (fp_line (start 5.08 10.16) (end -5.08 10.16) (layer F.SilkS) (width 0.15))
  (pad 2 thru_hole circle (at 2.54 0) (size 3 3) (drill 1.5) (layers *.Cu *.Mask))
  (pad 1 thru_hole circle (at -2.54 0) (size 3 3) (drill 1.5) (layers *.Cu *.Mask))
)
