(module TO-252 (layer F.Cu) (tedit 5ABC6126)
  (fp_text reference REF** (at 0 -5) (layer F.SilkS)
    (effects (font (size 1 1) (thickness 0.15)))
  )
  (fp_text value TO-252 (at 0 -6.5) (layer F.Fab)
    (effects (font (size 1 1) (thickness 0.15)))
  )
  (fp_line (start -4 -4) (end 4 -4) (layer F.SilkS) (width 0.15))
  (fp_line (start 4 -4) (end 4 8.5) (layer F.SilkS) (width 0.15))
  (fp_line (start 4 8.5) (end -4 8.5) (layer F.SilkS) (width 0.15))
  (fp_line (start -4 8.5) (end -4 -4) (layer F.SilkS) (width 0.15))
  (pad 2 smd rect (at 0 0) (size 7 7) (layers B.Cu F.Paste F.Mask))
  (pad 2 thru_hole circle (at 2.54 2.54) (size 1.524 1.524) (drill 0.762) (layers *.Cu *.Mask))
  (pad 2 thru_hole circle (at 2.54 -2.54) (size 1.524 1.524) (drill 0.762) (layers *.Cu *.Mask))
  (pad 2 thru_hole circle (at -2.54 -2.54) (size 1.524 1.524) (drill 0.762) (layers *.Cu *.Mask))
  (pad 2 thru_hole circle (at 0 0) (size 1.524 1.524) (drill 0.762) (layers *.Cu *.Mask))
  (pad 3 smd rect (at 2.3 6.8) (size 1.5 2.5) (layers F.Cu F.Paste F.Mask))
  (pad 1 smd rect (at -2.3 6.9) (size 1.5 2.5) (layers F.Cu F.Paste F.Mask))
  (pad 2 smd rect (at 0 0) (size 7 7) (layers F.Cu F.Paste F.Mask))
  (pad 2 thru_hole circle (at -2.54 2.54) (size 1.524 1.524) (drill 0.762) (layers *.Cu *.Mask))
)
