Designator,Val,Package,Mid X,Mid Y,Rotation,Layer
"C1","0.1uF","C_0805_2012Metric",59.514500,-86.614000,180.000000,top
"C2","0.1uF","C_0805_2012Metric",61.468000,-76.708000,90.000000,top
"C4","22uF","C_1206_3216Metric",78.870000,-135.636000,180.000000,top
"C5","22uF","C_1206_3216Metric",68.964000,-135.636000,180.000000,top
"C6","22uF","C_1206_3216Metric",59.312000,-135.890000,180.000000,top
"C7","22uF","C_1206_3216Metric",48.644000,-135.890000,180.000000,top
"C8","22uF","C_1206_3216Metric",37.462000,-136.906000,180.000000,top
"D1","D","D_SMA",83.058000,-134.541500,90.000000,top
"D2","LED","LED_0603_1608Metric",60.960000,-132.867500,90.000000,top
"D3","D","D_SMA",63.500000,-134.952500,90.000000,top
"D4","LED","LED_0603_1608Metric",70.612000,-132.613500,90.000000,top
"D5","LED","LED_0603_1608Metric",80.518000,-132.613500,90.000000,top
"D6","LED","LED_0603_1608Metric",50.038000,-132.613500,90.000000,top
"D7","D","D_SMA",73.152000,-134.541500,90.000000,top
"D8","D","D_SMA",53.086000,-134.620000,90.000000,top
"D9","LED","LED_0603_1608Metric",41.376500,-135.890000,0.000000,top
"Q2","MMBT2222A","SOT-23",80.518000,-115.570000,270.000000,top
"Q3","MMBT2222A","SOT-23",59.690000,-116.094000,270.000000,top
"Q5","MMBT2222A","SOT-23",70.866000,-116.078000,270.000000,top
"Q6","MMBT2222A","SOT-23",50.038000,-116.602000,270.000000,top
"Q9","BSS138","SOT-23",91.186000,-148.336000,0.000000,top
"Q10","MMBT2222A","SOT-23",90.358000,-95.520000,270.000000,top
"Q11","MMBT2222A","SOT-23",86.294000,-95.234000,270.000000,top
"R1","10k","R_0603_1608Metric_Pad1.05x0.95mm_HandSolder",59.436000,-84.074000,0.000000,top
"R2","12K","R_0603_1608Metric_Pad1.05x0.95mm_HandSolder",84.949000,-116.332000,180.000000,top
"R3","12k","R_0603_1608Metric_Pad1.05x0.95mm_HandSolder",78.740000,-132.701000,90.000000,top
"R4","10K","R_0603_1608Metric_Pad1.05x0.95mm_HandSolder",80.631000,-112.522000,180.000000,top
"R5","10K","R_0603_1608Metric_Pad1.05x0.95mm_HandSolder",60.085000,-113.030000,180.000000,top
"R6","12K","R_0603_1608Metric_Pad1.05x0.95mm_HandSolder",65.391000,-117.094000,180.000000,top
"R7","R","R_0603_1608Metric_Pad1.05x0.95mm_HandSolder",59.182000,-132.955000,90.000000,top
"R8","10K","R_0603_1608Metric_Pad1.05x0.95mm_HandSolder",70.725000,-113.284000,180.000000,top
"R9","10K","R_0603_1608Metric_Pad1.05x0.95mm_HandSolder",50.151000,-113.792000,180.000000,top
"R10","12K","R_0603_1608Metric_Pad1.05x0.95mm_HandSolder",75.071000,-116.586000,180.000000,top
"R11","12K","R_0603_1608Metric_Pad1.05x0.95mm_HandSolder",54.977000,-117.348000,180.000000,top
"R12","12k","R_0603_1608Metric_Pad1.05x0.95mm_HandSolder",68.580000,-132.701000,90.000000,top
"R13","12k","R_0603_1608Metric_Pad1.05x0.95mm_HandSolder",48.514000,-132.955000,90.000000,top
"R14","100k","R_0603_1608Metric_Pad1.05x0.95mm_HandSolder",36.830000,-102.870000,180.000000,top
"R15","100k","R_0603_1608Metric_Pad1.05x0.95mm_HandSolder",45.974000,-119.126000,90.000000,top
"R16","100k","R_0603_1608Metric_Pad1.05x0.95mm_HandSolder",45.974000,-123.303000,270.000000,top
"R17","500","R_0603_1608Metric_Pad1.05x0.95mm_HandSolder",91.186000,-145.034000,180.000000,top
"R18","12K","R_0603_1608Metric_Pad1.05x0.95mm_HandSolder",46.228000,-132.955000,90.000000,top
"R19","10K","R_0603_1608Metric_Pad1.05x0.95mm_HandSolder",90.791000,-92.202000,0.000000,top
"R20","10K","R_0603_1608Metric_Pad1.05x0.95mm_HandSolder",87.235000,-92.202000,180.000000,top
