%!PS-Adobe-3.0
%%Creator: PCBNEW
%%CreationDate: Thu Jan 21 05:20:44 2021
%%Title: C:\Users\password\Documents\Projects\kicad\esplamp\plot\esplamp-NPTH-drl_map.ps
%%Pages: 1
%%PageOrder: Ascend
%%BoundingBox: 0 0 596 842
%%DocumentMedia: A4 595 842 0 () ()
%%Orientation: Landscape
%%EndComments
%%BeginProlog
/line { newpath moveto lineto stroke } bind def
/cir0 { newpath 0 360 arc stroke } bind def
/cir1 { newpath 0 360 arc gsave fill grestore stroke } bind def
/cir2 { newpath 0 360 arc gsave fill grestore stroke } bind def
/arc0 { newpath arc stroke } bind def
/arc1 { newpath 4 index 4 index moveto arc closepath gsave fill
    grestore stroke } bind def
/arc2 { newpath 4 index 4 index moveto arc closepath gsave fill
    grestore stroke } bind def
/poly0 { stroke } bind def
/poly1 { closepath gsave fill grestore stroke } bind def
/poly2 { closepath gsave fill grestore stroke } bind def
/rect0 { rectstroke } bind def
/rect1 { rectfill } bind def
/rect2 { rectfill } bind def
/linemode0 { 0 setlinecap 0 setlinejoin 0 setlinewidth } bind def
/linemode1 { 1 setlinecap 1 setlinejoin } bind def
/dashedline { [200] 100 setdash } bind def
/solidline { [] 0 setdash } bind def
/phantomshow { moveto
    /KicadFont findfont 0.000001 scalefont setfont
    show } bind def
/textshow { gsave
    findfont exch scalefont setfont concat 1 scale 0 0 moveto show
    } bind def
/reencodefont {
  findfont dup length dict begin
  { 1 index /FID ne
    { def }
    { pop pop } ifelse
  } forall
  /Encoding ISOLatin1Encoding def
  currentdict
  end } bind def
/KicadFont /Helvetica reencodefont definefont pop
/KicadFont-Bold /Helvetica-Bold reencodefont definefont pop
/KicadFont-Oblique /Helvetica-Oblique reencodefont definefont pop
/KicadFont-BoldOblique /Helvetica-BoldOblique reencodefont definefont pop
%%EndProlog
%%Page: 1 1
%%BeginPageSetup
gsave
0.0072 0.0072 scale
linemode1
82680 0 translate 90 rotate
68.2402 setlinewidth
%%EndPageSetup
0 0 0 setrgbcolor
80.5987 setlinewidth
newpath
42428.6 78689.3 moveto
74501.4 78689.3 lineto
stroke
0 0 0 setrgbcolor
107.465 setlinewidth
newpath
42428.6 78689.3 moveto
42428.6 37062.7 lineto
stroke
0 0 0 setrgbcolor
newpath
74501.4 37062.7 moveto
74501.4 78689.3 lineto
stroke
0 0 0 setrgbcolor
newpath
42428.6 37062.7 moveto
74501.4 37062.7 lineto
stroke
78.74 setlinewidth
118.11 setlinewidth
0 0 0 setrgbcolor
0 0 0 setrgbcolor
newpath
43502.5 35175.5 moveto
43502.5 36356.6 lineto
43783.7 36356.6 lineto
43952.4 36300.3 lineto
44064.9 36187.9 lineto
44121.2 36075.4 lineto
44177.4 35850.4 lineto
44177.4 35681.7 lineto
44121.2 35456.7 lineto
44064.9 35344.2 lineto
43952.4 35231.7 lineto
43783.7 35175.5 lineto
43502.5 35175.5 lineto
stroke
newpath
44683.6 35175.5 moveto
44683.6 35962.9 lineto
stroke
newpath
44683.6 35737.9 moveto
44739.8 35850.4 lineto
44796.1 35906.6 lineto
44908.6 35962.9 lineto
45021.1 35962.9 lineto
stroke
newpath
45414.8 35175.5 moveto
45414.8 35962.9 lineto
stroke
newpath
45414.8 36356.6 moveto
45358.5 36300.3 lineto
45414.8 36244.1 lineto
45471 36300.3 lineto
45414.8 36356.6 lineto
45414.8 36244.1 lineto
stroke
newpath
46145.9 35175.5 moveto
46033.4 35231.7 lineto
45977.2 35344.2 lineto
45977.2 36356.6 lineto
stroke
newpath
46764.6 35175.5 moveto
46652.1 35231.7 lineto
46595.9 35344.2 lineto
46595.9 36356.6 lineto
stroke
newpath
48114.4 35175.5 moveto
48114.4 36356.6 lineto
48508.1 35512.9 lineto
48901.8 36356.6 lineto
48901.8 35175.5 lineto
stroke
newpath
49970.4 35175.5 moveto
49970.4 35794.2 lineto
49914.2 35906.6 lineto
49801.7 35962.9 lineto
49576.7 35962.9 lineto
49464.2 35906.6 lineto
stroke
newpath
49970.4 35231.7 moveto
49857.9 35175.5 lineto
49576.7 35175.5 lineto
49464.2 35231.7 lineto
49408 35344.2 lineto
49408 35456.7 lineto
49464.2 35569.2 lineto
49576.7 35625.4 lineto
49857.9 35625.4 lineto
49970.4 35681.7 lineto
stroke
newpath
50532.9 35962.9 moveto
50532.9 34781.8 lineto
stroke
newpath
50532.9 35906.6 moveto
50645.3 35962.9 lineto
50870.3 35962.9 lineto
50982.8 35906.6 lineto
51039.1 35850.4 lineto
51095.3 35737.9 lineto
51095.3 35400.5 lineto
51039.1 35288 lineto
50982.8 35231.7 lineto
50870.3 35175.5 lineto
50645.3 35175.5 lineto
50532.9 35231.7 lineto
stroke
newpath
51601.5 35288 moveto
51657.7 35231.7 lineto
51601.5 35175.5 lineto
51545.2 35231.7 lineto
51601.5 35288 lineto
51601.5 35175.5 lineto
stroke
newpath
51601.5 35906.6 moveto
51657.7 35850.4 lineto
51601.5 35794.2 lineto
51545.2 35850.4 lineto
51601.5 35906.6 lineto
51601.5 35794.2 lineto
stroke
showpage
grestore
%%EOF
