%!PS-Adobe-3.0
%%Creator: PCBNEW
%%CreationDate: Thu Jan 21 05:20:44 2021
%%Title: C:\Users\password\Documents\Projects\kicad\esplamp\plot\esplamp-PTH-drl_map.ps
%%Pages: 1
%%PageOrder: Ascend
%%BoundingBox: 0 0 596 842
%%DocumentMedia: A4 595 842 0 () ()
%%Orientation: Landscape
%%EndComments
%%BeginProlog
/line { newpath moveto lineto stroke } bind def
/cir0 { newpath 0 360 arc stroke } bind def
/cir1 { newpath 0 360 arc gsave fill grestore stroke } bind def
/cir2 { newpath 0 360 arc gsave fill grestore stroke } bind def
/arc0 { newpath arc stroke } bind def
/arc1 { newpath 4 index 4 index moveto arc closepath gsave fill
    grestore stroke } bind def
/arc2 { newpath 4 index 4 index moveto arc closepath gsave fill
    grestore stroke } bind def
/poly0 { stroke } bind def
/poly1 { closepath gsave fill grestore stroke } bind def
/poly2 { closepath gsave fill grestore stroke } bind def
/rect0 { rectstroke } bind def
/rect1 { rectfill } bind def
/rect2 { rectfill } bind def
/linemode0 { 0 setlinecap 0 setlinejoin 0 setlinewidth } bind def
/linemode1 { 1 setlinecap 1 setlinejoin } bind def
/dashedline { [200] 100 setdash } bind def
/solidline { [] 0 setdash } bind def
/phantomshow { moveto
    /KicadFont findfont 0.000001 scalefont setfont
    show } bind def
/textshow { gsave
    findfont exch scalefont setfont concat 1 scale 0 0 moveto show
    } bind def
/reencodefont {
  findfont dup length dict begin
  { 1 index /FID ne
    { def }
    { pop pop } ifelse
  } forall
  /Encoding ISOLatin1Encoding def
  currentdict
  end } bind def
/KicadFont /Helvetica reencodefont definefont pop
/KicadFont-Bold /Helvetica-Bold reencodefont definefont pop
/KicadFont-Oblique /Helvetica-Oblique reencodefont definefont pop
/KicadFont-BoldOblique /Helvetica-BoldOblique reencodefont definefont pop
%%EndProlog
%%Page: 1 1
%%BeginPageSetup
gsave
0.0072 0.0072 scale
linemode1
82680 0 translate 90 rotate
68.2402 setlinewidth
%%EndPageSetup
0 0 0 setrgbcolor
80.5987 setlinewidth
newpath
42428.6 78689.3 moveto
74501.4 78689.3 lineto
stroke
0 0 0 setrgbcolor
107.465 setlinewidth
newpath
42428.6 78689.3 moveto
42428.6 37062.7 lineto
stroke
0 0 0 setrgbcolor
newpath
74501.4 37062.7 moveto
74501.4 78689.3 lineto
stroke
0 0 0 setrgbcolor
newpath
42428.6 37062.7 moveto
74501.4 37062.7 lineto
stroke
78.74 setlinewidth
newpath
45050.7 63101.5 moveto
45265.6 62886.5 lineto
stroke
newpath
45265.6 63101.5 moveto
45050.7 62886.5 lineto
stroke
newpath
45733.1 60371.9 moveto
45948 60156.9 lineto
stroke
newpath
45948 60371.9 moveto
45733.1 60156.9 lineto
stroke
newpath
49281.6 60098.9 moveto
49496.5 59884 lineto
stroke
newpath
49496.5 60098.9 moveto
49281.6 59884 lineto
stroke
newpath
52011.2 57096.3 moveto
52226.1 56881.4 lineto
stroke
newpath
52226.1 57096.3 moveto
52011.2 56881.4 lineto
stroke
newpath
53921.9 56141 moveto
54136.9 55926 lineto
stroke
newpath
54136.9 56141 moveto
53921.9 55926 lineto
stroke
newpath
54058.4 68833.7 moveto
54273.3 68618.7 lineto
stroke
newpath
54273.3 68833.7 moveto
54058.4 68618.7 lineto
stroke
newpath
54268.5 72940.6 moveto
54483.4 72725.6 lineto
stroke
newpath
54483.4 72940.6 moveto
54268.5 72725.6 lineto
stroke
newpath
54306.4 73369.1 moveto
54521.3 73154.2 lineto
stroke
newpath
54521.3 73369.1 moveto
54306.4 73154.2 lineto
stroke
newpath
57129.2 71495 moveto
57344.1 71280.1 lineto
stroke
newpath
57344.1 71495 moveto
57129.2 71280.1 lineto
stroke
newpath
57333.9 72382.1 moveto
57548.9 72167.2 lineto
stroke
newpath
57548.9 72382.1 moveto
57333.9 72167.2 lineto
stroke
newpath
57606.9 74565.8 moveto
57821.8 74350.9 lineto
stroke
newpath
57821.8 74565.8 moveto
57606.9 74350.9 lineto
stroke
newpath
57606.9 73883.4 moveto
57821.8 73668.5 lineto
stroke
newpath
57821.8 73883.4 moveto
57606.9 73668.5 lineto
stroke
newpath
57606.9 73201 moveto
57821.8 72986.1 lineto
stroke
newpath
57821.8 73201 moveto
57606.9 72986.1 lineto
stroke
newpath
57743.4 75521.2 moveto
57958.3 75306.3 lineto
stroke
newpath
57958.3 75521.2 moveto
57743.4 75306.3 lineto
stroke
newpath
57743.4 71017.3 moveto
57958.3 70802.4 lineto
stroke
newpath
57958.3 71017.3 moveto
57743.4 70802.4 lineto
stroke
newpath
57743.4 57505.8 moveto
57958.3 57290.9 lineto
stroke
newpath
57958.3 57505.8 moveto
57743.4 57290.9 lineto
stroke
newpath
59108.2 67195.9 moveto
59323.1 66981 lineto
stroke
newpath
59323.1 67195.9 moveto
59108.2 66981 lineto
stroke
newpath
59654.1 70198.5 moveto
59869 69983.5 lineto
stroke
newpath
59869 70198.5 moveto
59654.1 69983.5 lineto
stroke
newpath
59654.1 56413.9 moveto
59869 56199 lineto
stroke
newpath
59869 56413.9 moveto
59654.1 56199 lineto
stroke
newpath
59927.1 75657.7 moveto
60142 75442.7 lineto
stroke
newpath
60142 75657.7 moveto
59927.1 75442.7 lineto
stroke
newpath
60063.5 69243.1 moveto
60278.5 69028.2 lineto
stroke
newpath
60278.5 69243.1 moveto
60063.5 69028.2 lineto
stroke
newpath
61428.3 66513.5 moveto
61643.3 66298.6 lineto
stroke
newpath
61643.3 66513.5 moveto
61428.3 66298.6 lineto
stroke
newpath
63339.1 57505.8 moveto
63554 57290.9 lineto
stroke
newpath
63554 57505.8 moveto
63339.1 57290.9 lineto
stroke
newpath
64976.8 56686.9 moveto
65191.8 56472 lineto
stroke
newpath
65191.8 56686.9 moveto
64976.8 56472 lineto
stroke
newpath
65795.7 66377 moveto
66010.6 66162.1 lineto
stroke
newpath
66010.6 66377 moveto
65795.7 66162.1 lineto
stroke
newpath
66478.1 68287.7 moveto
66693 68072.8 lineto
stroke
newpath
66693 68287.7 moveto
66478.1 68072.8 lineto
stroke
newpath
67769.3 58734.1 moveto
67984.2 58519.2 lineto
stroke
newpath
67984.2 58734.1 moveto
67769.3 58519.2 lineto
stroke
newpath
69064.6 74901.6 moveto
69279.5 74686.7 lineto
stroke
newpath
69279.5 74901.6 moveto
69064.6 74686.7 lineto
stroke
newpath
69207.7 71290.3 moveto
69422.7 71075.4 lineto
stroke
newpath
69422.7 71290.3 moveto
69207.7 71075.4 lineto
stroke
newpath
69207.7 70471.4 moveto
69422.7 70256.5 lineto
stroke
newpath
69422.7 70471.4 moveto
69207.7 70256.5 lineto
stroke
newpath
69207.7 69789 moveto
69422.7 69574.1 lineto
stroke
newpath
69422.7 69789 moveto
69207.7 69574.1 lineto
stroke
newpath
69207.7 69243.1 moveto
69422.7 69028.2 lineto
stroke
newpath
69422.7 69243.1 moveto
69207.7 69028.2 lineto
stroke
newpath
69228.7 75298.9 moveto
69443.6 75084 lineto
stroke
newpath
69443.6 75298.9 moveto
69228.7 75084 lineto
stroke
newpath
69257.5 73604 moveto
69472.4 73389 lineto
stroke
newpath
69472.4 73604 moveto
69257.5 73389 lineto
stroke
newpath
69753.6 56823.4 moveto
69968.6 56608.5 lineto
stroke
newpath
69968.6 56823.4 moveto
69753.6 56608.5 lineto
stroke
newpath
70709 71699.7 moveto
70923.9 71484.8 lineto
stroke
newpath
70923.9 71699.7 moveto
70709 71484.8 lineto
stroke
newpath
71299.2 42312.2 moveto
71514.1 42097.3 lineto
stroke
newpath
71514.1 42312.2 moveto
71299.2 42097.3 lineto
stroke
newpath
71800.9 69516.1 moveto
72015.8 69301.1 lineto
stroke
newpath
72015.8 69516.1 moveto
71800.9 69301.1 lineto
stroke
newpath
72619.7 68151.3 moveto
72834.7 67936.3 lineto
stroke
newpath
72834.7 68151.3 moveto
72619.7 67936.3 lineto
stroke
55257.7 75806 161.197 cir0
55257.7 74731.3 161.197 cir0
newpath
66995 51597.9 moveto
66995 51188.5 lineto
stroke
newpath
66790.3 51393.2 moveto
67199.7 51393.2 lineto
stroke
newpath
66995 48868.3 moveto
66995 48458.9 lineto
stroke
newpath
66790.3 48663.6 moveto
67199.7 48663.6 lineto
stroke
newpath
68359.8 50233.1 moveto
68359.8 49823.7 lineto
stroke
newpath
68155.1 50028.4 moveto
68564.5 50028.4 lineto
stroke
newpath
69724.6 51597.9 moveto
69724.6 51188.5 lineto
stroke
newpath
69519.9 51393.2 moveto
69929.4 51393.2 lineto
stroke
newpath
69724.6 48868.3 moveto
69724.6 48458.9 lineto
stroke
newpath
69519.9 48663.6 moveto
69929.4 48663.6 lineto
stroke
newpath
56076.6 51597.9 moveto
56076.6 51188.5 lineto
stroke
newpath
55871.9 51393.2 moveto
56281.3 51393.2 lineto
stroke
newpath
56076.6 48868.3 moveto
56076.6 48458.9 lineto
stroke
newpath
55871.9 48663.6 moveto
56281.3 48663.6 lineto
stroke
newpath
57441.4 50233.1 moveto
57441.4 49823.7 lineto
stroke
newpath
57236.7 50028.4 moveto
57646.1 50028.4 lineto
stroke
newpath
58806.2 51597.9 moveto
58806.2 51188.5 lineto
stroke
newpath
58601.5 51393.2 moveto
59010.9 51393.2 lineto
stroke
newpath
58806.2 48868.3 moveto
58806.2 48458.9 lineto
stroke
newpath
58601.5 48663.6 moveto
59010.9 48663.6 lineto
stroke
newpath
50617.4 51597.9 moveto
50617.4 51188.5 lineto
stroke
newpath
50412.7 51393.2 moveto
50822.1 51393.2 lineto
stroke
newpath
50617.4 48868.3 moveto
50617.4 48458.9 lineto
stroke
newpath
50412.7 48663.6 moveto
50822.1 48663.6 lineto
stroke
newpath
51982.2 50233.1 moveto
51982.2 49823.7 lineto
stroke
newpath
51777.5 50028.4 moveto
52186.9 50028.4 lineto
stroke
newpath
53347 51597.9 moveto
53347 51188.5 lineto
stroke
newpath
53142.3 51393.2 moveto
53551.7 51393.2 lineto
stroke
newpath
53347 48868.3 moveto
53347 48458.9 lineto
stroke
newpath
53142.3 48663.6 moveto
53551.7 48663.6 lineto
stroke
newpath
61535.8 51597.9 moveto
61535.8 51188.5 lineto
stroke
newpath
61331.1 51393.2 moveto
61740.5 51393.2 lineto
stroke
newpath
61535.8 48868.3 moveto
61535.8 48458.9 lineto
stroke
newpath
61331.1 48663.6 moveto
61740.5 48663.6 lineto
stroke
newpath
62900.6 50233.1 moveto
62900.6 49823.7 lineto
stroke
newpath
62695.9 50028.4 moveto
63105.3 50028.4 lineto
stroke
newpath
64265.4 51597.9 moveto
64265.4 51188.5 lineto
stroke
newpath
64060.7 51393.2 moveto
64470.1 51393.2 lineto
stroke
newpath
64265.4 48868.3 moveto
64265.4 48458.9 lineto
stroke
newpath
64060.7 48663.6 moveto
64470.1 48663.6 lineto
stroke
newpath
72644.2 51066.7 moveto
72644.2 51446.7 lineto
72264.3 51446.7 lineto
72264.3 51066.7 lineto
72644.2 51066.7 lineto
poly0
newpath
72644.2 49701.9 moveto
72644.2 50081.9 lineto
72264.3 50081.9 lineto
72264.3 49701.9 lineto
72644.2 49701.9 lineto
poly0
newpath
72644.2 48337.1 moveto
72644.2 48717.1 lineto
72264.3 48717.1 lineto
72264.3 48337.1 lineto
72644.2 48337.1 lineto
poly0
newpath
72644.2 44925.1 moveto
72644.2 45305.1 lineto
72264.3 45305.1 lineto
72264.3 44925.1 lineto
72644.2 44925.1 lineto
poly0
newpath
72644.2 43560.3 moveto
72644.2 43940.3 lineto
72264.3 43940.3 lineto
72264.3 43560.3 lineto
72644.2 43560.3 lineto
poly0
newpath
72644.2 42195.5 moveto
72644.2 42575.5 lineto
72264.3 42575.5 lineto
72264.3 42195.5 lineto
72644.2 42195.5 lineto
poly0
newpath
72644.2 57208.3 moveto
72644.2 57588.3 lineto
72264.3 57588.3 lineto
72264.3 57208.3 lineto
72644.2 57208.3 lineto
poly0
newpath
72644.2 55843.5 moveto
72644.2 56223.5 lineto
72264.3 56223.5 lineto
72264.3 55843.5 lineto
72644.2 55843.5 lineto
poly0
newpath
72644.2 54478.7 moveto
72644.2 54858.7 lineto
72264.3 54858.7 lineto
72264.3 54478.7 lineto
72644.2 54478.7 lineto
poly0
newpath
56130.1 68945.7 moveto
56130.1 69325.6 lineto
55750.1 69325.6 lineto
55750.1 68945.7 lineto
56130.1 68945.7 lineto
poly0
newpath
56130.1 67580.9 moveto
56130.1 67960.8 lineto
55750.1 67960.8 lineto
55750.1 67580.9 lineto
56130.1 67580.9 lineto
poly0
newpath
48077.7 77543.9 moveto
48077.7 77923.9 lineto
47697.8 77923.9 lineto
47697.8 77543.9 lineto
48077.7 77543.9 lineto
poly0
newpath
49442.5 77543.9 moveto
49442.5 77923.9 lineto
49062.6 77923.9 lineto
49062.6 77543.9 lineto
49442.5 77543.9 lineto
poly0
newpath
56676 62531.1 moveto
56676 62911 lineto
56296.1 62911 lineto
56296.1 62531.1 lineto
56676 62531.1 lineto
poly0
newpath
58040.8 62531.1 moveto
58040.8 62911 lineto
57660.9 62911 lineto
57660.9 62531.1 lineto
58040.8 62531.1 lineto
poly0
newpath
59405.6 62531.1 moveto
59405.6 62911 lineto
59025.7 62911 lineto
59025.7 62531.1 lineto
59405.6 62531.1 lineto
poly0
newpath
60770.4 62531.1 moveto
60770.4 62911 lineto
60390.5 62911 lineto
60390.5 62531.1 lineto
60770.4 62531.1 lineto
poly0
newpath
62135.2 62531.1 moveto
62135.2 62911 lineto
61755.3 62911 lineto
61755.3 62531.1 lineto
62135.2 62531.1 lineto
poly0
newpath
63500 62531.1 moveto
63500 62911 lineto
63120.1 62911 lineto
63120.1 62531.1 lineto
63500 62531.1 lineto
poly0
newpath
56676 64578.3 moveto
56676 64958.2 lineto
56296.1 64958.2 lineto
56296.1 64578.3 lineto
56676 64578.3 lineto
poly0
newpath
58040.8 64578.3 moveto
58040.8 64958.2 lineto
57660.9 64958.2 lineto
57660.9 64578.3 lineto
58040.8 64578.3 lineto
poly0
newpath
59405.6 64578.3 moveto
59405.6 64958.2 lineto
59025.7 64958.2 lineto
59025.7 64578.3 lineto
59405.6 64578.3 lineto
poly0
newpath
60770.4 64578.3 moveto
60770.4 64958.2 lineto
60390.5 64958.2 lineto
60390.5 64578.3 lineto
60770.4 64578.3 lineto
poly0
newpath
62135.2 64578.3 moveto
62135.2 64958.2 lineto
61755.3 64958.2 lineto
61755.3 64578.3 lineto
62135.2 64578.3 lineto
poly0
newpath
63500 64578.3 moveto
63500 64958.2 lineto
63120.1 64958.2 lineto
63120.1 64578.3 lineto
63500 64578.3 lineto
poly0
newpath
73326.6 77134.5 moveto
73326.6 77514.4 lineto
72946.7 77514.4 lineto
72946.7 77134.5 lineto
73326.6 77134.5 lineto
poly0
newpath
73326.6 75769.7 moveto
73326.6 76149.6 lineto
72946.7 76149.6 lineto
72946.7 75769.7 lineto
73326.6 75769.7 lineto
poly0
newpath
73326.6 74404.9 moveto
73326.6 74784.8 lineto
72946.7 74784.8 lineto
72946.7 74404.9 lineto
73326.6 74404.9 lineto
poly0
newpath
73326.6 73040.1 moveto
73326.6 73420 lineto
72946.7 73420 lineto
72946.7 73040.1 lineto
73326.6 73040.1 lineto
poly0
newpath
73326.6 71675.3 moveto
73326.6 72055.2 lineto
72946.7 72055.2 lineto
72946.7 71675.3 lineto
73326.6 71675.3 lineto
poly0
newpath
73326.6 70310.5 moveto
73326.6 70690.4 lineto
72946.7 70690.4 lineto
72946.7 70310.5 lineto
73326.6 70310.5 lineto
poly0
newpath
45021.7 75209 moveto
45294.6 75482 lineto
45021.7 75754.9 lineto
44748.7 75482 lineto
45021.7 75209 lineto
poly0
newpath
45021.7 65004.1 moveto
45294.6 65277.1 lineto
45021.7 65550.1 lineto
44748.7 65277.1 lineto
45021.7 65004.1 lineto
poly0
newpath
46386.5 75209 moveto
46659.4 75482 lineto
46386.5 75754.9 lineto
46113.5 75482 lineto
46386.5 75209 lineto
poly0
newpath
46386.5 65004.1 moveto
46659.4 65277.1 lineto
46386.5 65550.1 lineto
46113.5 65277.1 lineto
46386.5 65004.1 lineto
poly0
newpath
50753.9 75277.2 moveto
51026.8 75550.2 lineto
50753.9 75823.2 lineto
50480.9 75550.2 lineto
50753.9 75277.2 lineto
poly0
newpath
50753.9 65004.1 moveto
51026.8 65277.1 lineto
50753.9 65550.1 lineto
50480.9 65277.1 lineto
50753.9 65004.1 lineto
poly0
newpath
52118.7 75277.2 moveto
52391.6 75550.2 lineto
52118.7 75823.2 lineto
51845.7 75550.2 lineto
52118.7 75277.2 lineto
poly0
newpath
52118.7 65004.1 moveto
52391.6 65277.1 lineto
52118.7 65550.1 lineto
51845.7 65277.1 lineto
52118.7 65004.1 lineto
poly0
newpath
44043.8 55919.6 moveto
44634.8 55328.5 lineto
stroke
newpath
44634.8 55919.6 moveto
44043.8 55328.5 lineto
stroke
44339.3 55624.1 295.528 cir0
newpath
44043.8 52427 moveto
44634.8 51835.9 lineto
stroke
newpath
44634.8 52427 moveto
44043.8 51835.9 lineto
stroke
44339.3 52131.5 295.528 cir0
newpath
46461.7 55919.6 moveto
47052.8 55328.5 lineto
stroke
newpath
47052.8 55919.6 moveto
46461.7 55328.5 lineto
stroke
46757.2 55624.1 295.528 cir0
newpath
46461.7 52427 moveto
47052.8 51835.9 lineto
stroke
newpath
47052.8 52427 moveto
46461.7 51835.9 lineto
stroke
46757.2 52131.5 295.528 cir0
newpath
50048.9 62960.7 moveto
50639.9 62369.6 lineto
stroke
newpath
50639.9 62960.7 moveto
50048.9 62369.6 lineto
stroke
50344.4 62665.2 295.528 cir0
newpath
50048.9 59468.1 moveto
50639.9 58877 lineto
stroke
newpath
50639.9 59468.1 moveto
50048.9 58877 lineto
stroke
50344.4 59172.6 295.528 cir0
newpath
52466.8 62960.7 moveto
53057.9 62369.6 lineto
stroke
newpath
53057.9 62960.7 moveto
52466.8 62369.6 lineto
stroke
52762.4 62665.2 295.528 cir0
newpath
52466.8 59468.1 moveto
53057.9 58877 lineto
stroke
newpath
53057.9 59468.1 moveto
52466.8 58877 lineto
stroke
52762.4 59172.6 295.528 cir0
newpath
44043.8 61459.4 moveto
44634.8 60868.4 lineto
stroke
newpath
44634.8 61459.4 moveto
44043.8 60868.4 lineto
stroke
44339.3 61163.9 295.528 cir0
newpath
44043.8 57966.8 moveto
44634.8 57375.8 lineto
stroke
newpath
44634.8 57966.8 moveto
44043.8 57375.8 lineto
stroke
44339.3 57671.3 295.528 cir0
newpath
46461.7 61459.4 moveto
47052.8 60868.4 lineto
stroke
newpath
47052.8 61459.4 moveto
46461.7 60868.4 lineto
stroke
46757.2 61163.9 295.528 cir0
newpath
46461.7 57966.8 moveto
47052.8 57375.8 lineto
stroke
newpath
47052.8 57966.8 moveto
46461.7 57375.8 lineto
stroke
46757.2 57671.3 295.528 cir0
newpath
44043.8 50404.5 moveto
44634.8 49813.4 lineto
stroke
newpath
44634.8 50404.5 moveto
44043.8 49813.4 lineto
stroke
44339.3 50109 295.528 cir0
newpath
44043.8 46911.9 moveto
44634.8 46320.8 lineto
stroke
newpath
44634.8 46911.9 moveto
44043.8 46320.8 lineto
stroke
44339.3 46616.4 295.528 cir0
newpath
46461.7 50404.5 moveto
47052.8 49813.4 lineto
stroke
newpath
47052.8 50404.5 moveto
46461.7 49813.4 lineto
stroke
46757.2 50109 295.528 cir0
newpath
46461.7 46911.9 moveto
47052.8 46320.8 lineto
stroke
newpath
47052.8 46911.9 moveto
46461.7 46320.8 lineto
stroke
46757.2 46616.4 295.528 cir0
newpath
69321.6 42924.9 moveto
70127.6 42119 lineto
stroke
newpath
70127.6 42924.9 moveto
69321.6 42119 lineto
stroke
newpath
69724.6 42924.9 moveto
69724.6 42119 lineto
stroke
newpath
69321.6 42522 moveto
70127.6 42522 lineto
stroke
newpath
55673.6 42924.9 moveto
56479.6 42119 lineto
stroke
newpath
56479.6 42924.9 moveto
55673.6 42119 lineto
stroke
newpath
56076.6 42924.9 moveto
56076.6 42119 lineto
stroke
newpath
55673.6 42522 moveto
56479.6 42522 lineto
stroke
newpath
58403.2 42924.9 moveto
59209.2 42119 lineto
stroke
newpath
59209.2 42924.9 moveto
58403.2 42119 lineto
stroke
newpath
58806.2 42924.9 moveto
58806.2 42119 lineto
stroke
newpath
58403.2 42522 moveto
59209.2 42522 lineto
stroke
newpath
61132.8 42924.9 moveto
61938.8 42119 lineto
stroke
newpath
61938.8 42924.9 moveto
61132.8 42119 lineto
stroke
newpath
61535.8 42924.9 moveto
61535.8 42119 lineto
stroke
newpath
61132.8 42522 moveto
61938.8 42522 lineto
stroke
newpath
63862.4 42924.9 moveto
64668.4 42119 lineto
stroke
newpath
64668.4 42924.9 moveto
63862.4 42119 lineto
stroke
newpath
64265.4 42924.9 moveto
64265.4 42119 lineto
stroke
newpath
63862.4 42522 moveto
64668.4 42522 lineto
stroke
newpath
44755.2 42924.9 moveto
45561.2 42119 lineto
stroke
newpath
45561.2 42924.9 moveto
44755.2 42119 lineto
stroke
newpath
45158.2 42924.9 moveto
45158.2 42119 lineto
stroke
newpath
44755.2 42522 moveto
45561.2 42522 lineto
stroke
newpath
47484.8 42924.9 moveto
48290.8 42119 lineto
stroke
newpath
48290.8 42924.9 moveto
47484.8 42119 lineto
stroke
newpath
47887.8 42924.9 moveto
47887.8 42119 lineto
stroke
newpath
47484.8 42522 moveto
48290.8 42522 lineto
stroke
newpath
50214.4 42924.9 moveto
51020.4 42119 lineto
stroke
newpath
51020.4 42924.9 moveto
50214.4 42119 lineto
stroke
newpath
50617.4 42924.9 moveto
50617.4 42119 lineto
stroke
newpath
50214.4 42522 moveto
51020.4 42522 lineto
stroke
newpath
52944 42924.9 moveto
53750 42119 lineto
stroke
newpath
53750 42924.9 moveto
52944 42119 lineto
stroke
newpath
53347 42924.9 moveto
53347 42119 lineto
stroke
newpath
52944 42522 moveto
53750 42522 lineto
stroke
newpath
68639.2 64761.8 moveto
69445.2 63955.8 lineto
stroke
newpath
69445.2 64761.8 moveto
68639.2 63955.8 lineto
stroke
newpath
69042.2 64761.8 moveto
69042.2 63955.8 lineto
stroke
newpath
68639.2 64358.8 moveto
69445.2 64358.8 lineto
stroke
newpath
68639.2 62032.2 moveto
69445.2 61226.2 lineto
stroke
newpath
69445.2 62032.2 moveto
68639.2 61226.2 lineto
stroke
newpath
69042.2 62032.2 moveto
69042.2 61226.2 lineto
stroke
newpath
68639.2 61629.2 moveto
69445.2 61629.2 lineto
stroke
newpath
66592 42924.9 moveto
67398 42119 lineto
stroke
newpath
67398 42924.9 moveto
66592 42119 lineto
stroke
newpath
66995 42924.9 moveto
66995 42119 lineto
stroke
newpath
66592 42522 moveto
67398 42522 lineto
stroke
118.11 setlinewidth
0 0 0 setrgbcolor
0 0 0 setrgbcolor
newpath
43502.5 35175.5 moveto
43502.5 36356.6 lineto
43783.7 36356.6 lineto
43952.4 36300.3 lineto
44064.9 36187.9 lineto
44121.2 36075.4 lineto
44177.4 35850.4 lineto
44177.4 35681.7 lineto
44121.2 35456.7 lineto
44064.9 35344.2 lineto
43952.4 35231.7 lineto
43783.7 35175.5 lineto
43502.5 35175.5 lineto
stroke
newpath
44683.6 35175.5 moveto
44683.6 35962.9 lineto
stroke
newpath
44683.6 35737.9 moveto
44739.8 35850.4 lineto
44796.1 35906.6 lineto
44908.6 35962.9 lineto
45021.1 35962.9 lineto
stroke
newpath
45414.8 35175.5 moveto
45414.8 35962.9 lineto
stroke
newpath
45414.8 36356.6 moveto
45358.5 36300.3 lineto
45414.8 36244.1 lineto
45471 36300.3 lineto
45414.8 36356.6 lineto
45414.8 36244.1 lineto
stroke
newpath
46145.9 35175.5 moveto
46033.4 35231.7 lineto
45977.2 35344.2 lineto
45977.2 36356.6 lineto
stroke
newpath
46764.6 35175.5 moveto
46652.1 35231.7 lineto
46595.9 35344.2 lineto
46595.9 36356.6 lineto
stroke
newpath
48114.4 35175.5 moveto
48114.4 36356.6 lineto
48508.1 35512.9 lineto
48901.8 36356.6 lineto
48901.8 35175.5 lineto
stroke
newpath
49970.4 35175.5 moveto
49970.4 35794.2 lineto
49914.2 35906.6 lineto
49801.7 35962.9 lineto
49576.7 35962.9 lineto
49464.2 35906.6 lineto
stroke
newpath
49970.4 35231.7 moveto
49857.9 35175.5 lineto
49576.7 35175.5 lineto
49464.2 35231.7 lineto
49408 35344.2 lineto
49408 35456.7 lineto
49464.2 35569.2 lineto
49576.7 35625.4 lineto
49857.9 35625.4 lineto
49970.4 35681.7 lineto
stroke
newpath
50532.9 35962.9 moveto
50532.9 34781.8 lineto
stroke
newpath
50532.9 35906.6 moveto
50645.3 35962.9 lineto
50870.3 35962.9 lineto
50982.8 35906.6 lineto
51039.1 35850.4 lineto
51095.3 35737.9 lineto
51095.3 35400.5 lineto
51039.1 35288 lineto
50982.8 35231.7 lineto
50870.3 35175.5 lineto
50645.3 35175.5 lineto
50532.9 35231.7 lineto
stroke
newpath
51601.5 35288 moveto
51657.7 35231.7 lineto
51601.5 35175.5 lineto
51545.2 35231.7 lineto
51601.5 35288 lineto
51601.5 35175.5 lineto
stroke
newpath
51601.5 35906.6 moveto
51657.7 35850.4 lineto
51601.5 35794.2 lineto
51545.2 35850.4 lineto
51601.5 35906.6 lineto
51601.5 35794.2 lineto
stroke
newpath
42159.9 33336.9 moveto
42374.8 33122 lineto
stroke
newpath
42374.8 33336.9 moveto
42159.9 33122 lineto
stroke
0 0 0 setrgbcolor
0 0 0 setrgbcolor
newpath
43727.5 33876.3 moveto
43840 33876.3 lineto
43952.4 33820 lineto
44008.7 33763.8 lineto
44064.9 33651.3 lineto
44121.2 33426.3 lineto
44121.2 33145.1 lineto
44064.9 32920.1 lineto
44008.7 32807.7 lineto
43952.4 32751.4 lineto
43840 32695.2 lineto
43727.5 32695.2 lineto
43615 32751.4 lineto
43558.7 32807.7 lineto
43502.5 32920.1 lineto
43446.3 33145.1 lineto
43446.3 33426.3 lineto
43502.5 33651.3 lineto
43558.7 33763.8 lineto
43615 33820 lineto
43727.5 33876.3 lineto
stroke
newpath
44627.4 32807.7 moveto
44683.6 32751.4 lineto
44627.4 32695.2 lineto
44571.1 32751.4 lineto
44627.4 32807.7 lineto
44627.4 32695.2 lineto
stroke
newpath
45696 33482.6 moveto
45696 32695.2 lineto
stroke
newpath
45414.8 33932.5 moveto
45133.5 33088.9 lineto
45864.7 33088.9 lineto
stroke
newpath
46539.6 33876.3 moveto
46652.1 33876.3 lineto
46764.6 33820 lineto
46820.8 33763.8 lineto
46877.1 33651.3 lineto
46933.3 33426.3 lineto
46933.3 33145.1 lineto
46877.1 32920.1 lineto
46820.8 32807.7 lineto
46764.6 32751.4 lineto
46652.1 32695.2 lineto
46539.6 32695.2 lineto
46427.1 32751.4 lineto
46370.9 32807.7 lineto
46314.6 32920.1 lineto
46258.4 33145.1 lineto
46258.4 33426.3 lineto
46314.6 33651.3 lineto
46370.9 33763.8 lineto
46427.1 33820 lineto
46539.6 33876.3 lineto
stroke
newpath
47439.5 32695.2 moveto
47439.5 33482.6 lineto
stroke
newpath
47439.5 33370.1 moveto
47495.7 33426.3 lineto
47608.2 33482.6 lineto
47777 33482.6 lineto
47889.4 33426.3 lineto
47945.7 33313.8 lineto
47945.7 32695.2 lineto
stroke
newpath
47945.7 33313.8 moveto
48001.9 33426.3 lineto
48114.4 33482.6 lineto
48283.1 33482.6 lineto
48395.6 33426.3 lineto
48451.9 33313.8 lineto
48451.9 32695.2 lineto
stroke
newpath
49014.3 32695.2 moveto
49014.3 33482.6 lineto
stroke
newpath
49014.3 33370.1 moveto
49070.5 33426.3 lineto
49183 33482.6 lineto
49351.8 33482.6 lineto
49464.2 33426.3 lineto
49520.5 33313.8 lineto
49520.5 32695.2 lineto
stroke
newpath
49520.5 33313.8 moveto
49576.7 33426.3 lineto
49689.2 33482.6 lineto
49857.9 33482.6 lineto
49970.4 33426.3 lineto
50026.7 33313.8 lineto
50026.7 32695.2 lineto
stroke
newpath
52332.6 33932.5 moveto
51320.3 32414 lineto
stroke
newpath
53851.2 33876.3 moveto
53963.7 33876.3 lineto
54076.2 33820 lineto
54132.4 33763.8 lineto
54188.7 33651.3 lineto
54244.9 33426.3 lineto
54244.9 33145.1 lineto
54188.7 32920.1 lineto
54132.4 32807.7 lineto
54076.2 32751.4 lineto
53963.7 32695.2 lineto
53851.2 32695.2 lineto
53738.7 32751.4 lineto
53682.5 32807.7 lineto
53626.2 32920.1 lineto
53570 33145.1 lineto
53570 33426.3 lineto
53626.2 33651.3 lineto
53682.5 33763.8 lineto
53738.7 33820 lineto
53851.2 33876.3 lineto
stroke
newpath
54751.1 32807.7 moveto
54807.3 32751.4 lineto
54751.1 32695.2 lineto
54694.8 32751.4 lineto
54751.1 32807.7 lineto
54751.1 32695.2 lineto
stroke
newpath
55538.5 33876.3 moveto
55651 33876.3 lineto
55763.5 33820 lineto
55819.7 33763.8 lineto
55875.9 33651.3 lineto
55932.2 33426.3 lineto
55932.2 33145.1 lineto
55875.9 32920.1 lineto
55819.7 32807.7 lineto
55763.5 32751.4 lineto
55651 32695.2 lineto
55538.5 32695.2 lineto
55426 32751.4 lineto
55369.8 32807.7 lineto
55313.5 32920.1 lineto
55257.3 33145.1 lineto
55257.3 33426.3 lineto
55313.5 33651.3 lineto
55369.8 33763.8 lineto
55426 33820 lineto
55538.5 33876.3 lineto
stroke
newpath
57057 32695.2 moveto
56382.1 32695.2 lineto
stroke
newpath
56719.6 32695.2 moveto
56719.6 33876.3 lineto
56607.1 33707.5 lineto
56494.6 33595.1 lineto
56382.1 33538.8 lineto
stroke
newpath
58069.4 33876.3 moveto
57844.5 33876.3 lineto
57732 33820 lineto
57675.7 33763.8 lineto
57563.2 33595.1 lineto
57507 33370.1 lineto
57507 32920.1 lineto
57563.2 32807.7 lineto
57619.5 32751.4 lineto
57732 32695.2 lineto
57956.9 32695.2 lineto
58069.4 32751.4 lineto
58125.7 32807.7 lineto
58181.9 32920.1 lineto
58181.9 33201.4 lineto
58125.7 33313.8 lineto
58069.4 33370.1 lineto
57956.9 33426.3 lineto
57732 33426.3 lineto
57619.5 33370.1 lineto
57563.2 33313.8 lineto
57507 33201.4 lineto
stroke
newpath
58631.9 33876.3 moveto
58631.9 33651.3 lineto
stroke
newpath
59081.8 33876.3 moveto
59081.8 33651.3 lineto
stroke
newpath
60825.3 32245.2 moveto
60769.1 32301.5 lineto
60656.6 32470.2 lineto
60600.4 32582.7 lineto
60544.1 32751.4 lineto
60487.9 33032.6 lineto
60487.9 33257.6 lineto
60544.1 33538.8 lineto
60600.4 33707.5 lineto
60656.6 33820 lineto
60769.1 33988.8 lineto
60825.3 34045 lineto
stroke
newpath
61162.8 33876.3 moveto
61893.9 33876.3 lineto
61500.2 33426.3 lineto
61669 33426.3 lineto
61781.5 33370.1 lineto
61837.7 33313.8 lineto
61893.9 33201.4 lineto
61893.9 32920.1 lineto
61837.7 32807.7 lineto
61781.5 32751.4 lineto
61669 32695.2 lineto
61331.5 32695.2 lineto
61219 32751.4 lineto
61162.8 32807.7 lineto
stroke
newpath
62456.4 32695.2 moveto
62681.3 32695.2 lineto
62793.8 32751.4 lineto
62850.1 32807.7 lineto
62962.6 32976.4 lineto
63018.8 33201.4 lineto
63018.8 33651.3 lineto
62962.6 33763.8 lineto
62906.3 33820 lineto
62793.8 33876.3 lineto
62568.9 33876.3 lineto
62456.4 33820 lineto
62400.1 33763.8 lineto
62343.9 33651.3 lineto
62343.9 33370.1 lineto
62400.1 33257.6 lineto
62456.4 33201.4 lineto
62568.9 33145.1 lineto
62793.8 33145.1 lineto
62906.3 33201.4 lineto
62962.6 33257.6 lineto
63018.8 33370.1 lineto
stroke
newpath
64424.9 32695.2 moveto
64424.9 33876.3 lineto
stroke
newpath
64931.1 32695.2 moveto
64931.1 33313.8 lineto
64874.8 33426.3 lineto
64762.3 33482.6 lineto
64593.6 33482.6 lineto
64481.1 33426.3 lineto
64424.9 33370.1 lineto
stroke
newpath
65662.2 32695.2 moveto
65549.7 32751.4 lineto
65493.5 32807.7 lineto
65437.3 32920.1 lineto
65437.3 33257.6 lineto
65493.5 33370.1 lineto
65549.7 33426.3 lineto
65662.2 33482.6 lineto
65831 33482.6 lineto
65943.4 33426.3 lineto
65999.7 33370.1 lineto
66055.9 33257.6 lineto
66055.9 32920.1 lineto
65999.7 32807.7 lineto
65943.4 32751.4 lineto
65831 32695.2 lineto
65662.2 32695.2 lineto
stroke
newpath
66730.8 32695.2 moveto
66618.4 32751.4 lineto
66562.1 32863.9 lineto
66562.1 33876.3 lineto
stroke
newpath
67630.7 32751.4 moveto
67518.2 32695.2 lineto
67293.3 32695.2 lineto
67180.8 32751.4 lineto
67124.5 32863.9 lineto
67124.5 33313.8 lineto
67180.8 33426.3 lineto
67293.3 33482.6 lineto
67518.2 33482.6 lineto
67630.7 33426.3 lineto
67687 33313.8 lineto
67687 33201.4 lineto
67124.5 33088.9 lineto
stroke
newpath
68136.9 32751.4 moveto
68249.4 32695.2 lineto
68474.4 32695.2 lineto
68586.9 32751.4 lineto
68643.1 32863.9 lineto
68643.1 32920.1 lineto
68586.9 33032.6 lineto
68474.4 33088.9 lineto
68305.6 33088.9 lineto
68193.2 33145.1 lineto
68136.9 33257.6 lineto
68136.9 33313.8 lineto
68193.2 33426.3 lineto
68305.6 33482.6 lineto
68474.4 33482.6 lineto
68586.9 33426.3 lineto
stroke
newpath
69036.8 32245.2 moveto
69093 32301.5 lineto
69205.5 32470.2 lineto
69261.8 32582.7 lineto
69318 32751.4 lineto
69374.3 33032.6 lineto
69374.3 33257.6 lineto
69318 33538.8 lineto
69261.8 33707.5 lineto
69205.5 33820 lineto
69093 33988.8 lineto
69036.8 34045 lineto
stroke
42213.6 31670.4 161.197 cir0
0 0 0 setrgbcolor
0 0 0 setrgbcolor
newpath
43727.5 32317.2 moveto
43840 32317.2 lineto
43952.4 32261 lineto
44008.7 32204.7 lineto
44064.9 32092.2 lineto
44121.2 31867.3 lineto
44121.2 31586.1 lineto
44064.9 31361.1 lineto
44008.7 31248.6 lineto
43952.4 31192.4 lineto
43840 31136.1 lineto
43727.5 31136.1 lineto
43615 31192.4 lineto
43558.7 31248.6 lineto
43502.5 31361.1 lineto
43446.3 31586.1 lineto
43446.3 31867.3 lineto
43502.5 32092.2 lineto
43558.7 32204.7 lineto
43615 32261 lineto
43727.5 32317.2 lineto
stroke
newpath
44627.4 31248.6 moveto
44683.6 31192.4 lineto
44627.4 31136.1 lineto
44571.1 31192.4 lineto
44627.4 31248.6 lineto
44627.4 31136.1 lineto
stroke
newpath
45696 32317.2 moveto
45471 32317.2 lineto
45358.5 32261 lineto
45302.3 32204.7 lineto
45189.8 32036 lineto
45133.5 31811 lineto
45133.5 31361.1 lineto
45189.8 31248.6 lineto
45246 31192.4 lineto
45358.5 31136.1 lineto
45583.5 31136.1 lineto
45696 31192.4 lineto
45752.2 31248.6 lineto
45808.5 31361.1 lineto
45808.5 31642.3 lineto
45752.2 31754.8 lineto
45696 31811 lineto
45583.5 31867.3 lineto
45358.5 31867.3 lineto
45246 31811 lineto
45189.8 31754.8 lineto
45133.5 31642.3 lineto
stroke
newpath
46539.6 32317.2 moveto
46652.1 32317.2 lineto
46764.6 32261 lineto
46820.8 32204.7 lineto
46877.1 32092.2 lineto
46933.3 31867.3 lineto
46933.3 31586.1 lineto
46877.1 31361.1 lineto
46820.8 31248.6 lineto
46764.6 31192.4 lineto
46652.1 31136.1 lineto
46539.6 31136.1 lineto
46427.1 31192.4 lineto
46370.9 31248.6 lineto
46314.6 31361.1 lineto
46258.4 31586.1 lineto
46258.4 31867.3 lineto
46314.6 32092.2 lineto
46370.9 32204.7 lineto
46427.1 32261 lineto
46539.6 32317.2 lineto
stroke
newpath
47439.5 31136.1 moveto
47439.5 31923.5 lineto
stroke
newpath
47439.5 31811 moveto
47495.7 31867.3 lineto
47608.2 31923.5 lineto
47777 31923.5 lineto
47889.4 31867.3 lineto
47945.7 31754.8 lineto
47945.7 31136.1 lineto
stroke
newpath
47945.7 31754.8 moveto
48001.9 31867.3 lineto
48114.4 31923.5 lineto
48283.1 31923.5 lineto
48395.6 31867.3 lineto
48451.9 31754.8 lineto
48451.9 31136.1 lineto
stroke
newpath
49014.3 31136.1 moveto
49014.3 31923.5 lineto
stroke
newpath
49014.3 31811 moveto
49070.5 31867.3 lineto
49183 31923.5 lineto
49351.8 31923.5 lineto
49464.2 31867.3 lineto
49520.5 31754.8 lineto
49520.5 31136.1 lineto
stroke
newpath
49520.5 31754.8 moveto
49576.7 31867.3 lineto
49689.2 31923.5 lineto
49857.9 31923.5 lineto
49970.4 31867.3 lineto
50026.7 31754.8 lineto
50026.7 31136.1 lineto
stroke
newpath
52332.6 32373.5 moveto
51320.3 30854.9 lineto
stroke
newpath
53851.2 32317.2 moveto
53963.7 32317.2 lineto
54076.2 32261 lineto
54132.4 32204.7 lineto
54188.7 32092.2 lineto
54244.9 31867.3 lineto
54244.9 31586.1 lineto
54188.7 31361.1 lineto
54132.4 31248.6 lineto
54076.2 31192.4 lineto
53963.7 31136.1 lineto
53851.2 31136.1 lineto
53738.7 31192.4 lineto
53682.5 31248.6 lineto
53626.2 31361.1 lineto
53570 31586.1 lineto
53570 31867.3 lineto
53626.2 32092.2 lineto
53682.5 32204.7 lineto
53738.7 32261 lineto
53851.2 32317.2 lineto
stroke
newpath
54751.1 31248.6 moveto
54807.3 31192.4 lineto
54751.1 31136.1 lineto
54694.8 31192.4 lineto
54751.1 31248.6 lineto
54751.1 31136.1 lineto
stroke
newpath
55538.5 32317.2 moveto
55651 32317.2 lineto
55763.5 32261 lineto
55819.7 32204.7 lineto
55875.9 32092.2 lineto
55932.2 31867.3 lineto
55932.2 31586.1 lineto
55875.9 31361.1 lineto
55819.7 31248.6 lineto
55763.5 31192.4 lineto
55651 31136.1 lineto
55538.5 31136.1 lineto
55426 31192.4 lineto
55369.8 31248.6 lineto
55313.5 31361.1 lineto
55257.3 31586.1 lineto
55257.3 31867.3 lineto
55313.5 32092.2 lineto
55369.8 32204.7 lineto
55426 32261 lineto
55538.5 32317.2 lineto
stroke
newpath
56382.1 32204.7 moveto
56438.4 32261 lineto
56550.9 32317.2 lineto
56832.1 32317.2 lineto
56944.6 32261 lineto
57000.8 32204.7 lineto
57057 32092.2 lineto
57057 31979.8 lineto
57000.8 31811 lineto
56325.9 31136.1 lineto
57057 31136.1 lineto
stroke
newpath
58069.4 31923.5 moveto
58069.4 31136.1 lineto
stroke
newpath
57788.2 32373.5 moveto
57507 31529.8 lineto
58238.2 31529.8 lineto
stroke
newpath
58631.9 32317.2 moveto
58631.9 32092.2 lineto
stroke
newpath
59081.8 32317.2 moveto
59081.8 32092.2 lineto
stroke
newpath
60825.3 30686.2 moveto
60769.1 30742.4 lineto
60656.6 30911.1 lineto
60600.4 31023.6 lineto
60544.1 31192.4 lineto
60487.9 31473.6 lineto
60487.9 31698.5 lineto
60544.1 31979.8 lineto
60600.4 32148.5 lineto
60656.6 32261 lineto
60769.1 32429.7 lineto
60825.3 32485.9 lineto
stroke
newpath
61219 32204.7 moveto
61275.3 32261 lineto
61387.8 32317.2 lineto
61669 32317.2 lineto
61781.5 32261 lineto
61837.7 32204.7 lineto
61893.9 32092.2 lineto
61893.9 31979.8 lineto
61837.7 31811 lineto
61162.8 31136.1 lineto
61893.9 31136.1 lineto
stroke
newpath
63300 31136.1 moveto
63300 32317.2 lineto
stroke
newpath
63806.2 31136.1 moveto
63806.2 31754.8 lineto
63750 31867.3 lineto
63637.5 31923.5 lineto
63468.7 31923.5 lineto
63356.3 31867.3 lineto
63300 31811 lineto
stroke
newpath
64537.4 31136.1 moveto
64424.9 31192.4 lineto
64368.6 31248.6 lineto
64312.4 31361.1 lineto
64312.4 31698.5 lineto
64368.6 31811 lineto
64424.9 31867.3 lineto
64537.4 31923.5 lineto
64706.1 31923.5 lineto
64818.6 31867.3 lineto
64874.8 31811 lineto
64931.1 31698.5 lineto
64931.1 31361.1 lineto
64874.8 31248.6 lineto
64818.6 31192.4 lineto
64706.1 31136.1 lineto
64537.4 31136.1 lineto
stroke
newpath
65606 31136.1 moveto
65493.5 31192.4 lineto
65437.3 31304.8 lineto
65437.3 32317.2 lineto
stroke
newpath
66505.9 31192.4 moveto
66393.4 31136.1 lineto
66168.4 31136.1 lineto
66055.9 31192.4 lineto
65999.7 31304.8 lineto
65999.7 31754.8 lineto
66055.9 31867.3 lineto
66168.4 31923.5 lineto
66393.4 31923.5 lineto
66505.9 31867.3 lineto
66562.1 31754.8 lineto
66562.1 31642.3 lineto
65999.7 31529.8 lineto
stroke
newpath
67012.1 31192.4 moveto
67124.5 31136.1 lineto
67349.5 31136.1 lineto
67462 31192.4 lineto
67518.2 31304.8 lineto
67518.2 31361.1 lineto
67462 31473.6 lineto
67349.5 31529.8 lineto
67180.8 31529.8 lineto
67068.3 31586.1 lineto
67012.1 31698.5 lineto
67012.1 31754.8 lineto
67068.3 31867.3 lineto
67180.8 31923.5 lineto
67349.5 31923.5 lineto
67462 31867.3 lineto
stroke
newpath
67911.9 30686.2 moveto
67968.2 30742.4 lineto
68080.7 30911.1 lineto
68136.9 31023.6 lineto
68193.2 31192.4 lineto
68249.4 31473.6 lineto
68249.4 31698.5 lineto
68193.2 31979.8 lineto
68136.9 32148.5 lineto
68080.7 32261 lineto
67968.2 32429.7 lineto
67911.9 32485.9 lineto
stroke
newpath
42170.1 30316.1 moveto
42170.1 29906.6 lineto
stroke
newpath
41965.4 30111.4 moveto
42374.8 30111.4 lineto
stroke
0 0 0 setrgbcolor
0 0 0 setrgbcolor
newpath
43727.5 30758.2 moveto
43840 30758.2 lineto
43952.4 30701.9 lineto
44008.7 30645.7 lineto
44064.9 30533.2 lineto
44121.2 30308.2 lineto
44121.2 30027 lineto
44064.9 29802 lineto
44008.7 29689.5 lineto
43952.4 29633.3 lineto
43840 29577.1 lineto
43727.5 29577.1 lineto
43615 29633.3 lineto
43558.7 29689.5 lineto
43502.5 29802 lineto
43446.3 30027 lineto
43446.3 30308.2 lineto
43502.5 30533.2 lineto
43558.7 30645.7 lineto
43615 30701.9 lineto
43727.5 30758.2 lineto
stroke
newpath
44627.4 29689.5 moveto
44683.6 29633.3 lineto
44627.4 29577.1 lineto
44571.1 29633.3 lineto
44627.4 29689.5 lineto
44627.4 29577.1 lineto
stroke
newpath
45077.3 30758.2 moveto
45864.7 30758.2 lineto
45358.5 29577.1 lineto
stroke
newpath
46820.8 30758.2 moveto
46595.9 30758.2 lineto
46483.4 30701.9 lineto
46427.1 30645.7 lineto
46314.6 30476.9 lineto
46258.4 30252 lineto
46258.4 29802 lineto
46314.6 29689.5 lineto
46370.9 29633.3 lineto
46483.4 29577.1 lineto
46708.3 29577.1 lineto
46820.8 29633.3 lineto
46877.1 29689.5 lineto
46933.3 29802 lineto
46933.3 30083.2 lineto
46877.1 30195.7 lineto
46820.8 30252 lineto
46708.3 30308.2 lineto
46483.4 30308.2 lineto
46370.9 30252 lineto
46314.6 30195.7 lineto
46258.4 30083.2 lineto
stroke
newpath
47439.5 29577.1 moveto
47439.5 30364.5 lineto
stroke
newpath
47439.5 30252 moveto
47495.7 30308.2 lineto
47608.2 30364.5 lineto
47777 30364.5 lineto
47889.4 30308.2 lineto
47945.7 30195.7 lineto
47945.7 29577.1 lineto
stroke
newpath
47945.7 30195.7 moveto
48001.9 30308.2 lineto
48114.4 30364.5 lineto
48283.1 30364.5 lineto
48395.6 30308.2 lineto
48451.9 30195.7 lineto
48451.9 29577.1 lineto
stroke
newpath
49014.3 29577.1 moveto
49014.3 30364.5 lineto
stroke
newpath
49014.3 30252 moveto
49070.5 30308.2 lineto
49183 30364.5 lineto
49351.8 30364.5 lineto
49464.2 30308.2 lineto
49520.5 30195.7 lineto
49520.5 29577.1 lineto
stroke
newpath
49520.5 30195.7 moveto
49576.7 30308.2 lineto
49689.2 30364.5 lineto
49857.9 30364.5 lineto
49970.4 30308.2 lineto
50026.7 30195.7 lineto
50026.7 29577.1 lineto
stroke
newpath
52332.6 30814.4 moveto
51320.3 29295.8 lineto
stroke
newpath
53851.2 30758.2 moveto
53963.7 30758.2 lineto
54076.2 30701.9 lineto
54132.4 30645.7 lineto
54188.7 30533.2 lineto
54244.9 30308.2 lineto
54244.9 30027 lineto
54188.7 29802 lineto
54132.4 29689.5 lineto
54076.2 29633.3 lineto
53963.7 29577.1 lineto
53851.2 29577.1 lineto
53738.7 29633.3 lineto
53682.5 29689.5 lineto
53626.2 29802 lineto
53570 30027 lineto
53570 30308.2 lineto
53626.2 30533.2 lineto
53682.5 30645.7 lineto
53738.7 30701.9 lineto
53851.2 30758.2 lineto
stroke
newpath
54751.1 29689.5 moveto
54807.3 29633.3 lineto
54751.1 29577.1 lineto
54694.8 29633.3 lineto
54751.1 29689.5 lineto
54751.1 29577.1 lineto
stroke
newpath
55538.5 30758.2 moveto
55651 30758.2 lineto
55763.5 30701.9 lineto
55819.7 30645.7 lineto
55875.9 30533.2 lineto
55932.2 30308.2 lineto
55932.2 30027 lineto
55875.9 29802 lineto
55819.7 29689.5 lineto
55763.5 29633.3 lineto
55651 29577.1 lineto
55538.5 29577.1 lineto
55426 29633.3 lineto
55369.8 29689.5 lineto
55313.5 29802 lineto
55257.3 30027 lineto
55257.3 30308.2 lineto
55313.5 30533.2 lineto
55369.8 30645.7 lineto
55426 30701.9 lineto
55538.5 30758.2 lineto
stroke
newpath
56325.9 30758.2 moveto
57057 30758.2 lineto
56663.3 30308.2 lineto
56832.1 30308.2 lineto
56944.6 30252 lineto
57000.8 30195.7 lineto
57057 30083.2 lineto
57057 29802 lineto
57000.8 29689.5 lineto
56944.6 29633.3 lineto
56832.1 29577.1 lineto
56494.6 29577.1 lineto
56382.1 29633.3 lineto
56325.9 29689.5 lineto
stroke
newpath
57788.2 30758.2 moveto
57900.7 30758.2 lineto
58013.2 30701.9 lineto
58069.4 30645.7 lineto
58125.7 30533.2 lineto
58181.9 30308.2 lineto
58181.9 30027 lineto
58125.7 29802 lineto
58069.4 29689.5 lineto
58013.2 29633.3 lineto
57900.7 29577.1 lineto
57788.2 29577.1 lineto
57675.7 29633.3 lineto
57619.5 29689.5 lineto
57563.2 29802 lineto
57507 30027 lineto
57507 30308.2 lineto
57563.2 30533.2 lineto
57619.5 30645.7 lineto
57675.7 30701.9 lineto
57788.2 30758.2 lineto
stroke
newpath
58631.9 30758.2 moveto
58631.9 30533.2 lineto
stroke
newpath
59081.8 30758.2 moveto
59081.8 30533.2 lineto
stroke
newpath
60825.3 29127.1 moveto
60769.1 29183.4 lineto
60656.6 29352.1 lineto
60600.4 29464.6 lineto
60544.1 29633.3 lineto
60487.9 29914.5 lineto
60487.9 30139.5 lineto
60544.1 30420.7 lineto
60600.4 30589.4 lineto
60656.6 30701.9 lineto
60769.1 30870.6 lineto
60825.3 30926.9 lineto
stroke
newpath
61219 30645.7 moveto
61275.3 30701.9 lineto
61387.8 30758.2 lineto
61669 30758.2 lineto
61781.5 30701.9 lineto
61837.7 30645.7 lineto
61893.9 30533.2 lineto
61893.9 30420.7 lineto
61837.7 30252 lineto
61162.8 29577.1 lineto
61893.9 29577.1 lineto
stroke
newpath
62625.1 30758.2 moveto
62737.6 30758.2 lineto
62850.1 30701.9 lineto
62906.3 30645.7 lineto
62962.6 30533.2 lineto
63018.8 30308.2 lineto
63018.8 30027 lineto
62962.6 29802 lineto
62906.3 29689.5 lineto
62850.1 29633.3 lineto
62737.6 29577.1 lineto
62625.1 29577.1 lineto
62512.6 29633.3 lineto
62456.4 29689.5 lineto
62400.1 29802 lineto
62343.9 30027 lineto
62343.9 30308.2 lineto
62400.1 30533.2 lineto
62456.4 30645.7 lineto
62512.6 30701.9 lineto
62625.1 30758.2 lineto
stroke
newpath
64424.9 29577.1 moveto
64424.9 30758.2 lineto
stroke
newpath
64931.1 29577.1 moveto
64931.1 30195.7 lineto
64874.8 30308.2 lineto
64762.3 30364.5 lineto
64593.6 30364.5 lineto
64481.1 30308.2 lineto
64424.9 30252 lineto
stroke
newpath
65662.2 29577.1 moveto
65549.7 29633.3 lineto
65493.5 29689.5 lineto
65437.3 29802 lineto
65437.3 30139.5 lineto
65493.5 30252 lineto
65549.7 30308.2 lineto
65662.2 30364.5 lineto
65831 30364.5 lineto
65943.4 30308.2 lineto
65999.7 30252 lineto
66055.9 30139.5 lineto
66055.9 29802 lineto
65999.7 29689.5 lineto
65943.4 29633.3 lineto
65831 29577.1 lineto
65662.2 29577.1 lineto
stroke
newpath
66730.8 29577.1 moveto
66618.4 29633.3 lineto
66562.1 29745.8 lineto
66562.1 30758.2 lineto
stroke
newpath
67630.7 29633.3 moveto
67518.2 29577.1 lineto
67293.3 29577.1 lineto
67180.8 29633.3 lineto
67124.5 29745.8 lineto
67124.5 30195.7 lineto
67180.8 30308.2 lineto
67293.3 30364.5 lineto
67518.2 30364.5 lineto
67630.7 30308.2 lineto
67687 30195.7 lineto
67687 30083.2 lineto
67124.5 29970.8 lineto
stroke
newpath
68136.9 29633.3 moveto
68249.4 29577.1 lineto
68474.4 29577.1 lineto
68586.9 29633.3 lineto
68643.1 29745.8 lineto
68643.1 29802 lineto
68586.9 29914.5 lineto
68474.4 29970.8 lineto
68305.6 29970.8 lineto
68193.2 30027 lineto
68136.9 30139.5 lineto
68136.9 30195.7 lineto
68193.2 30308.2 lineto
68305.6 30364.5 lineto
68474.4 30364.5 lineto
68586.9 30308.2 lineto
stroke
newpath
69036.8 29127.1 moveto
69093 29183.4 lineto
69205.5 29352.1 lineto
69261.8 29464.6 lineto
69318 29633.3 lineto
69374.3 29914.5 lineto
69374.3 30139.5 lineto
69318 30420.7 lineto
69261.8 30589.4 lineto
69205.5 30701.9 lineto
69093 30870.6 lineto
69036.8 30926.9 lineto
stroke
newpath
42296.1 28362.3 moveto
42296.1 28742.3 lineto
41916.2 28742.3 lineto
41916.2 28362.3 lineto
42296.1 28362.3 lineto
poly0
0 0 0 setrgbcolor
0 0 0 setrgbcolor
newpath
44121.2 28018 moveto
43446.3 28018 lineto
stroke
newpath
43783.7 28018 moveto
43783.7 29199.1 lineto
43671.2 29030.4 lineto
43558.7 28917.9 lineto
43446.3 28861.7 lineto
stroke
newpath
44627.4 28130.5 moveto
44683.6 28074.2 lineto
44627.4 28018 lineto
44571.1 28074.2 lineto
44627.4 28130.5 lineto
44627.4 28018 lineto
stroke
newpath
45414.8 29199.1 moveto
45527.2 29199.1 lineto
45639.7 29142.9 lineto
45696 29086.6 lineto
45752.2 28974.1 lineto
45808.5 28749.2 lineto
45808.5 28468 lineto
45752.2 28243 lineto
45696 28130.5 lineto
45639.7 28074.2 lineto
45527.2 28018 lineto
45414.8 28018 lineto
45302.3 28074.2 lineto
45246 28130.5 lineto
45189.8 28243 lineto
45133.5 28468 lineto
45133.5 28749.2 lineto
45189.8 28974.1 lineto
45246 29086.6 lineto
45302.3 29142.9 lineto
45414.8 29199.1 lineto
stroke
newpath
46539.6 29199.1 moveto
46652.1 29199.1 lineto
46764.6 29142.9 lineto
46820.8 29086.6 lineto
46877.1 28974.1 lineto
46933.3 28749.2 lineto
46933.3 28468 lineto
46877.1 28243 lineto
46820.8 28130.5 lineto
46764.6 28074.2 lineto
46652.1 28018 lineto
46539.6 28018 lineto
46427.1 28074.2 lineto
46370.9 28130.5 lineto
46314.6 28243 lineto
46258.4 28468 lineto
46258.4 28749.2 lineto
46314.6 28974.1 lineto
46370.9 29086.6 lineto
46427.1 29142.9 lineto
46539.6 29199.1 lineto
stroke
newpath
47439.5 28018 moveto
47439.5 28805.4 lineto
stroke
newpath
47439.5 28692.9 moveto
47495.7 28749.2 lineto
47608.2 28805.4 lineto
47777 28805.4 lineto
47889.4 28749.2 lineto
47945.7 28636.7 lineto
47945.7 28018 lineto
stroke
newpath
47945.7 28636.7 moveto
48001.9 28749.2 lineto
48114.4 28805.4 lineto
48283.1 28805.4 lineto
48395.6 28749.2 lineto
48451.9 28636.7 lineto
48451.9 28018 lineto
stroke
newpath
49014.3 28018 moveto
49014.3 28805.4 lineto
stroke
newpath
49014.3 28692.9 moveto
49070.5 28749.2 lineto
49183 28805.4 lineto
49351.8 28805.4 lineto
49464.2 28749.2 lineto
49520.5 28636.7 lineto
49520.5 28018 lineto
stroke
newpath
49520.5 28636.7 moveto
49576.7 28749.2 lineto
49689.2 28805.4 lineto
49857.9 28805.4 lineto
49970.4 28749.2 lineto
50026.7 28636.7 lineto
50026.7 28018 lineto
stroke
newpath
52332.6 29255.4 moveto
51320.3 27736.8 lineto
stroke
newpath
53851.2 29199.1 moveto
53963.7 29199.1 lineto
54076.2 29142.9 lineto
54132.4 29086.6 lineto
54188.7 28974.1 lineto
54244.9 28749.2 lineto
54244.9 28468 lineto
54188.7 28243 lineto
54132.4 28130.5 lineto
54076.2 28074.2 lineto
53963.7 28018 lineto
53851.2 28018 lineto
53738.7 28074.2 lineto
53682.5 28130.5 lineto
53626.2 28243 lineto
53570 28468 lineto
53570 28749.2 lineto
53626.2 28974.1 lineto
53682.5 29086.6 lineto
53738.7 29142.9 lineto
53851.2 29199.1 lineto
stroke
newpath
54751.1 28130.5 moveto
54807.3 28074.2 lineto
54751.1 28018 lineto
54694.8 28074.2 lineto
54751.1 28130.5 lineto
54751.1 28018 lineto
stroke
newpath
55538.5 29199.1 moveto
55651 29199.1 lineto
55763.5 29142.9 lineto
55819.7 29086.6 lineto
55875.9 28974.1 lineto
55932.2 28749.2 lineto
55932.2 28468 lineto
55875.9 28243 lineto
55819.7 28130.5 lineto
55763.5 28074.2 lineto
55651 28018 lineto
55538.5 28018 lineto
55426 28074.2 lineto
55369.8 28130.5 lineto
55313.5 28243 lineto
55257.3 28468 lineto
55257.3 28749.2 lineto
55313.5 28974.1 lineto
55369.8 29086.6 lineto
55426 29142.9 lineto
55538.5 29199.1 lineto
stroke
newpath
56325.9 29199.1 moveto
57057 29199.1 lineto
56663.3 28749.2 lineto
56832.1 28749.2 lineto
56944.6 28692.9 lineto
57000.8 28636.7 lineto
57057 28524.2 lineto
57057 28243 lineto
57000.8 28130.5 lineto
56944.6 28074.2 lineto
56832.1 28018 lineto
56494.6 28018 lineto
56382.1 28074.2 lineto
56325.9 28130.5 lineto
stroke
newpath
57619.5 28018 moveto
57844.5 28018 lineto
57956.9 28074.2 lineto
58013.2 28130.5 lineto
58125.7 28299.2 lineto
58181.9 28524.2 lineto
58181.9 28974.1 lineto
58125.7 29086.6 lineto
58069.4 29142.9 lineto
57956.9 29199.1 lineto
57732 29199.1 lineto
57619.5 29142.9 lineto
57563.2 29086.6 lineto
57507 28974.1 lineto
57507 28692.9 lineto
57563.2 28580.4 lineto
57619.5 28524.2 lineto
57732 28468 lineto
57956.9 28468 lineto
58069.4 28524.2 lineto
58125.7 28580.4 lineto
58181.9 28692.9 lineto
stroke
newpath
58631.9 29199.1 moveto
58631.9 28974.1 lineto
stroke
newpath
59081.8 29199.1 moveto
59081.8 28974.1 lineto
stroke
newpath
60825.3 27568.1 moveto
60769.1 27624.3 lineto
60656.6 27793 lineto
60600.4 27905.5 lineto
60544.1 28074.2 lineto
60487.9 28355.5 lineto
60487.9 28580.4 lineto
60544.1 28861.7 lineto
60600.4 29030.4 lineto
60656.6 29142.9 lineto
60769.1 29311.6 lineto
60825.3 29367.8 lineto
stroke
newpath
61162.8 29199.1 moveto
61893.9 29199.1 lineto
61500.2 28749.2 lineto
61669 28749.2 lineto
61781.5 28692.9 lineto
61837.7 28636.7 lineto
61893.9 28524.2 lineto
61893.9 28243 lineto
61837.7 28130.5 lineto
61781.5 28074.2 lineto
61669 28018 lineto
61331.5 28018 lineto
61219 28074.2 lineto
61162.8 28130.5 lineto
stroke
newpath
63018.8 28018 moveto
62343.9 28018 lineto
stroke
newpath
62681.3 28018 moveto
62681.3 29199.1 lineto
62568.9 29030.4 lineto
62456.4 28917.9 lineto
62343.9 28861.7 lineto
stroke
newpath
64424.9 28018 moveto
64424.9 29199.1 lineto
stroke
newpath
64931.1 28018 moveto
64931.1 28636.7 lineto
64874.8 28749.2 lineto
64762.3 28805.4 lineto
64593.6 28805.4 lineto
64481.1 28749.2 lineto
64424.9 28692.9 lineto
stroke
newpath
65662.2 28018 moveto
65549.7 28074.2 lineto
65493.5 28130.5 lineto
65437.3 28243 lineto
65437.3 28580.4 lineto
65493.5 28692.9 lineto
65549.7 28749.2 lineto
65662.2 28805.4 lineto
65831 28805.4 lineto
65943.4 28749.2 lineto
65999.7 28692.9 lineto
66055.9 28580.4 lineto
66055.9 28243 lineto
65999.7 28130.5 lineto
65943.4 28074.2 lineto
65831 28018 lineto
65662.2 28018 lineto
stroke
newpath
66730.8 28018 moveto
66618.4 28074.2 lineto
66562.1 28186.7 lineto
66562.1 29199.1 lineto
stroke
newpath
67630.7 28074.2 moveto
67518.2 28018 lineto
67293.3 28018 lineto
67180.8 28074.2 lineto
67124.5 28186.7 lineto
67124.5 28636.7 lineto
67180.8 28749.2 lineto
67293.3 28805.4 lineto
67518.2 28805.4 lineto
67630.7 28749.2 lineto
67687 28636.7 lineto
67687 28524.2 lineto
67124.5 28411.7 lineto
stroke
newpath
68136.9 28074.2 moveto
68249.4 28018 lineto
68474.4 28018 lineto
68586.9 28074.2 lineto
68643.1 28186.7 lineto
68643.1 28243 lineto
68586.9 28355.5 lineto
68474.4 28411.7 lineto
68305.6 28411.7 lineto
68193.2 28468 lineto
68136.9 28580.4 lineto
68136.9 28636.7 lineto
68193.2 28749.2 lineto
68305.6 28805.4 lineto
68474.4 28805.4 lineto
68586.9 28749.2 lineto
stroke
newpath
69036.8 27568.1 moveto
69093 27624.3 lineto
69205.5 27793 lineto
69261.8 27905.5 lineto
69318 28074.2 lineto
69374.3 28355.5 lineto
69374.3 28580.4 lineto
69318 28861.7 lineto
69261.8 29030.4 lineto
69205.5 29142.9 lineto
69093 29311.6 lineto
69036.8 29367.8 lineto
stroke
newpath
42101.9 26720.3 moveto
42374.8 26993.3 lineto
42101.9 27266.2 lineto
41828.9 26993.3 lineto
42101.9 26720.3 lineto
poly0
0 0 0 setrgbcolor
0 0 0 setrgbcolor
newpath
44121.2 26459 moveto
43446.3 26459 lineto
stroke
newpath
43783.7 26459 moveto
43783.7 27640.1 lineto
43671.2 27471.3 lineto
43558.7 27358.8 lineto
43446.3 27302.6 lineto
stroke
newpath
44627.4 26571.4 moveto
44683.6 26515.2 lineto
44627.4 26459 lineto
44571.1 26515.2 lineto
44627.4 26571.4 lineto
44627.4 26459 lineto
stroke
newpath
45414.8 27640.1 moveto
45527.2 27640.1 lineto
45639.7 27583.8 lineto
45696 27527.6 lineto
45752.2 27415.1 lineto
45808.5 27190.1 lineto
45808.5 26908.9 lineto
45752.2 26683.9 lineto
45696 26571.4 lineto
45639.7 26515.2 lineto
45527.2 26459 lineto
45414.8 26459 lineto
45302.3 26515.2 lineto
45246 26571.4 lineto
45189.8 26683.9 lineto
45133.5 26908.9 lineto
45133.5 27190.1 lineto
45189.8 27415.1 lineto
45246 27527.6 lineto
45302.3 27583.8 lineto
45414.8 27640.1 lineto
stroke
newpath
46258.4 27527.6 moveto
46314.6 27583.8 lineto
46427.1 27640.1 lineto
46708.3 27640.1 lineto
46820.8 27583.8 lineto
46877.1 27527.6 lineto
46933.3 27415.1 lineto
46933.3 27302.6 lineto
46877.1 27133.9 lineto
46202.2 26459 lineto
46933.3 26459 lineto
stroke
newpath
47439.5 26459 moveto
47439.5 27246.4 lineto
stroke
newpath
47439.5 27133.9 moveto
47495.7 27190.1 lineto
47608.2 27246.4 lineto
47777 27246.4 lineto
47889.4 27190.1 lineto
47945.7 27077.6 lineto
47945.7 26459 lineto
stroke
newpath
47945.7 27077.6 moveto
48001.9 27190.1 lineto
48114.4 27246.4 lineto
48283.1 27246.4 lineto
48395.6 27190.1 lineto
48451.9 27077.6 lineto
48451.9 26459 lineto
stroke
newpath
49014.3 26459 moveto
49014.3 27246.4 lineto
stroke
newpath
49014.3 27133.9 moveto
49070.5 27190.1 lineto
49183 27246.4 lineto
49351.8 27246.4 lineto
49464.2 27190.1 lineto
49520.5 27077.6 lineto
49520.5 26459 lineto
stroke
newpath
49520.5 27077.6 moveto
49576.7 27190.1 lineto
49689.2 27246.4 lineto
49857.9 27246.4 lineto
49970.4 27190.1 lineto
50026.7 27077.6 lineto
50026.7 26459 lineto
stroke
newpath
52332.6 27696.3 moveto
51320.3 26177.7 lineto
stroke
newpath
53851.2 27640.1 moveto
53963.7 27640.1 lineto
54076.2 27583.8 lineto
54132.4 27527.6 lineto
54188.7 27415.1 lineto
54244.9 27190.1 lineto
54244.9 26908.9 lineto
54188.7 26683.9 lineto
54132.4 26571.4 lineto
54076.2 26515.2 lineto
53963.7 26459 lineto
53851.2 26459 lineto
53738.7 26515.2 lineto
53682.5 26571.4 lineto
53626.2 26683.9 lineto
53570 26908.9 lineto
53570 27190.1 lineto
53626.2 27415.1 lineto
53682.5 27527.6 lineto
53738.7 27583.8 lineto
53851.2 27640.1 lineto
stroke
newpath
54751.1 26571.4 moveto
54807.3 26515.2 lineto
54751.1 26459 lineto
54694.8 26515.2 lineto
54751.1 26571.4 lineto
54751.1 26459 lineto
stroke
newpath
55538.5 27640.1 moveto
55651 27640.1 lineto
55763.5 27583.8 lineto
55819.7 27527.6 lineto
55875.9 27415.1 lineto
55932.2 27190.1 lineto
55932.2 26908.9 lineto
55875.9 26683.9 lineto
55819.7 26571.4 lineto
55763.5 26515.2 lineto
55651 26459 lineto
55538.5 26459 lineto
55426 26515.2 lineto
55369.8 26571.4 lineto
55313.5 26683.9 lineto
55257.3 26908.9 lineto
55257.3 27190.1 lineto
55313.5 27415.1 lineto
55369.8 27527.6 lineto
55426 27583.8 lineto
55538.5 27640.1 lineto
stroke
newpath
56944.6 27246.4 moveto
56944.6 26459 lineto
stroke
newpath
56663.3 27696.3 moveto
56382.1 26852.7 lineto
57113.3 26852.7 lineto
stroke
newpath
57788.2 27640.1 moveto
57900.7 27640.1 lineto
58013.2 27583.8 lineto
58069.4 27527.6 lineto
58125.7 27415.1 lineto
58181.9 27190.1 lineto
58181.9 26908.9 lineto
58125.7 26683.9 lineto
58069.4 26571.4 lineto
58013.2 26515.2 lineto
57900.7 26459 lineto
57788.2 26459 lineto
57675.7 26515.2 lineto
57619.5 26571.4 lineto
57563.2 26683.9 lineto
57507 26908.9 lineto
57507 27190.1 lineto
57563.2 27415.1 lineto
57619.5 27527.6 lineto
57675.7 27583.8 lineto
57788.2 27640.1 lineto
stroke
newpath
58631.9 27640.1 moveto
58631.9 27415.1 lineto
stroke
newpath
59081.8 27640.1 moveto
59081.8 27415.1 lineto
stroke
newpath
60825.3 26009 moveto
60769.1 26065.3 lineto
60656.6 26234 lineto
60600.4 26346.5 lineto
60544.1 26515.2 lineto
60487.9 26796.4 lineto
60487.9 27021.4 lineto
60544.1 27302.6 lineto
60600.4 27471.3 lineto
60656.6 27583.8 lineto
60769.1 27752.5 lineto
60825.3 27808.8 lineto
stroke
newpath
61444 27133.9 moveto
61331.5 27190.1 lineto
61275.3 27246.4 lineto
61219 27358.8 lineto
61219 27415.1 lineto
61275.3 27527.6 lineto
61331.5 27583.8 lineto
61444 27640.1 lineto
61669 27640.1 lineto
61781.5 27583.8 lineto
61837.7 27527.6 lineto
61893.9 27415.1 lineto
61893.9 27358.8 lineto
61837.7 27246.4 lineto
61781.5 27190.1 lineto
61669 27133.9 lineto
61444 27133.9 lineto
61331.5 27077.6 lineto
61275.3 27021.4 lineto
61219 26908.9 lineto
61219 26683.9 lineto
61275.3 26571.4 lineto
61331.5 26515.2 lineto
61444 26459 lineto
61669 26459 lineto
61781.5 26515.2 lineto
61837.7 26571.4 lineto
61893.9 26683.9 lineto
61893.9 26908.9 lineto
61837.7 27021.4 lineto
61781.5 27077.6 lineto
61669 27133.9 lineto
stroke
newpath
63300 26459 moveto
63300 27640.1 lineto
stroke
newpath
63806.2 26459 moveto
63806.2 27077.6 lineto
63750 27190.1 lineto
63637.5 27246.4 lineto
63468.7 27246.4 lineto
63356.3 27190.1 lineto
63300 27133.9 lineto
stroke
newpath
64537.4 26459 moveto
64424.9 26515.2 lineto
64368.6 26571.4 lineto
64312.4 26683.9 lineto
64312.4 27021.4 lineto
64368.6 27133.9 lineto
64424.9 27190.1 lineto
64537.4 27246.4 lineto
64706.1 27246.4 lineto
64818.6 27190.1 lineto
64874.8 27133.9 lineto
64931.1 27021.4 lineto
64931.1 26683.9 lineto
64874.8 26571.4 lineto
64818.6 26515.2 lineto
64706.1 26459 lineto
64537.4 26459 lineto
stroke
newpath
65606 26459 moveto
65493.5 26515.2 lineto
65437.3 26627.7 lineto
65437.3 27640.1 lineto
stroke
newpath
66505.9 26515.2 moveto
66393.4 26459 lineto
66168.4 26459 lineto
66055.9 26515.2 lineto
65999.7 26627.7 lineto
65999.7 27077.6 lineto
66055.9 27190.1 lineto
66168.4 27246.4 lineto
66393.4 27246.4 lineto
66505.9 27190.1 lineto
66562.1 27077.6 lineto
66562.1 26965.1 lineto
65999.7 26852.7 lineto
stroke
newpath
67012.1 26515.2 moveto
67124.5 26459 lineto
67349.5 26459 lineto
67462 26515.2 lineto
67518.2 26627.7 lineto
67518.2 26683.9 lineto
67462 26796.4 lineto
67349.5 26852.7 lineto
67180.8 26852.7 lineto
67068.3 26908.9 lineto
67012.1 27021.4 lineto
67012.1 27077.6 lineto
67068.3 27190.1 lineto
67180.8 27246.4 lineto
67349.5 27246.4 lineto
67462 27190.1 lineto
stroke
newpath
67911.9 26009 moveto
67968.2 26065.3 lineto
68080.7 26234 lineto
68136.9 26346.5 lineto
68193.2 26515.2 lineto
68249.4 26796.4 lineto
68249.4 27021.4 lineto
68193.2 27302.6 lineto
68136.9 27471.3 lineto
68080.7 27583.8 lineto
67968.2 27752.5 lineto
67911.9 27808.8 lineto
stroke
newpath
41783.8 25729.7 moveto
42374.8 25138.7 lineto
stroke
newpath
42374.8 25729.7 moveto
41783.8 25138.7 lineto
stroke
42079.3 25434.2 295.528 cir0
0 0 0 setrgbcolor
0 0 0 setrgbcolor
newpath
44121.2 24899.9 moveto
43446.3 24899.9 lineto
stroke
newpath
43783.7 24899.9 moveto
43783.7 26081 lineto
43671.2 25912.3 lineto
43558.7 25799.8 lineto
43446.3 25743.5 lineto
stroke
newpath
44627.4 25012.4 moveto
44683.6 24956.1 lineto
44627.4 24899.9 lineto
44571.1 24956.1 lineto
44627.4 25012.4 lineto
44627.4 24899.9 lineto
stroke
newpath
45808.5 24899.9 moveto
45133.5 24899.9 lineto
stroke
newpath
45471 24899.9 moveto
45471 26081 lineto
45358.5 25912.3 lineto
45246 25799.8 lineto
45133.5 25743.5 lineto
stroke
newpath
46539.6 26081 moveto
46652.1 26081 lineto
46764.6 26024.8 lineto
46820.8 25968.5 lineto
46877.1 25856 lineto
46933.3 25631.1 lineto
46933.3 25349.8 lineto
46877.1 25124.9 lineto
46820.8 25012.4 lineto
46764.6 24956.1 lineto
46652.1 24899.9 lineto
46539.6 24899.9 lineto
46427.1 24956.1 lineto
46370.9 25012.4 lineto
46314.6 25124.9 lineto
46258.4 25349.8 lineto
46258.4 25631.1 lineto
46314.6 25856 lineto
46370.9 25968.5 lineto
46427.1 26024.8 lineto
46539.6 26081 lineto
stroke
newpath
47439.5 24899.9 moveto
47439.5 25687.3 lineto
stroke
newpath
47439.5 25574.8 moveto
47495.7 25631.1 lineto
47608.2 25687.3 lineto
47777 25687.3 lineto
47889.4 25631.1 lineto
47945.7 25518.6 lineto
47945.7 24899.9 lineto
stroke
newpath
47945.7 25518.6 moveto
48001.9 25631.1 lineto
48114.4 25687.3 lineto
48283.1 25687.3 lineto
48395.6 25631.1 lineto
48451.9 25518.6 lineto
48451.9 24899.9 lineto
stroke
newpath
49014.3 24899.9 moveto
49014.3 25687.3 lineto
stroke
newpath
49014.3 25574.8 moveto
49070.5 25631.1 lineto
49183 25687.3 lineto
49351.8 25687.3 lineto
49464.2 25631.1 lineto
49520.5 25518.6 lineto
49520.5 24899.9 lineto
stroke
newpath
49520.5 25518.6 moveto
49576.7 25631.1 lineto
49689.2 25687.3 lineto
49857.9 25687.3 lineto
49970.4 25631.1 lineto
50026.7 25518.6 lineto
50026.7 24899.9 lineto
stroke
newpath
52332.6 26137.2 moveto
51320.3 24618.7 lineto
stroke
newpath
53851.2 26081 moveto
53963.7 26081 lineto
54076.2 26024.8 lineto
54132.4 25968.5 lineto
54188.7 25856 lineto
54244.9 25631.1 lineto
54244.9 25349.8 lineto
54188.7 25124.9 lineto
54132.4 25012.4 lineto
54076.2 24956.1 lineto
53963.7 24899.9 lineto
53851.2 24899.9 lineto
53738.7 24956.1 lineto
53682.5 25012.4 lineto
53626.2 25124.9 lineto
53570 25349.8 lineto
53570 25631.1 lineto
53626.2 25856 lineto
53682.5 25968.5 lineto
53738.7 26024.8 lineto
53851.2 26081 lineto
stroke
newpath
54751.1 25012.4 moveto
54807.3 24956.1 lineto
54751.1 24899.9 lineto
54694.8 24956.1 lineto
54751.1 25012.4 lineto
54751.1 24899.9 lineto
stroke
newpath
55538.5 26081 moveto
55651 26081 lineto
55763.5 26024.8 lineto
55819.7 25968.5 lineto
55875.9 25856 lineto
55932.2 25631.1 lineto
55932.2 25349.8 lineto
55875.9 25124.9 lineto
55819.7 25012.4 lineto
55763.5 24956.1 lineto
55651 24899.9 lineto
55538.5 24899.9 lineto
55426 24956.1 lineto
55369.8 25012.4 lineto
55313.5 25124.9 lineto
55257.3 25349.8 lineto
55257.3 25631.1 lineto
55313.5 25856 lineto
55369.8 25968.5 lineto
55426 26024.8 lineto
55538.5 26081 lineto
stroke
newpath
56944.6 25687.3 moveto
56944.6 24899.9 lineto
stroke
newpath
56663.3 26137.2 moveto
56382.1 25293.6 lineto
57113.3 25293.6 lineto
stroke
newpath
57450.7 26081 moveto
58181.9 26081 lineto
57788.2 25631.1 lineto
57956.9 25631.1 lineto
58069.4 25574.8 lineto
58125.7 25518.6 lineto
58181.9 25406.1 lineto
58181.9 25124.9 lineto
58125.7 25012.4 lineto
58069.4 24956.1 lineto
57956.9 24899.9 lineto
57619.5 24899.9 lineto
57507 24956.1 lineto
57450.7 25012.4 lineto
stroke
newpath
58631.9 26081 moveto
58631.9 25856 lineto
stroke
newpath
59081.8 26081 moveto
59081.8 25856 lineto
stroke
newpath
60825.3 24450 moveto
60769.1 24506.2 lineto
60656.6 24674.9 lineto
60600.4 24787.4 lineto
60544.1 24956.1 lineto
60487.9 25237.4 lineto
60487.9 25462.3 lineto
60544.1 25743.5 lineto
60600.4 25912.3 lineto
60656.6 26024.8 lineto
60769.1 26193.5 lineto
60825.3 26249.7 lineto
stroke
newpath
61893.9 24899.9 moveto
61219 24899.9 lineto
stroke
newpath
61556.5 24899.9 moveto
61556.5 26081 lineto
61444 25912.3 lineto
61331.5 25799.8 lineto
61219 25743.5 lineto
stroke
newpath
62906.3 26081 moveto
62681.3 26081 lineto
62568.9 26024.8 lineto
62512.6 25968.5 lineto
62400.1 25799.8 lineto
62343.9 25574.8 lineto
62343.9 25124.9 lineto
62400.1 25012.4 lineto
62456.4 24956.1 lineto
62568.9 24899.9 lineto
62793.8 24899.9 lineto
62906.3 24956.1 lineto
62962.6 25012.4 lineto
63018.8 25124.9 lineto
63018.8 25406.1 lineto
62962.6 25518.6 lineto
62906.3 25574.8 lineto
62793.8 25631.1 lineto
62568.9 25631.1 lineto
62456.4 25574.8 lineto
62400.1 25518.6 lineto
62343.9 25406.1 lineto
stroke
newpath
64424.9 24899.9 moveto
64424.9 26081 lineto
stroke
newpath
64931.1 24899.9 moveto
64931.1 25518.6 lineto
64874.8 25631.1 lineto
64762.3 25687.3 lineto
64593.6 25687.3 lineto
64481.1 25631.1 lineto
64424.9 25574.8 lineto
stroke
newpath
65662.2 24899.9 moveto
65549.7 24956.1 lineto
65493.5 25012.4 lineto
65437.3 25124.9 lineto
65437.3 25462.3 lineto
65493.5 25574.8 lineto
65549.7 25631.1 lineto
65662.2 25687.3 lineto
65831 25687.3 lineto
65943.4 25631.1 lineto
65999.7 25574.8 lineto
66055.9 25462.3 lineto
66055.9 25124.9 lineto
65999.7 25012.4 lineto
65943.4 24956.1 lineto
65831 24899.9 lineto
65662.2 24899.9 lineto
stroke
newpath
66730.8 24899.9 moveto
66618.4 24956.1 lineto
66562.1 25068.6 lineto
66562.1 26081 lineto
stroke
newpath
67630.7 24956.1 moveto
67518.2 24899.9 lineto
67293.3 24899.9 lineto
67180.8 24956.1 lineto
67124.5 25068.6 lineto
67124.5 25518.6 lineto
67180.8 25631.1 lineto
67293.3 25687.3 lineto
67518.2 25687.3 lineto
67630.7 25631.1 lineto
67687 25518.6 lineto
67687 25406.1 lineto
67124.5 25293.6 lineto
stroke
newpath
68136.9 24956.1 moveto
68249.4 24899.9 lineto
68474.4 24899.9 lineto
68586.9 24956.1 lineto
68643.1 25068.6 lineto
68643.1 25124.9 lineto
68586.9 25237.4 lineto
68474.4 25293.6 lineto
68305.6 25293.6 lineto
68193.2 25349.8 lineto
68136.9 25462.3 lineto
68136.9 25518.6 lineto
68193.2 25631.1 lineto
68305.6 25687.3 lineto
68474.4 25687.3 lineto
68586.9 25631.1 lineto
stroke
newpath
69036.8 24450 moveto
69093 24506.2 lineto
69205.5 24674.9 lineto
69261.8 24787.4 lineto
69318 24956.1 lineto
69374.3 25237.4 lineto
69374.3 25462.3 lineto
69318 25743.5 lineto
69261.8 25912.3 lineto
69205.5 26024.8 lineto
69093 26193.5 lineto
69036.8 26249.7 lineto
stroke
newpath
41568.8 24278.1 moveto
42374.8 23472.2 lineto
stroke
newpath
42374.8 24278.1 moveto
41568.8 23472.2 lineto
stroke
newpath
41971.8 24278.1 moveto
41971.8 23472.2 lineto
stroke
newpath
41568.8 23875.1 moveto
42374.8 23875.1 lineto
stroke
0 0 0 setrgbcolor
0 0 0 setrgbcolor
newpath
44121.2 23340.8 moveto
43446.3 23340.8 lineto
stroke
newpath
43783.7 23340.8 moveto
43783.7 24521.9 lineto
43671.2 24353.2 lineto
43558.7 24240.7 lineto
43446.3 24184.5 lineto
stroke
newpath
44627.4 23453.3 moveto
44683.6 23397.1 lineto
44627.4 23340.8 lineto
44571.1 23397.1 lineto
44627.4 23453.3 lineto
44627.4 23340.8 lineto
stroke
newpath
45752.2 24521.9 moveto
45189.8 24521.9 lineto
45133.5 23959.5 lineto
45189.8 24015.8 lineto
45302.3 24072 lineto
45583.5 24072 lineto
45696 24015.8 lineto
45752.2 23959.5 lineto
45808.5 23847 lineto
45808.5 23565.8 lineto
45752.2 23453.3 lineto
45696 23397.1 lineto
45583.5 23340.8 lineto
45302.3 23340.8 lineto
45189.8 23397.1 lineto
45133.5 23453.3 lineto
stroke
newpath
46539.6 24521.9 moveto
46652.1 24521.9 lineto
46764.6 24465.7 lineto
46820.8 24409.5 lineto
46877.1 24297 lineto
46933.3 24072 lineto
46933.3 23790.8 lineto
46877.1 23565.8 lineto
46820.8 23453.3 lineto
46764.6 23397.1 lineto
46652.1 23340.8 lineto
46539.6 23340.8 lineto
46427.1 23397.1 lineto
46370.9 23453.3 lineto
46314.6 23565.8 lineto
46258.4 23790.8 lineto
46258.4 24072 lineto
46314.6 24297 lineto
46370.9 24409.5 lineto
46427.1 24465.7 lineto
46539.6 24521.9 lineto
stroke
newpath
47439.5 23340.8 moveto
47439.5 24128.2 lineto
stroke
newpath
47439.5 24015.8 moveto
47495.7 24072 lineto
47608.2 24128.2 lineto
47777 24128.2 lineto
47889.4 24072 lineto
47945.7 23959.5 lineto
47945.7 23340.8 lineto
stroke
newpath
47945.7 23959.5 moveto
48001.9 24072 lineto
48114.4 24128.2 lineto
48283.1 24128.2 lineto
48395.6 24072 lineto
48451.9 23959.5 lineto
48451.9 23340.8 lineto
stroke
newpath
49014.3 23340.8 moveto
49014.3 24128.2 lineto
stroke
newpath
49014.3 24015.8 moveto
49070.5 24072 lineto
49183 24128.2 lineto
49351.8 24128.2 lineto
49464.2 24072 lineto
49520.5 23959.5 lineto
49520.5 23340.8 lineto
stroke
newpath
49520.5 23959.5 moveto
49576.7 24072 lineto
49689.2 24128.2 lineto
49857.9 24128.2 lineto
49970.4 24072 lineto
50026.7 23959.5 lineto
50026.7 23340.8 lineto
stroke
newpath
52332.6 24578.2 moveto
51320.3 23059.6 lineto
stroke
newpath
53851.2 24521.9 moveto
53963.7 24521.9 lineto
54076.2 24465.7 lineto
54132.4 24409.5 lineto
54188.7 24297 lineto
54244.9 24072 lineto
54244.9 23790.8 lineto
54188.7 23565.8 lineto
54132.4 23453.3 lineto
54076.2 23397.1 lineto
53963.7 23340.8 lineto
53851.2 23340.8 lineto
53738.7 23397.1 lineto
53682.5 23453.3 lineto
53626.2 23565.8 lineto
53570 23790.8 lineto
53570 24072 lineto
53626.2 24297 lineto
53682.5 24409.5 lineto
53738.7 24465.7 lineto
53851.2 24521.9 lineto
stroke
newpath
54751.1 23453.3 moveto
54807.3 23397.1 lineto
54751.1 23340.8 lineto
54694.8 23397.1 lineto
54751.1 23453.3 lineto
54751.1 23340.8 lineto
stroke
newpath
55538.5 24521.9 moveto
55651 24521.9 lineto
55763.5 24465.7 lineto
55819.7 24409.5 lineto
55875.9 24297 lineto
55932.2 24072 lineto
55932.2 23790.8 lineto
55875.9 23565.8 lineto
55819.7 23453.3 lineto
55763.5 23397.1 lineto
55651 23340.8 lineto
55538.5 23340.8 lineto
55426 23397.1 lineto
55369.8 23453.3 lineto
55313.5 23565.8 lineto
55257.3 23790.8 lineto
55257.3 24072 lineto
55313.5 24297 lineto
55369.8 24409.5 lineto
55426 24465.7 lineto
55538.5 24521.9 lineto
stroke
newpath
57000.8 24521.9 moveto
56438.4 24521.9 lineto
56382.1 23959.5 lineto
56438.4 24015.8 lineto
56550.9 24072 lineto
56832.1 24072 lineto
56944.6 24015.8 lineto
57000.8 23959.5 lineto
57057 23847 lineto
57057 23565.8 lineto
57000.8 23453.3 lineto
56944.6 23397.1 lineto
56832.1 23340.8 lineto
56550.9 23340.8 lineto
56438.4 23397.1 lineto
56382.1 23453.3 lineto
stroke
newpath
57619.5 23340.8 moveto
57844.5 23340.8 lineto
57956.9 23397.1 lineto
58013.2 23453.3 lineto
58125.7 23622.1 lineto
58181.9 23847 lineto
58181.9 24297 lineto
58125.7 24409.5 lineto
58069.4 24465.7 lineto
57956.9 24521.9 lineto
57732 24521.9 lineto
57619.5 24465.7 lineto
57563.2 24409.5 lineto
57507 24297 lineto
57507 24015.8 lineto
57563.2 23903.3 lineto
57619.5 23847 lineto
57732 23790.8 lineto
57956.9 23790.8 lineto
58069.4 23847 lineto
58125.7 23903.3 lineto
58181.9 24015.8 lineto
stroke
newpath
58631.9 24521.9 moveto
58631.9 24297 lineto
stroke
newpath
59081.8 24521.9 moveto
59081.8 24297 lineto
stroke
newpath
60825.3 22890.9 moveto
60769.1 22947.1 lineto
60656.6 23115.9 lineto
60600.4 23228.4 lineto
60544.1 23397.1 lineto
60487.9 23678.3 lineto
60487.9 23903.3 lineto
60544.1 24184.5 lineto
60600.4 24353.2 lineto
60656.6 24465.7 lineto
60769.1 24634.4 lineto
60825.3 24690.7 lineto
stroke
newpath
61893.9 23340.8 moveto
61219 23340.8 lineto
stroke
newpath
61556.5 23340.8 moveto
61556.5 24521.9 lineto
61444 24353.2 lineto
61331.5 24240.7 lineto
61219 24184.5 lineto
stroke
newpath
62343.9 24409.5 moveto
62400.1 24465.7 lineto
62512.6 24521.9 lineto
62793.8 24521.9 lineto
62906.3 24465.7 lineto
62962.6 24409.5 lineto
63018.8 24297 lineto
63018.8 24184.5 lineto
62962.6 24015.8 lineto
62287.6 23340.8 lineto
63018.8 23340.8 lineto
stroke
newpath
64424.9 23340.8 moveto
64424.9 24521.9 lineto
stroke
newpath
64931.1 23340.8 moveto
64931.1 23959.5 lineto
64874.8 24072 lineto
64762.3 24128.2 lineto
64593.6 24128.2 lineto
64481.1 24072 lineto
64424.9 24015.8 lineto
stroke
newpath
65662.2 23340.8 moveto
65549.7 23397.1 lineto
65493.5 23453.3 lineto
65437.3 23565.8 lineto
65437.3 23903.3 lineto
65493.5 24015.8 lineto
65549.7 24072 lineto
65662.2 24128.2 lineto
65831 24128.2 lineto
65943.4 24072 lineto
65999.7 24015.8 lineto
66055.9 23903.3 lineto
66055.9 23565.8 lineto
65999.7 23453.3 lineto
65943.4 23397.1 lineto
65831 23340.8 lineto
65662.2 23340.8 lineto
stroke
newpath
66730.8 23340.8 moveto
66618.4 23397.1 lineto
66562.1 23509.6 lineto
66562.1 24521.9 lineto
stroke
newpath
67630.7 23397.1 moveto
67518.2 23340.8 lineto
67293.3 23340.8 lineto
67180.8 23397.1 lineto
67124.5 23509.6 lineto
67124.5 23959.5 lineto
67180.8 24072 lineto
67293.3 24128.2 lineto
67518.2 24128.2 lineto
67630.7 24072 lineto
67687 23959.5 lineto
67687 23847 lineto
67124.5 23734.5 lineto
stroke
newpath
68136.9 23397.1 moveto
68249.4 23340.8 lineto
68474.4 23340.8 lineto
68586.9 23397.1 lineto
68643.1 23509.6 lineto
68643.1 23565.8 lineto
68586.9 23678.3 lineto
68474.4 23734.5 lineto
68305.6 23734.5 lineto
68193.2 23790.8 lineto
68136.9 23903.3 lineto
68136.9 23959.5 lineto
68193.2 24072 lineto
68305.6 24128.2 lineto
68474.4 24128.2 lineto
68586.9 24072 lineto
stroke
newpath
69036.8 22890.9 moveto
69093 22947.1 lineto
69205.5 23115.9 lineto
69261.8 23228.4 lineto
69318 23397.1 lineto
69374.3 23678.3 lineto
69374.3 23903.3 lineto
69318 24184.5 lineto
69261.8 24353.2 lineto
69205.5 24465.7 lineto
69093 24634.4 lineto
69036.8 24690.7 lineto
stroke
showpage
grestore
%%EOF
