G04 #@! TF.GenerationSoftware,KiCad,Pcbnew,(5.1.6)-1*
G04 #@! TF.CreationDate,2021-04-16T05:28:43+02:00*
G04 #@! TF.ProjectId,esplamp,6573706c-616d-4702-9e6b-696361645f70,rev?*
G04 #@! TF.SameCoordinates,Original*
G04 #@! TF.FileFunction,Soldermask,Bot*
G04 #@! TF.FilePolarity,Negative*
%FSLAX46Y46*%
G04 Gerber Fmt 4.6, Leading zero omitted, Abs format (unit mm)*
G04 Created by KiCad (PCBNEW (5.1.6)-1) date 2021-04-16 05:28:43*
%MOMM*%
%LPD*%
G01*
G04 APERTURE LIST*
%ADD10C,0.100000*%
G04 APERTURE END LIST*
D10*
G36*
X44781653Y-139302665D02*
G01*
X44945872Y-139335330D01*
X45255252Y-139463479D01*
X45533687Y-139649523D01*
X45770477Y-139886313D01*
X45956521Y-140164748D01*
X46084670Y-140474128D01*
X46150000Y-140802565D01*
X46150000Y-141137435D01*
X46084670Y-141465872D01*
X45956521Y-141775252D01*
X45770477Y-142053687D01*
X45533687Y-142290477D01*
X45255252Y-142476521D01*
X44945872Y-142604670D01*
X44781654Y-142637335D01*
X44617437Y-142670000D01*
X44282563Y-142670000D01*
X44118346Y-142637335D01*
X43954128Y-142604670D01*
X43644748Y-142476521D01*
X43366313Y-142290477D01*
X43129523Y-142053687D01*
X42943479Y-141775252D01*
X42815330Y-141465872D01*
X42750000Y-141137435D01*
X42750000Y-140802565D01*
X42815330Y-140474128D01*
X42943479Y-140164748D01*
X43129523Y-139886313D01*
X43366313Y-139649523D01*
X43644748Y-139463479D01*
X43954128Y-139335330D01*
X44118347Y-139302665D01*
X44282563Y-139270000D01*
X44617437Y-139270000D01*
X44781653Y-139302665D01*
G37*
G36*
X80341653Y-139302665D02*
G01*
X80505872Y-139335330D01*
X80815252Y-139463479D01*
X81093687Y-139649523D01*
X81330477Y-139886313D01*
X81516521Y-140164748D01*
X81644670Y-140474128D01*
X81710000Y-140802565D01*
X81710000Y-141137435D01*
X81644670Y-141465872D01*
X81516521Y-141775252D01*
X81330477Y-142053687D01*
X81093687Y-142290477D01*
X80815252Y-142476521D01*
X80505872Y-142604670D01*
X80341654Y-142637335D01*
X80177437Y-142670000D01*
X79842563Y-142670000D01*
X79678346Y-142637335D01*
X79514128Y-142604670D01*
X79204748Y-142476521D01*
X78926313Y-142290477D01*
X78689523Y-142053687D01*
X78503479Y-141775252D01*
X78375330Y-141465872D01*
X78310000Y-141137435D01*
X78310000Y-140802565D01*
X78375330Y-140474128D01*
X78503479Y-140164748D01*
X78689523Y-139886313D01*
X78926313Y-139649523D01*
X79204748Y-139463479D01*
X79514128Y-139335330D01*
X79678347Y-139302665D01*
X79842563Y-139270000D01*
X80177437Y-139270000D01*
X80341653Y-139302665D01*
G37*
G36*
X39701653Y-139302665D02*
G01*
X39865872Y-139335330D01*
X40175252Y-139463479D01*
X40453687Y-139649523D01*
X40690477Y-139886313D01*
X40876521Y-140164748D01*
X41004670Y-140474128D01*
X41070000Y-140802565D01*
X41070000Y-141137435D01*
X41004670Y-141465872D01*
X40876521Y-141775252D01*
X40690477Y-142053687D01*
X40453687Y-142290477D01*
X40175252Y-142476521D01*
X39865872Y-142604670D01*
X39701654Y-142637335D01*
X39537437Y-142670000D01*
X39202563Y-142670000D01*
X39038346Y-142637335D01*
X38874128Y-142604670D01*
X38564748Y-142476521D01*
X38286313Y-142290477D01*
X38049523Y-142053687D01*
X37863479Y-141775252D01*
X37735330Y-141465872D01*
X37670000Y-141137435D01*
X37670000Y-140802565D01*
X37735330Y-140474128D01*
X37863479Y-140164748D01*
X38049523Y-139886313D01*
X38286313Y-139649523D01*
X38564748Y-139463479D01*
X38874128Y-139335330D01*
X39038347Y-139302665D01*
X39202563Y-139270000D01*
X39537437Y-139270000D01*
X39701653Y-139302665D01*
G37*
G36*
X85421653Y-139302665D02*
G01*
X85585872Y-139335330D01*
X85895252Y-139463479D01*
X86173687Y-139649523D01*
X86410477Y-139886313D01*
X86596521Y-140164748D01*
X86724670Y-140474128D01*
X86790000Y-140802565D01*
X86790000Y-141137435D01*
X86724670Y-141465872D01*
X86596521Y-141775252D01*
X86410477Y-142053687D01*
X86173687Y-142290477D01*
X85895252Y-142476521D01*
X85585872Y-142604670D01*
X85421654Y-142637335D01*
X85257437Y-142670000D01*
X84922563Y-142670000D01*
X84758346Y-142637335D01*
X84594128Y-142604670D01*
X84284748Y-142476521D01*
X84006313Y-142290477D01*
X83769523Y-142053687D01*
X83583479Y-141775252D01*
X83455330Y-141465872D01*
X83390000Y-141137435D01*
X83390000Y-140802565D01*
X83455330Y-140474128D01*
X83583479Y-140164748D01*
X83769523Y-139886313D01*
X84006313Y-139649523D01*
X84284748Y-139463479D01*
X84594128Y-139335330D01*
X84758347Y-139302665D01*
X84922563Y-139270000D01*
X85257437Y-139270000D01*
X85421653Y-139302665D01*
G37*
G36*
X60021653Y-139302665D02*
G01*
X60185872Y-139335330D01*
X60495252Y-139463479D01*
X60773687Y-139649523D01*
X61010477Y-139886313D01*
X61196521Y-140164748D01*
X61324670Y-140474128D01*
X61390000Y-140802565D01*
X61390000Y-141137435D01*
X61324670Y-141465872D01*
X61196521Y-141775252D01*
X61010477Y-142053687D01*
X60773687Y-142290477D01*
X60495252Y-142476521D01*
X60185872Y-142604670D01*
X60021654Y-142637335D01*
X59857437Y-142670000D01*
X59522563Y-142670000D01*
X59358346Y-142637335D01*
X59194128Y-142604670D01*
X58884748Y-142476521D01*
X58606313Y-142290477D01*
X58369523Y-142053687D01*
X58183479Y-141775252D01*
X58055330Y-141465872D01*
X57990000Y-141137435D01*
X57990000Y-140802565D01*
X58055330Y-140474128D01*
X58183479Y-140164748D01*
X58369523Y-139886313D01*
X58606313Y-139649523D01*
X58884748Y-139463479D01*
X59194128Y-139335330D01*
X59358347Y-139302665D01*
X59522563Y-139270000D01*
X59857437Y-139270000D01*
X60021653Y-139302665D01*
G37*
G36*
X65101653Y-139302665D02*
G01*
X65265872Y-139335330D01*
X65575252Y-139463479D01*
X65853687Y-139649523D01*
X66090477Y-139886313D01*
X66276521Y-140164748D01*
X66404670Y-140474128D01*
X66470000Y-140802565D01*
X66470000Y-141137435D01*
X66404670Y-141465872D01*
X66276521Y-141775252D01*
X66090477Y-142053687D01*
X65853687Y-142290477D01*
X65575252Y-142476521D01*
X65265872Y-142604670D01*
X65101654Y-142637335D01*
X64937437Y-142670000D01*
X64602563Y-142670000D01*
X64438346Y-142637335D01*
X64274128Y-142604670D01*
X63964748Y-142476521D01*
X63686313Y-142290477D01*
X63449523Y-142053687D01*
X63263479Y-141775252D01*
X63135330Y-141465872D01*
X63070000Y-141137435D01*
X63070000Y-140802565D01*
X63135330Y-140474128D01*
X63263479Y-140164748D01*
X63449523Y-139886313D01*
X63686313Y-139649523D01*
X63964748Y-139463479D01*
X64274128Y-139335330D01*
X64438347Y-139302665D01*
X64602563Y-139270000D01*
X64937437Y-139270000D01*
X65101653Y-139302665D01*
G37*
G36*
X70181653Y-139302665D02*
G01*
X70345872Y-139335330D01*
X70655252Y-139463479D01*
X70933687Y-139649523D01*
X71170477Y-139886313D01*
X71356521Y-140164748D01*
X71484670Y-140474128D01*
X71550000Y-140802565D01*
X71550000Y-141137435D01*
X71484670Y-141465872D01*
X71356521Y-141775252D01*
X71170477Y-142053687D01*
X70933687Y-142290477D01*
X70655252Y-142476521D01*
X70345872Y-142604670D01*
X70181654Y-142637335D01*
X70017437Y-142670000D01*
X69682563Y-142670000D01*
X69518346Y-142637335D01*
X69354128Y-142604670D01*
X69044748Y-142476521D01*
X68766313Y-142290477D01*
X68529523Y-142053687D01*
X68343479Y-141775252D01*
X68215330Y-141465872D01*
X68150000Y-141137435D01*
X68150000Y-140802565D01*
X68215330Y-140474128D01*
X68343479Y-140164748D01*
X68529523Y-139886313D01*
X68766313Y-139649523D01*
X69044748Y-139463479D01*
X69354128Y-139335330D01*
X69518347Y-139302665D01*
X69682563Y-139270000D01*
X70017437Y-139270000D01*
X70181653Y-139302665D01*
G37*
G36*
X75261653Y-139302665D02*
G01*
X75425872Y-139335330D01*
X75735252Y-139463479D01*
X76013687Y-139649523D01*
X76250477Y-139886313D01*
X76436521Y-140164748D01*
X76564670Y-140474128D01*
X76630000Y-140802565D01*
X76630000Y-141137435D01*
X76564670Y-141465872D01*
X76436521Y-141775252D01*
X76250477Y-142053687D01*
X76013687Y-142290477D01*
X75735252Y-142476521D01*
X75425872Y-142604670D01*
X75261654Y-142637335D01*
X75097437Y-142670000D01*
X74762563Y-142670000D01*
X74598346Y-142637335D01*
X74434128Y-142604670D01*
X74124748Y-142476521D01*
X73846313Y-142290477D01*
X73609523Y-142053687D01*
X73423479Y-141775252D01*
X73295330Y-141465872D01*
X73230000Y-141137435D01*
X73230000Y-140802565D01*
X73295330Y-140474128D01*
X73423479Y-140164748D01*
X73609523Y-139886313D01*
X73846313Y-139649523D01*
X74124748Y-139463479D01*
X74434128Y-139335330D01*
X74598347Y-139302665D01*
X74762563Y-139270000D01*
X75097437Y-139270000D01*
X75261653Y-139302665D01*
G37*
G36*
X49861653Y-139302665D02*
G01*
X50025872Y-139335330D01*
X50335252Y-139463479D01*
X50613687Y-139649523D01*
X50850477Y-139886313D01*
X51036521Y-140164748D01*
X51164670Y-140474128D01*
X51230000Y-140802565D01*
X51230000Y-141137435D01*
X51164670Y-141465872D01*
X51036521Y-141775252D01*
X50850477Y-142053687D01*
X50613687Y-142290477D01*
X50335252Y-142476521D01*
X50025872Y-142604670D01*
X49861654Y-142637335D01*
X49697437Y-142670000D01*
X49362563Y-142670000D01*
X49198346Y-142637335D01*
X49034128Y-142604670D01*
X48724748Y-142476521D01*
X48446313Y-142290477D01*
X48209523Y-142053687D01*
X48023479Y-141775252D01*
X47895330Y-141465872D01*
X47830000Y-141137435D01*
X47830000Y-140802565D01*
X47895330Y-140474128D01*
X48023479Y-140164748D01*
X48209523Y-139886313D01*
X48446313Y-139649523D01*
X48724748Y-139463479D01*
X49034128Y-139335330D01*
X49198347Y-139302665D01*
X49362563Y-139270000D01*
X49697437Y-139270000D01*
X49861653Y-139302665D01*
G37*
G36*
X54941653Y-139302665D02*
G01*
X55105872Y-139335330D01*
X55415252Y-139463479D01*
X55693687Y-139649523D01*
X55930477Y-139886313D01*
X56116521Y-140164748D01*
X56244670Y-140474128D01*
X56310000Y-140802565D01*
X56310000Y-141137435D01*
X56244670Y-141465872D01*
X56116521Y-141775252D01*
X55930477Y-142053687D01*
X55693687Y-142290477D01*
X55415252Y-142476521D01*
X55105872Y-142604670D01*
X54941654Y-142637335D01*
X54777437Y-142670000D01*
X54442563Y-142670000D01*
X54278346Y-142637335D01*
X54114128Y-142604670D01*
X53804748Y-142476521D01*
X53526313Y-142290477D01*
X53289523Y-142053687D01*
X53103479Y-141775252D01*
X52975330Y-141465872D01*
X52910000Y-141137435D01*
X52910000Y-140802565D01*
X52975330Y-140474128D01*
X53103479Y-140164748D01*
X53289523Y-139886313D01*
X53526313Y-139649523D01*
X53804748Y-139463479D01*
X54114128Y-139335330D01*
X54278347Y-139302665D01*
X54442563Y-139270000D01*
X54777437Y-139270000D01*
X54941653Y-139302665D01*
G37*
G36*
X90298687Y-140179027D02*
G01*
X90476274Y-140214350D01*
X90667362Y-140293502D01*
X90839336Y-140408411D01*
X90985589Y-140554664D01*
X91100498Y-140726638D01*
X91179650Y-140917726D01*
X91220000Y-141120584D01*
X91220000Y-141327416D01*
X91179650Y-141530274D01*
X91100498Y-141721362D01*
X90985589Y-141893336D01*
X90839336Y-142039589D01*
X90667362Y-142154498D01*
X90476274Y-142233650D01*
X90298687Y-142268973D01*
X90273417Y-142274000D01*
X90066583Y-142274000D01*
X90041313Y-142268973D01*
X89863726Y-142233650D01*
X89672638Y-142154498D01*
X89500664Y-142039589D01*
X89354411Y-141893336D01*
X89239502Y-141721362D01*
X89160350Y-141530274D01*
X89120000Y-141327416D01*
X89120000Y-141120584D01*
X89160350Y-140917726D01*
X89239502Y-140726638D01*
X89354411Y-140554664D01*
X89500664Y-140408411D01*
X89672638Y-140293502D01*
X89863726Y-140214350D01*
X90041313Y-140179027D01*
X90066583Y-140174000D01*
X90273417Y-140174000D01*
X90298687Y-140179027D01*
G37*
G36*
X90298687Y-137639027D02*
G01*
X90476274Y-137674350D01*
X90667362Y-137753502D01*
X90839336Y-137868411D01*
X90985589Y-138014664D01*
X91100498Y-138186638D01*
X91179650Y-138377726D01*
X91220000Y-138580584D01*
X91220000Y-138787416D01*
X91179650Y-138990274D01*
X91100498Y-139181362D01*
X90985589Y-139353336D01*
X90839336Y-139499589D01*
X90667362Y-139614498D01*
X90476274Y-139693650D01*
X90298687Y-139728973D01*
X90273417Y-139734000D01*
X90066583Y-139734000D01*
X90041313Y-139728973D01*
X89863726Y-139693650D01*
X89672638Y-139614498D01*
X89500664Y-139499589D01*
X89354411Y-139353336D01*
X89239502Y-139181362D01*
X89160350Y-138990274D01*
X89120000Y-138787416D01*
X89120000Y-138580584D01*
X89160350Y-138377726D01*
X89239502Y-138186638D01*
X89354411Y-138014664D01*
X89500664Y-137868411D01*
X89672638Y-137753502D01*
X89863726Y-137674350D01*
X90041313Y-137639027D01*
X90066583Y-137634000D01*
X90273417Y-137634000D01*
X90298687Y-137639027D01*
G37*
G36*
X91220000Y-137194000D02*
G01*
X89120000Y-137194000D01*
X89120000Y-135094000D01*
X91220000Y-135094000D01*
X91220000Y-137194000D01*
G37*
G36*
X42696026Y-132196115D02*
G01*
X42914411Y-132286573D01*
X42914413Y-132286574D01*
X43110955Y-132417899D01*
X43278101Y-132585045D01*
X43409427Y-132781589D01*
X43499885Y-132999974D01*
X43546000Y-133231809D01*
X43546000Y-133468191D01*
X43499885Y-133700026D01*
X43409427Y-133918411D01*
X43409426Y-133918413D01*
X43278101Y-134114955D01*
X43110955Y-134282101D01*
X42914413Y-134413426D01*
X42914412Y-134413427D01*
X42914411Y-134413427D01*
X42696026Y-134503885D01*
X42464191Y-134550000D01*
X42227809Y-134550000D01*
X41995974Y-134503885D01*
X41777589Y-134413427D01*
X41777588Y-134413427D01*
X41777587Y-134413426D01*
X41581045Y-134282101D01*
X41413899Y-134114955D01*
X41282574Y-133918413D01*
X41282573Y-133918411D01*
X41192115Y-133700026D01*
X41146000Y-133468191D01*
X41146000Y-133231809D01*
X41192115Y-132999974D01*
X41282573Y-132781589D01*
X41413899Y-132585045D01*
X41581045Y-132417899D01*
X41777587Y-132286574D01*
X41777589Y-132286573D01*
X41995974Y-132196115D01*
X42227809Y-132150000D01*
X42464191Y-132150000D01*
X42696026Y-132196115D01*
G37*
G36*
X38196026Y-132196115D02*
G01*
X38414411Y-132286573D01*
X38414413Y-132286574D01*
X38610955Y-132417899D01*
X38778101Y-132585045D01*
X38909427Y-132781589D01*
X38999885Y-132999974D01*
X39046000Y-133231809D01*
X39046000Y-133468191D01*
X38999885Y-133700026D01*
X38909427Y-133918411D01*
X38909426Y-133918413D01*
X38778101Y-134114955D01*
X38610955Y-134282101D01*
X38414413Y-134413426D01*
X38414412Y-134413427D01*
X38414411Y-134413427D01*
X38196026Y-134503885D01*
X37964191Y-134550000D01*
X37727809Y-134550000D01*
X37495974Y-134503885D01*
X37277589Y-134413427D01*
X37277588Y-134413427D01*
X37277587Y-134413426D01*
X37081045Y-134282101D01*
X36913899Y-134114955D01*
X36782574Y-133918413D01*
X36782573Y-133918411D01*
X36692115Y-133700026D01*
X36646000Y-133468191D01*
X36646000Y-133231809D01*
X36692115Y-132999974D01*
X36782573Y-132781589D01*
X36913899Y-132585045D01*
X37081045Y-132417899D01*
X37277587Y-132286574D01*
X37277589Y-132286573D01*
X37495974Y-132196115D01*
X37727809Y-132150000D01*
X37964191Y-132150000D01*
X38196026Y-132196115D01*
G37*
G36*
X90298687Y-128749027D02*
G01*
X90476274Y-128784350D01*
X90667362Y-128863502D01*
X90839336Y-128978411D01*
X90985589Y-129124664D01*
X91100498Y-129296638D01*
X91179650Y-129487726D01*
X91220000Y-129690584D01*
X91220000Y-129897416D01*
X91179650Y-130100274D01*
X91100498Y-130291362D01*
X90985589Y-130463336D01*
X90839336Y-130609589D01*
X90667362Y-130724498D01*
X90476274Y-130803650D01*
X90298687Y-130838973D01*
X90273417Y-130844000D01*
X90066583Y-130844000D01*
X90041313Y-130838973D01*
X89863726Y-130803650D01*
X89672638Y-130724498D01*
X89500664Y-130609589D01*
X89354411Y-130463336D01*
X89239502Y-130291362D01*
X89160350Y-130100274D01*
X89120000Y-129897416D01*
X89120000Y-129690584D01*
X89160350Y-129487726D01*
X89239502Y-129296638D01*
X89354411Y-129124664D01*
X89500664Y-128978411D01*
X89672638Y-128863502D01*
X89863726Y-128784350D01*
X90041313Y-128749027D01*
X90066583Y-128744000D01*
X90273417Y-128744000D01*
X90298687Y-128749027D01*
G37*
G36*
X65050604Y-128614968D02*
G01*
X65225678Y-128687486D01*
X65225679Y-128687487D01*
X65383237Y-128792763D01*
X65517237Y-128926763D01*
X65605007Y-129058121D01*
X65622514Y-129084322D01*
X65639224Y-129124664D01*
X65695032Y-129259396D01*
X65732000Y-129445250D01*
X65732000Y-129634750D01*
X65695032Y-129820604D01*
X65663215Y-129897416D01*
X65622514Y-129995678D01*
X65622513Y-129995679D01*
X65517237Y-130153237D01*
X65383237Y-130287237D01*
X65251879Y-130375007D01*
X65225678Y-130392514D01*
X65138142Y-130428772D01*
X65050604Y-130465032D01*
X64864750Y-130502000D01*
X64675250Y-130502000D01*
X64489396Y-130465032D01*
X64401858Y-130428772D01*
X64314322Y-130392514D01*
X64288121Y-130375007D01*
X64156763Y-130287237D01*
X64022763Y-130153237D01*
X63917487Y-129995679D01*
X63917486Y-129995678D01*
X63876785Y-129897416D01*
X63844968Y-129820604D01*
X63808000Y-129634750D01*
X63808000Y-129445250D01*
X63844968Y-129259396D01*
X63900776Y-129124664D01*
X63917486Y-129084322D01*
X63934993Y-129058121D01*
X64022763Y-128926763D01*
X64156763Y-128792763D01*
X64314321Y-128687487D01*
X64314322Y-128687486D01*
X64489396Y-128614968D01*
X64675250Y-128578000D01*
X64864750Y-128578000D01*
X65050604Y-128614968D01*
G37*
G36*
X75210604Y-128614968D02*
G01*
X75385678Y-128687486D01*
X75385679Y-128687487D01*
X75543237Y-128792763D01*
X75677237Y-128926763D01*
X75765007Y-129058121D01*
X75782514Y-129084322D01*
X75799224Y-129124664D01*
X75855032Y-129259396D01*
X75892000Y-129445250D01*
X75892000Y-129634750D01*
X75855032Y-129820604D01*
X75823215Y-129897416D01*
X75782514Y-129995678D01*
X75782513Y-129995679D01*
X75677237Y-130153237D01*
X75543237Y-130287237D01*
X75411879Y-130375007D01*
X75385678Y-130392514D01*
X75298142Y-130428772D01*
X75210604Y-130465032D01*
X75024750Y-130502000D01*
X74835250Y-130502000D01*
X74649396Y-130465032D01*
X74561858Y-130428772D01*
X74474322Y-130392514D01*
X74448121Y-130375007D01*
X74316763Y-130287237D01*
X74182763Y-130153237D01*
X74077487Y-129995679D01*
X74077486Y-129995678D01*
X74036785Y-129897416D01*
X74004968Y-129820604D01*
X73968000Y-129634750D01*
X73968000Y-129445250D01*
X74004968Y-129259396D01*
X74060776Y-129124664D01*
X74077486Y-129084322D01*
X74094993Y-129058121D01*
X74182763Y-128926763D01*
X74316763Y-128792763D01*
X74474321Y-128687487D01*
X74474322Y-128687486D01*
X74649396Y-128614968D01*
X74835250Y-128578000D01*
X75024750Y-128578000D01*
X75210604Y-128614968D01*
G37*
G36*
X80290604Y-128614968D02*
G01*
X80465678Y-128687486D01*
X80465679Y-128687487D01*
X80623237Y-128792763D01*
X80757237Y-128926763D01*
X80845007Y-129058121D01*
X80862514Y-129084322D01*
X80879224Y-129124664D01*
X80935032Y-129259396D01*
X80972000Y-129445250D01*
X80972000Y-129634750D01*
X80935032Y-129820604D01*
X80903215Y-129897416D01*
X80862514Y-129995678D01*
X80862513Y-129995679D01*
X80757237Y-130153237D01*
X80623237Y-130287237D01*
X80491879Y-130375007D01*
X80465678Y-130392514D01*
X80378142Y-130428772D01*
X80290604Y-130465032D01*
X80104750Y-130502000D01*
X79915250Y-130502000D01*
X79729396Y-130465032D01*
X79641858Y-130428772D01*
X79554322Y-130392514D01*
X79528121Y-130375007D01*
X79396763Y-130287237D01*
X79262763Y-130153237D01*
X79157487Y-129995679D01*
X79157486Y-129995678D01*
X79116785Y-129897416D01*
X79084968Y-129820604D01*
X79048000Y-129634750D01*
X79048000Y-129445250D01*
X79084968Y-129259396D01*
X79140776Y-129124664D01*
X79157486Y-129084322D01*
X79174993Y-129058121D01*
X79262763Y-128926763D01*
X79396763Y-128792763D01*
X79554321Y-128687487D01*
X79554322Y-128687486D01*
X79729396Y-128614968D01*
X79915250Y-128578000D01*
X80104750Y-128578000D01*
X80290604Y-128614968D01*
G37*
G36*
X85370604Y-128614968D02*
G01*
X85545678Y-128687486D01*
X85545679Y-128687487D01*
X85703237Y-128792763D01*
X85837237Y-128926763D01*
X85925007Y-129058121D01*
X85942514Y-129084322D01*
X85959224Y-129124664D01*
X86015032Y-129259396D01*
X86052000Y-129445250D01*
X86052000Y-129634750D01*
X86015032Y-129820604D01*
X85983215Y-129897416D01*
X85942514Y-129995678D01*
X85942513Y-129995679D01*
X85837237Y-130153237D01*
X85703237Y-130287237D01*
X85571879Y-130375007D01*
X85545678Y-130392514D01*
X85458142Y-130428772D01*
X85370604Y-130465032D01*
X85184750Y-130502000D01*
X84995250Y-130502000D01*
X84809396Y-130465032D01*
X84721858Y-130428772D01*
X84634322Y-130392514D01*
X84608121Y-130375007D01*
X84476763Y-130287237D01*
X84342763Y-130153237D01*
X84237487Y-129995679D01*
X84237486Y-129995678D01*
X84196785Y-129897416D01*
X84164968Y-129820604D01*
X84128000Y-129634750D01*
X84128000Y-129445250D01*
X84164968Y-129259396D01*
X84220776Y-129124664D01*
X84237486Y-129084322D01*
X84254993Y-129058121D01*
X84342763Y-128926763D01*
X84476763Y-128792763D01*
X84634321Y-128687487D01*
X84634322Y-128687486D01*
X84809396Y-128614968D01*
X84995250Y-128578000D01*
X85184750Y-128578000D01*
X85370604Y-128614968D01*
G37*
G36*
X54890604Y-128614968D02*
G01*
X55065678Y-128687486D01*
X55065679Y-128687487D01*
X55223237Y-128792763D01*
X55357237Y-128926763D01*
X55445007Y-129058121D01*
X55462514Y-129084322D01*
X55479224Y-129124664D01*
X55535032Y-129259396D01*
X55572000Y-129445250D01*
X55572000Y-129634750D01*
X55535032Y-129820604D01*
X55503215Y-129897416D01*
X55462514Y-129995678D01*
X55462513Y-129995679D01*
X55357237Y-130153237D01*
X55223237Y-130287237D01*
X55091879Y-130375007D01*
X55065678Y-130392514D01*
X54978142Y-130428772D01*
X54890604Y-130465032D01*
X54704750Y-130502000D01*
X54515250Y-130502000D01*
X54329396Y-130465032D01*
X54241858Y-130428772D01*
X54154322Y-130392514D01*
X54128121Y-130375007D01*
X53996763Y-130287237D01*
X53862763Y-130153237D01*
X53757487Y-129995679D01*
X53757486Y-129995678D01*
X53716785Y-129897416D01*
X53684968Y-129820604D01*
X53648000Y-129634750D01*
X53648000Y-129445250D01*
X53684968Y-129259396D01*
X53740776Y-129124664D01*
X53757486Y-129084322D01*
X53774993Y-129058121D01*
X53862763Y-128926763D01*
X53996763Y-128792763D01*
X54154321Y-128687487D01*
X54154322Y-128687486D01*
X54329396Y-128614968D01*
X54515250Y-128578000D01*
X54704750Y-128578000D01*
X54890604Y-128614968D01*
G37*
G36*
X49810604Y-128614968D02*
G01*
X49985678Y-128687486D01*
X49985679Y-128687487D01*
X50143237Y-128792763D01*
X50277237Y-128926763D01*
X50365007Y-129058121D01*
X50382514Y-129084322D01*
X50399224Y-129124664D01*
X50455032Y-129259396D01*
X50492000Y-129445250D01*
X50492000Y-129634750D01*
X50455032Y-129820604D01*
X50423215Y-129897416D01*
X50382514Y-129995678D01*
X50382513Y-129995679D01*
X50277237Y-130153237D01*
X50143237Y-130287237D01*
X50011879Y-130375007D01*
X49985678Y-130392514D01*
X49898142Y-130428772D01*
X49810604Y-130465032D01*
X49624750Y-130502000D01*
X49435250Y-130502000D01*
X49249396Y-130465032D01*
X49161858Y-130428772D01*
X49074322Y-130392514D01*
X49048121Y-130375007D01*
X48916763Y-130287237D01*
X48782763Y-130153237D01*
X48677487Y-129995679D01*
X48677486Y-129995678D01*
X48636785Y-129897416D01*
X48604968Y-129820604D01*
X48568000Y-129634750D01*
X48568000Y-129445250D01*
X48604968Y-129259396D01*
X48660776Y-129124664D01*
X48677486Y-129084322D01*
X48694993Y-129058121D01*
X48782763Y-128926763D01*
X48916763Y-128792763D01*
X49074321Y-128687487D01*
X49074322Y-128687486D01*
X49249396Y-128614968D01*
X49435250Y-128578000D01*
X49624750Y-128578000D01*
X49810604Y-128614968D01*
G37*
G36*
X59970604Y-128614968D02*
G01*
X60145678Y-128687486D01*
X60145679Y-128687487D01*
X60303237Y-128792763D01*
X60437237Y-128926763D01*
X60525007Y-129058121D01*
X60542514Y-129084322D01*
X60559224Y-129124664D01*
X60615032Y-129259396D01*
X60652000Y-129445250D01*
X60652000Y-129634750D01*
X60615032Y-129820604D01*
X60583215Y-129897416D01*
X60542514Y-129995678D01*
X60542513Y-129995679D01*
X60437237Y-130153237D01*
X60303237Y-130287237D01*
X60171879Y-130375007D01*
X60145678Y-130392514D01*
X60058142Y-130428772D01*
X59970604Y-130465032D01*
X59784750Y-130502000D01*
X59595250Y-130502000D01*
X59409396Y-130465032D01*
X59321858Y-130428772D01*
X59234322Y-130392514D01*
X59208121Y-130375007D01*
X59076763Y-130287237D01*
X58942763Y-130153237D01*
X58837487Y-129995679D01*
X58837486Y-129995678D01*
X58796785Y-129897416D01*
X58764968Y-129820604D01*
X58728000Y-129634750D01*
X58728000Y-129445250D01*
X58764968Y-129259396D01*
X58820776Y-129124664D01*
X58837486Y-129084322D01*
X58854993Y-129058121D01*
X58942763Y-128926763D01*
X59076763Y-128792763D01*
X59234321Y-128687487D01*
X59234322Y-128687486D01*
X59409396Y-128614968D01*
X59595250Y-128578000D01*
X59784750Y-128578000D01*
X59970604Y-128614968D01*
G37*
G36*
X70130604Y-128614968D02*
G01*
X70305678Y-128687486D01*
X70305679Y-128687487D01*
X70463237Y-128792763D01*
X70597237Y-128926763D01*
X70685007Y-129058121D01*
X70702514Y-129084322D01*
X70719224Y-129124664D01*
X70775032Y-129259396D01*
X70812000Y-129445250D01*
X70812000Y-129634750D01*
X70775032Y-129820604D01*
X70743215Y-129897416D01*
X70702514Y-129995678D01*
X70702513Y-129995679D01*
X70597237Y-130153237D01*
X70463237Y-130287237D01*
X70331879Y-130375007D01*
X70305678Y-130392514D01*
X70218142Y-130428772D01*
X70130604Y-130465032D01*
X69944750Y-130502000D01*
X69755250Y-130502000D01*
X69569396Y-130465032D01*
X69481858Y-130428772D01*
X69394322Y-130392514D01*
X69368121Y-130375007D01*
X69236763Y-130287237D01*
X69102763Y-130153237D01*
X68997487Y-129995679D01*
X68997486Y-129995678D01*
X68956785Y-129897416D01*
X68924968Y-129820604D01*
X68888000Y-129634750D01*
X68888000Y-129445250D01*
X68924968Y-129259396D01*
X68980776Y-129124664D01*
X68997486Y-129084322D01*
X69014993Y-129058121D01*
X69102763Y-128926763D01*
X69236763Y-128792763D01*
X69394321Y-128687487D01*
X69394322Y-128687486D01*
X69569396Y-128614968D01*
X69755250Y-128578000D01*
X69944750Y-128578000D01*
X70130604Y-128614968D01*
G37*
G36*
X90298687Y-126209027D02*
G01*
X90476274Y-126244350D01*
X90667362Y-126323502D01*
X90839336Y-126438411D01*
X90985589Y-126584664D01*
X91100498Y-126756638D01*
X91179650Y-126947726D01*
X91220000Y-127150584D01*
X91220000Y-127357416D01*
X91179650Y-127560274D01*
X91100498Y-127751362D01*
X90985589Y-127923336D01*
X90839336Y-128069589D01*
X90667362Y-128184498D01*
X90476274Y-128263650D01*
X90298687Y-128298973D01*
X90273417Y-128304000D01*
X90066583Y-128304000D01*
X90041313Y-128298973D01*
X89863726Y-128263650D01*
X89672638Y-128184498D01*
X89500664Y-128069589D01*
X89354411Y-127923336D01*
X89239502Y-127751362D01*
X89160350Y-127560274D01*
X89120000Y-127357416D01*
X89120000Y-127150584D01*
X89160350Y-126947726D01*
X89239502Y-126756638D01*
X89354411Y-126584664D01*
X89500664Y-126438411D01*
X89672638Y-126323502D01*
X89863726Y-126244350D01*
X90041313Y-126209027D01*
X90066583Y-126204000D01*
X90273417Y-126204000D01*
X90298687Y-126209027D01*
G37*
G36*
X42696026Y-125696115D02*
G01*
X42914411Y-125786573D01*
X42914413Y-125786574D01*
X43110955Y-125917899D01*
X43278101Y-126085045D01*
X43384546Y-126244351D01*
X43409427Y-126281589D01*
X43499885Y-126499974D01*
X43546000Y-126731809D01*
X43546000Y-126968191D01*
X43499885Y-127200026D01*
X43409427Y-127418411D01*
X43409426Y-127418413D01*
X43278101Y-127614955D01*
X43110955Y-127782101D01*
X42914413Y-127913426D01*
X42914412Y-127913427D01*
X42914411Y-127913427D01*
X42696026Y-128003885D01*
X42464191Y-128050000D01*
X42227809Y-128050000D01*
X41995974Y-128003885D01*
X41777589Y-127913427D01*
X41777588Y-127913427D01*
X41777587Y-127913426D01*
X41581045Y-127782101D01*
X41413899Y-127614955D01*
X41282574Y-127418413D01*
X41282573Y-127418411D01*
X41192115Y-127200026D01*
X41146000Y-126968191D01*
X41146000Y-126731809D01*
X41192115Y-126499974D01*
X41282573Y-126281589D01*
X41307455Y-126244351D01*
X41413899Y-126085045D01*
X41581045Y-125917899D01*
X41777587Y-125786574D01*
X41777589Y-125786573D01*
X41995974Y-125696115D01*
X42227809Y-125650000D01*
X42464191Y-125650000D01*
X42696026Y-125696115D01*
G37*
G36*
X38196026Y-125696115D02*
G01*
X38414411Y-125786573D01*
X38414413Y-125786574D01*
X38610955Y-125917899D01*
X38778101Y-126085045D01*
X38884546Y-126244351D01*
X38909427Y-126281589D01*
X38999885Y-126499974D01*
X39046000Y-126731809D01*
X39046000Y-126968191D01*
X38999885Y-127200026D01*
X38909427Y-127418411D01*
X38909426Y-127418413D01*
X38778101Y-127614955D01*
X38610955Y-127782101D01*
X38414413Y-127913426D01*
X38414412Y-127913427D01*
X38414411Y-127913427D01*
X38196026Y-128003885D01*
X37964191Y-128050000D01*
X37727809Y-128050000D01*
X37495974Y-128003885D01*
X37277589Y-127913427D01*
X37277588Y-127913427D01*
X37277587Y-127913426D01*
X37081045Y-127782101D01*
X36913899Y-127614955D01*
X36782574Y-127418413D01*
X36782573Y-127418411D01*
X36692115Y-127200026D01*
X36646000Y-126968191D01*
X36646000Y-126731809D01*
X36692115Y-126499974D01*
X36782573Y-126281589D01*
X36807455Y-126244351D01*
X36913899Y-126085045D01*
X37081045Y-125917899D01*
X37277587Y-125786574D01*
X37277589Y-125786573D01*
X37495974Y-125696115D01*
X37727809Y-125650000D01*
X37964191Y-125650000D01*
X38196026Y-125696115D01*
G37*
G36*
X62510604Y-126074968D02*
G01*
X62598142Y-126111228D01*
X62685678Y-126147486D01*
X62685679Y-126147487D01*
X62843237Y-126252763D01*
X62977237Y-126386763D01*
X63065007Y-126518121D01*
X63082514Y-126544322D01*
X63099224Y-126584664D01*
X63155032Y-126719396D01*
X63192000Y-126905250D01*
X63192000Y-127094750D01*
X63155032Y-127280604D01*
X63123215Y-127357416D01*
X63082514Y-127455678D01*
X63082513Y-127455679D01*
X62977237Y-127613237D01*
X62843237Y-127747237D01*
X62711879Y-127835007D01*
X62685678Y-127852514D01*
X62510604Y-127925032D01*
X62324750Y-127962000D01*
X62135250Y-127962000D01*
X61949396Y-127925032D01*
X61774322Y-127852514D01*
X61748121Y-127835007D01*
X61616763Y-127747237D01*
X61482763Y-127613237D01*
X61377487Y-127455679D01*
X61377486Y-127455678D01*
X61336785Y-127357416D01*
X61304968Y-127280604D01*
X61268000Y-127094750D01*
X61268000Y-126905250D01*
X61304968Y-126719396D01*
X61360776Y-126584664D01*
X61377486Y-126544322D01*
X61394993Y-126518121D01*
X61482763Y-126386763D01*
X61616763Y-126252763D01*
X61774321Y-126147487D01*
X61774322Y-126147486D01*
X61861858Y-126111228D01*
X61949396Y-126074968D01*
X62135250Y-126038000D01*
X62324750Y-126038000D01*
X62510604Y-126074968D01*
G37*
G36*
X72670604Y-126074968D02*
G01*
X72758142Y-126111228D01*
X72845678Y-126147486D01*
X72845679Y-126147487D01*
X73003237Y-126252763D01*
X73137237Y-126386763D01*
X73225007Y-126518121D01*
X73242514Y-126544322D01*
X73259224Y-126584664D01*
X73315032Y-126719396D01*
X73352000Y-126905250D01*
X73352000Y-127094750D01*
X73315032Y-127280604D01*
X73283215Y-127357416D01*
X73242514Y-127455678D01*
X73242513Y-127455679D01*
X73137237Y-127613237D01*
X73003237Y-127747237D01*
X72871879Y-127835007D01*
X72845678Y-127852514D01*
X72670604Y-127925032D01*
X72484750Y-127962000D01*
X72295250Y-127962000D01*
X72109396Y-127925032D01*
X71934322Y-127852514D01*
X71908121Y-127835007D01*
X71776763Y-127747237D01*
X71642763Y-127613237D01*
X71537487Y-127455679D01*
X71537486Y-127455678D01*
X71496785Y-127357416D01*
X71464968Y-127280604D01*
X71428000Y-127094750D01*
X71428000Y-126905250D01*
X71464968Y-126719396D01*
X71520776Y-126584664D01*
X71537486Y-126544322D01*
X71554993Y-126518121D01*
X71642763Y-126386763D01*
X71776763Y-126252763D01*
X71934321Y-126147487D01*
X71934322Y-126147486D01*
X72021858Y-126111228D01*
X72109396Y-126074968D01*
X72295250Y-126038000D01*
X72484750Y-126038000D01*
X72670604Y-126074968D01*
G37*
G36*
X82830604Y-126074968D02*
G01*
X82918142Y-126111228D01*
X83005678Y-126147486D01*
X83005679Y-126147487D01*
X83163237Y-126252763D01*
X83297237Y-126386763D01*
X83385007Y-126518121D01*
X83402514Y-126544322D01*
X83419224Y-126584664D01*
X83475032Y-126719396D01*
X83512000Y-126905250D01*
X83512000Y-127094750D01*
X83475032Y-127280604D01*
X83443215Y-127357416D01*
X83402514Y-127455678D01*
X83402513Y-127455679D01*
X83297237Y-127613237D01*
X83163237Y-127747237D01*
X83031879Y-127835007D01*
X83005678Y-127852514D01*
X82830604Y-127925032D01*
X82644750Y-127962000D01*
X82455250Y-127962000D01*
X82269396Y-127925032D01*
X82094322Y-127852514D01*
X82068121Y-127835007D01*
X81936763Y-127747237D01*
X81802763Y-127613237D01*
X81697487Y-127455679D01*
X81697486Y-127455678D01*
X81656785Y-127357416D01*
X81624968Y-127280604D01*
X81588000Y-127094750D01*
X81588000Y-126905250D01*
X81624968Y-126719396D01*
X81680776Y-126584664D01*
X81697486Y-126544322D01*
X81714993Y-126518121D01*
X81802763Y-126386763D01*
X81936763Y-126252763D01*
X82094321Y-126147487D01*
X82094322Y-126147486D01*
X82181858Y-126111228D01*
X82269396Y-126074968D01*
X82455250Y-126038000D01*
X82644750Y-126038000D01*
X82830604Y-126074968D01*
G37*
G36*
X52350604Y-126074968D02*
G01*
X52438142Y-126111228D01*
X52525678Y-126147486D01*
X52525679Y-126147487D01*
X52683237Y-126252763D01*
X52817237Y-126386763D01*
X52905007Y-126518121D01*
X52922514Y-126544322D01*
X52939224Y-126584664D01*
X52995032Y-126719396D01*
X53032000Y-126905250D01*
X53032000Y-127094750D01*
X52995032Y-127280604D01*
X52963215Y-127357416D01*
X52922514Y-127455678D01*
X52922513Y-127455679D01*
X52817237Y-127613237D01*
X52683237Y-127747237D01*
X52551879Y-127835007D01*
X52525678Y-127852514D01*
X52350604Y-127925032D01*
X52164750Y-127962000D01*
X51975250Y-127962000D01*
X51789396Y-127925032D01*
X51614322Y-127852514D01*
X51588121Y-127835007D01*
X51456763Y-127747237D01*
X51322763Y-127613237D01*
X51217487Y-127455679D01*
X51217486Y-127455678D01*
X51176785Y-127357416D01*
X51144968Y-127280604D01*
X51108000Y-127094750D01*
X51108000Y-126905250D01*
X51144968Y-126719396D01*
X51200776Y-126584664D01*
X51217486Y-126544322D01*
X51234993Y-126518121D01*
X51322763Y-126386763D01*
X51456763Y-126252763D01*
X51614321Y-126147487D01*
X51614322Y-126147486D01*
X51701858Y-126111228D01*
X51789396Y-126074968D01*
X51975250Y-126038000D01*
X52164750Y-126038000D01*
X52350604Y-126074968D01*
G37*
G36*
X91220000Y-125764000D02*
G01*
X89120000Y-125764000D01*
X89120000Y-123664000D01*
X91220000Y-123664000D01*
X91220000Y-125764000D01*
G37*
G36*
X54890604Y-123534968D02*
G01*
X55065678Y-123607486D01*
X55065679Y-123607487D01*
X55223237Y-123712763D01*
X55357237Y-123846763D01*
X55445007Y-123978121D01*
X55462514Y-124004322D01*
X55468221Y-124018101D01*
X55535032Y-124179396D01*
X55572000Y-124365250D01*
X55572000Y-124554750D01*
X55535032Y-124740604D01*
X55462514Y-124915678D01*
X55462513Y-124915679D01*
X55357237Y-125073237D01*
X55223237Y-125207237D01*
X55091879Y-125295007D01*
X55065678Y-125312514D01*
X54890604Y-125385032D01*
X54704750Y-125422000D01*
X54515250Y-125422000D01*
X54329396Y-125385032D01*
X54154322Y-125312514D01*
X54128121Y-125295007D01*
X53996763Y-125207237D01*
X53862763Y-125073237D01*
X53757487Y-124915679D01*
X53757486Y-124915678D01*
X53684968Y-124740604D01*
X53648000Y-124554750D01*
X53648000Y-124365250D01*
X53684968Y-124179396D01*
X53751779Y-124018101D01*
X53757486Y-124004322D01*
X53774993Y-123978121D01*
X53862763Y-123846763D01*
X53996763Y-123712763D01*
X54154321Y-123607487D01*
X54154322Y-123607486D01*
X54329396Y-123534968D01*
X54515250Y-123498000D01*
X54704750Y-123498000D01*
X54890604Y-123534968D01*
G37*
G36*
X65050604Y-123534968D02*
G01*
X65225678Y-123607486D01*
X65225679Y-123607487D01*
X65383237Y-123712763D01*
X65517237Y-123846763D01*
X65605007Y-123978121D01*
X65622514Y-124004322D01*
X65628221Y-124018101D01*
X65695032Y-124179396D01*
X65732000Y-124365250D01*
X65732000Y-124554750D01*
X65695032Y-124740604D01*
X65622514Y-124915678D01*
X65622513Y-124915679D01*
X65517237Y-125073237D01*
X65383237Y-125207237D01*
X65251879Y-125295007D01*
X65225678Y-125312514D01*
X65050604Y-125385032D01*
X64864750Y-125422000D01*
X64675250Y-125422000D01*
X64489396Y-125385032D01*
X64314322Y-125312514D01*
X64288121Y-125295007D01*
X64156763Y-125207237D01*
X64022763Y-125073237D01*
X63917487Y-124915679D01*
X63917486Y-124915678D01*
X63844968Y-124740604D01*
X63808000Y-124554750D01*
X63808000Y-124365250D01*
X63844968Y-124179396D01*
X63911779Y-124018101D01*
X63917486Y-124004322D01*
X63934993Y-123978121D01*
X64022763Y-123846763D01*
X64156763Y-123712763D01*
X64314321Y-123607487D01*
X64314322Y-123607486D01*
X64489396Y-123534968D01*
X64675250Y-123498000D01*
X64864750Y-123498000D01*
X65050604Y-123534968D01*
G37*
G36*
X59970604Y-123534968D02*
G01*
X60145678Y-123607486D01*
X60145679Y-123607487D01*
X60303237Y-123712763D01*
X60437237Y-123846763D01*
X60525007Y-123978121D01*
X60542514Y-124004322D01*
X60548221Y-124018101D01*
X60615032Y-124179396D01*
X60652000Y-124365250D01*
X60652000Y-124554750D01*
X60615032Y-124740604D01*
X60542514Y-124915678D01*
X60542513Y-124915679D01*
X60437237Y-125073237D01*
X60303237Y-125207237D01*
X60171879Y-125295007D01*
X60145678Y-125312514D01*
X59970604Y-125385032D01*
X59784750Y-125422000D01*
X59595250Y-125422000D01*
X59409396Y-125385032D01*
X59234322Y-125312514D01*
X59208121Y-125295007D01*
X59076763Y-125207237D01*
X58942763Y-125073237D01*
X58837487Y-124915679D01*
X58837486Y-124915678D01*
X58764968Y-124740604D01*
X58728000Y-124554750D01*
X58728000Y-124365250D01*
X58764968Y-124179396D01*
X58831779Y-124018101D01*
X58837486Y-124004322D01*
X58854993Y-123978121D01*
X58942763Y-123846763D01*
X59076763Y-123712763D01*
X59234321Y-123607487D01*
X59234322Y-123607486D01*
X59409396Y-123534968D01*
X59595250Y-123498000D01*
X59784750Y-123498000D01*
X59970604Y-123534968D01*
G37*
G36*
X80290604Y-123534968D02*
G01*
X80465678Y-123607486D01*
X80465679Y-123607487D01*
X80623237Y-123712763D01*
X80757237Y-123846763D01*
X80845007Y-123978121D01*
X80862514Y-124004322D01*
X80868221Y-124018101D01*
X80935032Y-124179396D01*
X80972000Y-124365250D01*
X80972000Y-124554750D01*
X80935032Y-124740604D01*
X80862514Y-124915678D01*
X80862513Y-124915679D01*
X80757237Y-125073237D01*
X80623237Y-125207237D01*
X80491879Y-125295007D01*
X80465678Y-125312514D01*
X80290604Y-125385032D01*
X80104750Y-125422000D01*
X79915250Y-125422000D01*
X79729396Y-125385032D01*
X79554322Y-125312514D01*
X79528121Y-125295007D01*
X79396763Y-125207237D01*
X79262763Y-125073237D01*
X79157487Y-124915679D01*
X79157486Y-124915678D01*
X79084968Y-124740604D01*
X79048000Y-124554750D01*
X79048000Y-124365250D01*
X79084968Y-124179396D01*
X79151779Y-124018101D01*
X79157486Y-124004322D01*
X79174993Y-123978121D01*
X79262763Y-123846763D01*
X79396763Y-123712763D01*
X79554321Y-123607487D01*
X79554322Y-123607486D01*
X79729396Y-123534968D01*
X79915250Y-123498000D01*
X80104750Y-123498000D01*
X80290604Y-123534968D01*
G37*
G36*
X70130604Y-123534968D02*
G01*
X70305678Y-123607486D01*
X70305679Y-123607487D01*
X70463237Y-123712763D01*
X70597237Y-123846763D01*
X70685007Y-123978121D01*
X70702514Y-124004322D01*
X70708221Y-124018101D01*
X70775032Y-124179396D01*
X70812000Y-124365250D01*
X70812000Y-124554750D01*
X70775032Y-124740604D01*
X70702514Y-124915678D01*
X70702513Y-124915679D01*
X70597237Y-125073237D01*
X70463237Y-125207237D01*
X70331879Y-125295007D01*
X70305678Y-125312514D01*
X70130604Y-125385032D01*
X69944750Y-125422000D01*
X69755250Y-125422000D01*
X69569396Y-125385032D01*
X69394322Y-125312514D01*
X69368121Y-125295007D01*
X69236763Y-125207237D01*
X69102763Y-125073237D01*
X68997487Y-124915679D01*
X68997486Y-124915678D01*
X68924968Y-124740604D01*
X68888000Y-124554750D01*
X68888000Y-124365250D01*
X68924968Y-124179396D01*
X68991779Y-124018101D01*
X68997486Y-124004322D01*
X69014993Y-123978121D01*
X69102763Y-123846763D01*
X69236763Y-123712763D01*
X69394321Y-123607487D01*
X69394322Y-123607486D01*
X69569396Y-123534968D01*
X69755250Y-123498000D01*
X69944750Y-123498000D01*
X70130604Y-123534968D01*
G37*
G36*
X75210604Y-123534968D02*
G01*
X75385678Y-123607486D01*
X75385679Y-123607487D01*
X75543237Y-123712763D01*
X75677237Y-123846763D01*
X75765007Y-123978121D01*
X75782514Y-124004322D01*
X75788221Y-124018101D01*
X75855032Y-124179396D01*
X75892000Y-124365250D01*
X75892000Y-124554750D01*
X75855032Y-124740604D01*
X75782514Y-124915678D01*
X75782513Y-124915679D01*
X75677237Y-125073237D01*
X75543237Y-125207237D01*
X75411879Y-125295007D01*
X75385678Y-125312514D01*
X75210604Y-125385032D01*
X75024750Y-125422000D01*
X74835250Y-125422000D01*
X74649396Y-125385032D01*
X74474322Y-125312514D01*
X74448121Y-125295007D01*
X74316763Y-125207237D01*
X74182763Y-125073237D01*
X74077487Y-124915679D01*
X74077486Y-124915678D01*
X74004968Y-124740604D01*
X73968000Y-124554750D01*
X73968000Y-124365250D01*
X74004968Y-124179396D01*
X74071779Y-124018101D01*
X74077486Y-124004322D01*
X74094993Y-123978121D01*
X74182763Y-123846763D01*
X74316763Y-123712763D01*
X74474321Y-123607487D01*
X74474322Y-123607486D01*
X74649396Y-123534968D01*
X74835250Y-123498000D01*
X75024750Y-123498000D01*
X75210604Y-123534968D01*
G37*
G36*
X49810604Y-123534968D02*
G01*
X49985678Y-123607486D01*
X49985679Y-123607487D01*
X50143237Y-123712763D01*
X50277237Y-123846763D01*
X50365007Y-123978121D01*
X50382514Y-124004322D01*
X50388221Y-124018101D01*
X50455032Y-124179396D01*
X50492000Y-124365250D01*
X50492000Y-124554750D01*
X50455032Y-124740604D01*
X50382514Y-124915678D01*
X50382513Y-124915679D01*
X50277237Y-125073237D01*
X50143237Y-125207237D01*
X50011879Y-125295007D01*
X49985678Y-125312514D01*
X49810604Y-125385032D01*
X49624750Y-125422000D01*
X49435250Y-125422000D01*
X49249396Y-125385032D01*
X49074322Y-125312514D01*
X49048121Y-125295007D01*
X48916763Y-125207237D01*
X48782763Y-125073237D01*
X48677487Y-124915679D01*
X48677486Y-124915678D01*
X48604968Y-124740604D01*
X48568000Y-124554750D01*
X48568000Y-124365250D01*
X48604968Y-124179396D01*
X48671779Y-124018101D01*
X48677486Y-124004322D01*
X48694993Y-123978121D01*
X48782763Y-123846763D01*
X48916763Y-123712763D01*
X49074321Y-123607487D01*
X49074322Y-123607486D01*
X49249396Y-123534968D01*
X49435250Y-123498000D01*
X49624750Y-123498000D01*
X49810604Y-123534968D01*
G37*
G36*
X85370604Y-123534968D02*
G01*
X85545678Y-123607486D01*
X85545679Y-123607487D01*
X85703237Y-123712763D01*
X85837237Y-123846763D01*
X85925007Y-123978121D01*
X85942514Y-124004322D01*
X85948221Y-124018101D01*
X86015032Y-124179396D01*
X86052000Y-124365250D01*
X86052000Y-124554750D01*
X86015032Y-124740604D01*
X85942514Y-124915678D01*
X85942513Y-124915679D01*
X85837237Y-125073237D01*
X85703237Y-125207237D01*
X85571879Y-125295007D01*
X85545678Y-125312514D01*
X85370604Y-125385032D01*
X85184750Y-125422000D01*
X84995250Y-125422000D01*
X84809396Y-125385032D01*
X84634322Y-125312514D01*
X84608121Y-125295007D01*
X84476763Y-125207237D01*
X84342763Y-125073237D01*
X84237487Y-124915679D01*
X84237486Y-124915678D01*
X84164968Y-124740604D01*
X84128000Y-124554750D01*
X84128000Y-124365250D01*
X84164968Y-124179396D01*
X84231779Y-124018101D01*
X84237486Y-124004322D01*
X84254993Y-123978121D01*
X84342763Y-123846763D01*
X84476763Y-123712763D01*
X84634321Y-123607487D01*
X84634322Y-123607486D01*
X84809396Y-123534968D01*
X84995250Y-123498000D01*
X85184750Y-123498000D01*
X85370604Y-123534968D01*
G37*
G36*
X38196026Y-121932115D02*
G01*
X38414411Y-122022573D01*
X38414413Y-122022574D01*
X38610955Y-122153899D01*
X38778101Y-122321045D01*
X38909427Y-122517589D01*
X38999885Y-122735974D01*
X39046000Y-122967809D01*
X39046000Y-123204191D01*
X38999885Y-123436026D01*
X38909427Y-123654411D01*
X38909426Y-123654413D01*
X38778101Y-123850955D01*
X38610955Y-124018101D01*
X38414413Y-124149426D01*
X38414412Y-124149427D01*
X38414411Y-124149427D01*
X38196026Y-124239885D01*
X37964191Y-124286000D01*
X37727809Y-124286000D01*
X37495974Y-124239885D01*
X37277589Y-124149427D01*
X37277588Y-124149427D01*
X37277587Y-124149426D01*
X37081045Y-124018101D01*
X36913899Y-123850955D01*
X36782574Y-123654413D01*
X36782573Y-123654411D01*
X36692115Y-123436026D01*
X36646000Y-123204191D01*
X36646000Y-122967809D01*
X36692115Y-122735974D01*
X36782573Y-122517589D01*
X36913899Y-122321045D01*
X37081045Y-122153899D01*
X37277587Y-122022574D01*
X37277589Y-122022573D01*
X37495974Y-121932115D01*
X37727809Y-121886000D01*
X37964191Y-121886000D01*
X38196026Y-121932115D01*
G37*
G36*
X42696026Y-121932115D02*
G01*
X42914411Y-122022573D01*
X42914413Y-122022574D01*
X43110955Y-122153899D01*
X43278101Y-122321045D01*
X43409427Y-122517589D01*
X43499885Y-122735974D01*
X43546000Y-122967809D01*
X43546000Y-123204191D01*
X43499885Y-123436026D01*
X43409427Y-123654411D01*
X43409426Y-123654413D01*
X43278101Y-123850955D01*
X43110955Y-124018101D01*
X42914413Y-124149426D01*
X42914412Y-124149427D01*
X42914411Y-124149427D01*
X42696026Y-124239885D01*
X42464191Y-124286000D01*
X42227809Y-124286000D01*
X41995974Y-124239885D01*
X41777589Y-124149427D01*
X41777588Y-124149427D01*
X41777587Y-124149426D01*
X41581045Y-124018101D01*
X41413899Y-123850955D01*
X41282574Y-123654413D01*
X41282573Y-123654411D01*
X41192115Y-123436026D01*
X41146000Y-123204191D01*
X41146000Y-122967809D01*
X41192115Y-122735974D01*
X41282573Y-122517589D01*
X41413899Y-122321045D01*
X41581045Y-122153899D01*
X41777587Y-122022574D01*
X41777589Y-122022573D01*
X41995974Y-121932115D01*
X42227809Y-121886000D01*
X42464191Y-121886000D01*
X42696026Y-121932115D01*
G37*
G36*
X90298687Y-117319027D02*
G01*
X90476274Y-117354350D01*
X90667362Y-117433502D01*
X90839336Y-117548411D01*
X90985589Y-117694664D01*
X91100498Y-117866638D01*
X91179650Y-118057726D01*
X91220000Y-118260584D01*
X91220000Y-118467416D01*
X91179650Y-118670274D01*
X91100498Y-118861362D01*
X90985589Y-119033336D01*
X90839336Y-119179589D01*
X90667362Y-119294498D01*
X90476274Y-119373650D01*
X90298687Y-119408973D01*
X90273417Y-119414000D01*
X90066583Y-119414000D01*
X90041313Y-119408973D01*
X89863726Y-119373650D01*
X89672638Y-119294498D01*
X89500664Y-119179589D01*
X89354411Y-119033336D01*
X89239502Y-118861362D01*
X89160350Y-118670274D01*
X89120000Y-118467416D01*
X89120000Y-118260584D01*
X89160350Y-118057726D01*
X89239502Y-117866638D01*
X89354411Y-117694664D01*
X89500664Y-117548411D01*
X89672638Y-117433502D01*
X89863726Y-117354350D01*
X90041313Y-117319027D01*
X90066583Y-117314000D01*
X90273417Y-117314000D01*
X90298687Y-117319027D01*
G37*
G36*
X42696026Y-115432115D02*
G01*
X42902709Y-115517726D01*
X42914413Y-115522574D01*
X43110955Y-115653899D01*
X43278101Y-115821045D01*
X43409427Y-116017589D01*
X43499885Y-116235974D01*
X43546000Y-116467809D01*
X43546000Y-116704191D01*
X43499885Y-116936026D01*
X43409427Y-117154411D01*
X43409426Y-117154413D01*
X43278101Y-117350955D01*
X43110955Y-117518101D01*
X42914413Y-117649426D01*
X42914412Y-117649427D01*
X42914411Y-117649427D01*
X42696026Y-117739885D01*
X42464191Y-117786000D01*
X42227809Y-117786000D01*
X41995974Y-117739885D01*
X41777589Y-117649427D01*
X41777588Y-117649427D01*
X41777587Y-117649426D01*
X41581045Y-117518101D01*
X41413899Y-117350955D01*
X41282574Y-117154413D01*
X41282573Y-117154411D01*
X41192115Y-116936026D01*
X41146000Y-116704191D01*
X41146000Y-116467809D01*
X41192115Y-116235974D01*
X41282573Y-116017589D01*
X41413899Y-115821045D01*
X41581045Y-115653899D01*
X41777587Y-115522574D01*
X41789291Y-115517726D01*
X41995974Y-115432115D01*
X42227809Y-115386000D01*
X42464191Y-115386000D01*
X42696026Y-115432115D01*
G37*
G36*
X38196026Y-115432115D02*
G01*
X38402709Y-115517726D01*
X38414413Y-115522574D01*
X38610955Y-115653899D01*
X38778101Y-115821045D01*
X38909427Y-116017589D01*
X38999885Y-116235974D01*
X39046000Y-116467809D01*
X39046000Y-116704191D01*
X38999885Y-116936026D01*
X38909427Y-117154411D01*
X38909426Y-117154413D01*
X38778101Y-117350955D01*
X38610955Y-117518101D01*
X38414413Y-117649426D01*
X38414412Y-117649427D01*
X38414411Y-117649427D01*
X38196026Y-117739885D01*
X37964191Y-117786000D01*
X37727809Y-117786000D01*
X37495974Y-117739885D01*
X37277589Y-117649427D01*
X37277588Y-117649427D01*
X37277587Y-117649426D01*
X37081045Y-117518101D01*
X36913899Y-117350955D01*
X36782574Y-117154413D01*
X36782573Y-117154411D01*
X36692115Y-116936026D01*
X36646000Y-116704191D01*
X36646000Y-116467809D01*
X36692115Y-116235974D01*
X36782573Y-116017589D01*
X36913899Y-115821045D01*
X37081045Y-115653899D01*
X37277587Y-115522574D01*
X37289291Y-115517726D01*
X37495974Y-115432115D01*
X37727809Y-115386000D01*
X37964191Y-115386000D01*
X38196026Y-115432115D01*
G37*
G36*
X90298687Y-114779027D02*
G01*
X90476274Y-114814350D01*
X90667362Y-114893502D01*
X90839336Y-115008411D01*
X90985589Y-115154664D01*
X91100498Y-115326638D01*
X91179650Y-115517726D01*
X91220000Y-115720584D01*
X91220000Y-115927416D01*
X91179650Y-116130274D01*
X91100498Y-116321362D01*
X90985589Y-116493336D01*
X90839336Y-116639589D01*
X90667362Y-116754498D01*
X90476274Y-116833650D01*
X90298687Y-116868973D01*
X90273417Y-116874000D01*
X90066583Y-116874000D01*
X90041313Y-116868973D01*
X89863726Y-116833650D01*
X89672638Y-116754498D01*
X89500664Y-116639589D01*
X89354411Y-116493336D01*
X89239502Y-116321362D01*
X89160350Y-116130274D01*
X89120000Y-115927416D01*
X89120000Y-115720584D01*
X89160350Y-115517726D01*
X89239502Y-115326638D01*
X89354411Y-115154664D01*
X89500664Y-115008411D01*
X89672638Y-114893502D01*
X89863726Y-114814350D01*
X90041313Y-114779027D01*
X90066583Y-114774000D01*
X90273417Y-114774000D01*
X90298687Y-114779027D01*
G37*
G36*
X91220000Y-114334000D02*
G01*
X89120000Y-114334000D01*
X89120000Y-112234000D01*
X91220000Y-112234000D01*
X91220000Y-114334000D01*
G37*
G36*
X42696026Y-111622115D02*
G01*
X42914411Y-111712573D01*
X42914413Y-111712574D01*
X43110955Y-111843899D01*
X43278101Y-112011045D01*
X43409427Y-112207589D01*
X43499885Y-112425974D01*
X43546000Y-112657809D01*
X43546000Y-112894191D01*
X43499885Y-113126026D01*
X43409427Y-113344411D01*
X43409426Y-113344413D01*
X43278101Y-113540955D01*
X43110955Y-113708101D01*
X42914413Y-113839426D01*
X42914412Y-113839427D01*
X42914411Y-113839427D01*
X42696026Y-113929885D01*
X42464191Y-113976000D01*
X42227809Y-113976000D01*
X41995974Y-113929885D01*
X41777589Y-113839427D01*
X41777588Y-113839427D01*
X41777587Y-113839426D01*
X41581045Y-113708101D01*
X41413899Y-113540955D01*
X41282574Y-113344413D01*
X41282573Y-113344411D01*
X41192115Y-113126026D01*
X41146000Y-112894191D01*
X41146000Y-112657809D01*
X41192115Y-112425974D01*
X41282573Y-112207589D01*
X41413899Y-112011045D01*
X41581045Y-111843899D01*
X41777587Y-111712574D01*
X41777589Y-111712573D01*
X41995974Y-111622115D01*
X42227809Y-111576000D01*
X42464191Y-111576000D01*
X42696026Y-111622115D01*
G37*
G36*
X38196026Y-111622115D02*
G01*
X38414411Y-111712573D01*
X38414413Y-111712574D01*
X38610955Y-111843899D01*
X38778101Y-112011045D01*
X38909427Y-112207589D01*
X38999885Y-112425974D01*
X39046000Y-112657809D01*
X39046000Y-112894191D01*
X38999885Y-113126026D01*
X38909427Y-113344411D01*
X38909426Y-113344413D01*
X38778101Y-113540955D01*
X38610955Y-113708101D01*
X38414413Y-113839426D01*
X38414412Y-113839427D01*
X38414411Y-113839427D01*
X38196026Y-113929885D01*
X37964191Y-113976000D01*
X37727809Y-113976000D01*
X37495974Y-113929885D01*
X37277589Y-113839427D01*
X37277588Y-113839427D01*
X37277587Y-113839426D01*
X37081045Y-113708101D01*
X36913899Y-113540955D01*
X36782574Y-113344413D01*
X36782573Y-113344411D01*
X36692115Y-113126026D01*
X36646000Y-112894191D01*
X36646000Y-112657809D01*
X36692115Y-112425974D01*
X36782573Y-112207589D01*
X36913899Y-112011045D01*
X37081045Y-111843899D01*
X37277587Y-111712574D01*
X37277589Y-111712573D01*
X37495974Y-111622115D01*
X37727809Y-111576000D01*
X37964191Y-111576000D01*
X38196026Y-111622115D01*
G37*
G36*
X53872026Y-108828115D02*
G01*
X54090411Y-108918573D01*
X54090413Y-108918574D01*
X54286955Y-109049899D01*
X54454101Y-109217045D01*
X54585427Y-109413589D01*
X54675885Y-109631974D01*
X54722000Y-109863809D01*
X54722000Y-110100191D01*
X54675885Y-110332026D01*
X54585427Y-110550411D01*
X54585426Y-110550413D01*
X54454101Y-110746955D01*
X54286955Y-110914101D01*
X54090413Y-111045426D01*
X54090412Y-111045427D01*
X54090411Y-111045427D01*
X53872026Y-111135885D01*
X53640191Y-111182000D01*
X53403809Y-111182000D01*
X53171974Y-111135885D01*
X52953589Y-111045427D01*
X52953588Y-111045427D01*
X52953587Y-111045426D01*
X52757045Y-110914101D01*
X52589899Y-110746955D01*
X52458574Y-110550413D01*
X52458573Y-110550411D01*
X52368115Y-110332026D01*
X52322000Y-110100191D01*
X52322000Y-109863809D01*
X52368115Y-109631974D01*
X52458573Y-109413589D01*
X52589899Y-109217045D01*
X52757045Y-109049899D01*
X52953587Y-108918574D01*
X52953589Y-108918573D01*
X53171974Y-108828115D01*
X53403809Y-108782000D01*
X53640191Y-108782000D01*
X53872026Y-108828115D01*
G37*
G36*
X49372026Y-108828115D02*
G01*
X49590411Y-108918573D01*
X49590413Y-108918574D01*
X49786955Y-109049899D01*
X49954101Y-109217045D01*
X50085427Y-109413589D01*
X50175885Y-109631974D01*
X50222000Y-109863809D01*
X50222000Y-110100191D01*
X50175885Y-110332026D01*
X50085427Y-110550411D01*
X50085426Y-110550413D01*
X49954101Y-110746955D01*
X49786955Y-110914101D01*
X49590413Y-111045426D01*
X49590412Y-111045427D01*
X49590411Y-111045427D01*
X49372026Y-111135885D01*
X49140191Y-111182000D01*
X48903809Y-111182000D01*
X48671974Y-111135885D01*
X48453589Y-111045427D01*
X48453588Y-111045427D01*
X48453587Y-111045426D01*
X48257045Y-110914101D01*
X48089899Y-110746955D01*
X47958574Y-110550413D01*
X47958573Y-110550411D01*
X47868115Y-110332026D01*
X47822000Y-110100191D01*
X47822000Y-109863809D01*
X47868115Y-109631974D01*
X47958573Y-109413589D01*
X48089899Y-109217045D01*
X48257045Y-109049899D01*
X48453587Y-108918574D01*
X48453589Y-108918573D01*
X48671974Y-108828115D01*
X48903809Y-108782000D01*
X49140191Y-108782000D01*
X49372026Y-108828115D01*
G37*
G36*
X42696026Y-105122115D02*
G01*
X42914411Y-105212573D01*
X42914413Y-105212574D01*
X43110955Y-105343899D01*
X43278101Y-105511045D01*
X43409427Y-105707589D01*
X43499885Y-105925974D01*
X43546000Y-106157809D01*
X43546000Y-106394191D01*
X43499885Y-106626026D01*
X43456620Y-106730476D01*
X43409426Y-106844413D01*
X43278101Y-107040955D01*
X43110955Y-107208101D01*
X42914413Y-107339426D01*
X42914412Y-107339427D01*
X42914411Y-107339427D01*
X42696026Y-107429885D01*
X42464191Y-107476000D01*
X42227809Y-107476000D01*
X41995974Y-107429885D01*
X41777589Y-107339427D01*
X41777588Y-107339427D01*
X41777587Y-107339426D01*
X41581045Y-107208101D01*
X41413899Y-107040955D01*
X41282574Y-106844413D01*
X41235380Y-106730476D01*
X41192115Y-106626026D01*
X41146000Y-106394191D01*
X41146000Y-106157809D01*
X41192115Y-105925974D01*
X41282573Y-105707589D01*
X41413899Y-105511045D01*
X41581045Y-105343899D01*
X41777587Y-105212574D01*
X41777589Y-105212573D01*
X41995974Y-105122115D01*
X42227809Y-105076000D01*
X42464191Y-105076000D01*
X42696026Y-105122115D01*
G37*
G36*
X38196026Y-105122115D02*
G01*
X38414411Y-105212573D01*
X38414413Y-105212574D01*
X38610955Y-105343899D01*
X38778101Y-105511045D01*
X38909427Y-105707589D01*
X38999885Y-105925974D01*
X39046000Y-106157809D01*
X39046000Y-106394191D01*
X38999885Y-106626026D01*
X38956620Y-106730476D01*
X38909426Y-106844413D01*
X38778101Y-107040955D01*
X38610955Y-107208101D01*
X38414413Y-107339426D01*
X38414412Y-107339427D01*
X38414411Y-107339427D01*
X38196026Y-107429885D01*
X37964191Y-107476000D01*
X37727809Y-107476000D01*
X37495974Y-107429885D01*
X37277589Y-107339427D01*
X37277588Y-107339427D01*
X37277587Y-107339426D01*
X37081045Y-107208101D01*
X36913899Y-107040955D01*
X36782574Y-106844413D01*
X36735380Y-106730476D01*
X36692115Y-106626026D01*
X36646000Y-106394191D01*
X36646000Y-106157809D01*
X36692115Y-105925974D01*
X36782573Y-105707589D01*
X36913899Y-105511045D01*
X37081045Y-105343899D01*
X37277587Y-105212574D01*
X37277589Y-105212573D01*
X37495974Y-105122115D01*
X37727809Y-105076000D01*
X37964191Y-105076000D01*
X38196026Y-105122115D01*
G37*
G36*
X84151653Y-103742665D02*
G01*
X84315872Y-103775330D01*
X84625252Y-103903479D01*
X84903687Y-104089523D01*
X85140477Y-104326313D01*
X85326521Y-104604748D01*
X85454670Y-104914128D01*
X85454670Y-104914130D01*
X85514035Y-105212574D01*
X85520000Y-105242565D01*
X85520000Y-105577435D01*
X85454670Y-105905872D01*
X85326521Y-106215252D01*
X85140477Y-106493687D01*
X84903687Y-106730477D01*
X84625252Y-106916521D01*
X84315872Y-107044670D01*
X84151654Y-107077335D01*
X83987437Y-107110000D01*
X83652563Y-107110000D01*
X83488346Y-107077335D01*
X83324128Y-107044670D01*
X83014748Y-106916521D01*
X82736313Y-106730477D01*
X82499523Y-106493687D01*
X82313479Y-106215252D01*
X82185330Y-105905872D01*
X82120000Y-105577435D01*
X82120000Y-105242565D01*
X82125966Y-105212574D01*
X82185330Y-104914130D01*
X82185330Y-104914128D01*
X82313479Y-104604748D01*
X82499523Y-104326313D01*
X82736313Y-104089523D01*
X83014748Y-103903479D01*
X83324128Y-103775330D01*
X83488347Y-103742665D01*
X83652563Y-103710000D01*
X83987437Y-103710000D01*
X84151653Y-103742665D01*
G37*
G36*
X53872026Y-102328115D02*
G01*
X54090411Y-102418573D01*
X54090413Y-102418574D01*
X54286955Y-102549899D01*
X54454101Y-102717045D01*
X54563412Y-102880640D01*
X54585427Y-102913589D01*
X54675885Y-103131974D01*
X54722000Y-103363809D01*
X54722000Y-103600191D01*
X54675885Y-103832026D01*
X54646288Y-103903479D01*
X54585426Y-104050413D01*
X54454101Y-104246955D01*
X54286955Y-104414101D01*
X54090413Y-104545426D01*
X54090412Y-104545427D01*
X54090411Y-104545427D01*
X53872026Y-104635885D01*
X53640191Y-104682000D01*
X53403809Y-104682000D01*
X53171974Y-104635885D01*
X52953589Y-104545427D01*
X52953588Y-104545427D01*
X52953587Y-104545426D01*
X52757045Y-104414101D01*
X52589899Y-104246955D01*
X52458574Y-104050413D01*
X52397712Y-103903479D01*
X52368115Y-103832026D01*
X52322000Y-103600191D01*
X52322000Y-103363809D01*
X52368115Y-103131974D01*
X52458573Y-102913589D01*
X52480589Y-102880640D01*
X52589899Y-102717045D01*
X52757045Y-102549899D01*
X52953587Y-102418574D01*
X52953589Y-102418573D01*
X53171974Y-102328115D01*
X53403809Y-102282000D01*
X53640191Y-102282000D01*
X53872026Y-102328115D01*
G37*
G36*
X49372026Y-102328115D02*
G01*
X49590411Y-102418573D01*
X49590413Y-102418574D01*
X49786955Y-102549899D01*
X49954101Y-102717045D01*
X50063412Y-102880640D01*
X50085427Y-102913589D01*
X50175885Y-103131974D01*
X50222000Y-103363809D01*
X50222000Y-103600191D01*
X50175885Y-103832026D01*
X50146288Y-103903479D01*
X50085426Y-104050413D01*
X49954101Y-104246955D01*
X49786955Y-104414101D01*
X49590413Y-104545426D01*
X49590412Y-104545427D01*
X49590411Y-104545427D01*
X49372026Y-104635885D01*
X49140191Y-104682000D01*
X48903809Y-104682000D01*
X48671974Y-104635885D01*
X48453589Y-104545427D01*
X48453588Y-104545427D01*
X48453587Y-104545426D01*
X48257045Y-104414101D01*
X48089899Y-104246955D01*
X47958574Y-104050413D01*
X47897712Y-103903479D01*
X47868115Y-103832026D01*
X47822000Y-103600191D01*
X47822000Y-103363809D01*
X47868115Y-103131974D01*
X47958573Y-102913589D01*
X47980589Y-102880640D01*
X48089899Y-102717045D01*
X48257045Y-102549899D01*
X48453587Y-102418574D01*
X48453589Y-102418573D01*
X48671974Y-102328115D01*
X48903809Y-102282000D01*
X49140191Y-102282000D01*
X49372026Y-102328115D01*
G37*
G36*
X63120687Y-102333027D02*
G01*
X63298274Y-102368350D01*
X63489362Y-102447502D01*
X63661336Y-102562411D01*
X63807589Y-102708664D01*
X63922498Y-102880638D01*
X64001650Y-103071726D01*
X64042000Y-103274584D01*
X64042000Y-103481416D01*
X64001650Y-103684274D01*
X63922498Y-103875362D01*
X63807589Y-104047336D01*
X63661336Y-104193589D01*
X63489362Y-104308498D01*
X63298274Y-104387650D01*
X63120687Y-104422973D01*
X63095417Y-104428000D01*
X62888583Y-104428000D01*
X62863313Y-104422973D01*
X62685726Y-104387650D01*
X62494638Y-104308498D01*
X62322664Y-104193589D01*
X62176411Y-104047336D01*
X62061502Y-103875362D01*
X61982350Y-103684274D01*
X61942000Y-103481416D01*
X61942000Y-103274584D01*
X61982350Y-103071726D01*
X62061502Y-102880638D01*
X62176411Y-102708664D01*
X62322664Y-102562411D01*
X62494638Y-102447502D01*
X62685726Y-102368350D01*
X62863313Y-102333027D01*
X62888583Y-102328000D01*
X63095417Y-102328000D01*
X63120687Y-102333027D01*
G37*
G36*
X61502000Y-104428000D02*
G01*
X59402000Y-104428000D01*
X59402000Y-102328000D01*
X61502000Y-102328000D01*
X61502000Y-104428000D01*
G37*
G36*
X65660687Y-102333027D02*
G01*
X65838274Y-102368350D01*
X66029362Y-102447502D01*
X66201336Y-102562411D01*
X66347589Y-102708664D01*
X66462498Y-102880638D01*
X66541650Y-103071726D01*
X66582000Y-103274584D01*
X66582000Y-103481416D01*
X66541650Y-103684274D01*
X66462498Y-103875362D01*
X66347589Y-104047336D01*
X66201336Y-104193589D01*
X66029362Y-104308498D01*
X65838274Y-104387650D01*
X65660687Y-104422973D01*
X65635417Y-104428000D01*
X65428583Y-104428000D01*
X65403313Y-104422973D01*
X65225726Y-104387650D01*
X65034638Y-104308498D01*
X64862664Y-104193589D01*
X64716411Y-104047336D01*
X64601502Y-103875362D01*
X64522350Y-103684274D01*
X64482000Y-103481416D01*
X64482000Y-103274584D01*
X64522350Y-103071726D01*
X64601502Y-102880638D01*
X64716411Y-102708664D01*
X64862664Y-102562411D01*
X65034638Y-102447502D01*
X65225726Y-102368350D01*
X65403313Y-102333027D01*
X65428583Y-102328000D01*
X65635417Y-102328000D01*
X65660687Y-102333027D01*
G37*
G36*
X73280687Y-102333027D02*
G01*
X73458274Y-102368350D01*
X73649362Y-102447502D01*
X73821336Y-102562411D01*
X73967589Y-102708664D01*
X74082498Y-102880638D01*
X74161650Y-103071726D01*
X74202000Y-103274584D01*
X74202000Y-103481416D01*
X74161650Y-103684274D01*
X74082498Y-103875362D01*
X73967589Y-104047336D01*
X73821336Y-104193589D01*
X73649362Y-104308498D01*
X73458274Y-104387650D01*
X73280687Y-104422973D01*
X73255417Y-104428000D01*
X73048583Y-104428000D01*
X73023313Y-104422973D01*
X72845726Y-104387650D01*
X72654638Y-104308498D01*
X72482664Y-104193589D01*
X72336411Y-104047336D01*
X72221502Y-103875362D01*
X72142350Y-103684274D01*
X72102000Y-103481416D01*
X72102000Y-103274584D01*
X72142350Y-103071726D01*
X72221502Y-102880638D01*
X72336411Y-102708664D01*
X72482664Y-102562411D01*
X72654638Y-102447502D01*
X72845726Y-102368350D01*
X73023313Y-102333027D01*
X73048583Y-102328000D01*
X73255417Y-102328000D01*
X73280687Y-102333027D01*
G37*
G36*
X70740687Y-102333027D02*
G01*
X70918274Y-102368350D01*
X71109362Y-102447502D01*
X71281336Y-102562411D01*
X71427589Y-102708664D01*
X71542498Y-102880638D01*
X71621650Y-103071726D01*
X71662000Y-103274584D01*
X71662000Y-103481416D01*
X71621650Y-103684274D01*
X71542498Y-103875362D01*
X71427589Y-104047336D01*
X71281336Y-104193589D01*
X71109362Y-104308498D01*
X70918274Y-104387650D01*
X70740687Y-104422973D01*
X70715417Y-104428000D01*
X70508583Y-104428000D01*
X70483313Y-104422973D01*
X70305726Y-104387650D01*
X70114638Y-104308498D01*
X69942664Y-104193589D01*
X69796411Y-104047336D01*
X69681502Y-103875362D01*
X69602350Y-103684274D01*
X69562000Y-103481416D01*
X69562000Y-103274584D01*
X69602350Y-103071726D01*
X69681502Y-102880638D01*
X69796411Y-102708664D01*
X69942664Y-102562411D01*
X70114638Y-102447502D01*
X70305726Y-102368350D01*
X70483313Y-102333027D01*
X70508583Y-102328000D01*
X70715417Y-102328000D01*
X70740687Y-102333027D01*
G37*
G36*
X68200687Y-102333027D02*
G01*
X68378274Y-102368350D01*
X68569362Y-102447502D01*
X68741336Y-102562411D01*
X68887589Y-102708664D01*
X69002498Y-102880638D01*
X69081650Y-103071726D01*
X69122000Y-103274584D01*
X69122000Y-103481416D01*
X69081650Y-103684274D01*
X69002498Y-103875362D01*
X68887589Y-104047336D01*
X68741336Y-104193589D01*
X68569362Y-104308498D01*
X68378274Y-104387650D01*
X68200687Y-104422973D01*
X68175417Y-104428000D01*
X67968583Y-104428000D01*
X67943313Y-104422973D01*
X67765726Y-104387650D01*
X67574638Y-104308498D01*
X67402664Y-104193589D01*
X67256411Y-104047336D01*
X67141502Y-103875362D01*
X67062350Y-103684274D01*
X67022000Y-103481416D01*
X67022000Y-103274584D01*
X67062350Y-103071726D01*
X67141502Y-102880638D01*
X67256411Y-102708664D01*
X67402664Y-102562411D01*
X67574638Y-102447502D01*
X67765726Y-102368350D01*
X67943313Y-102333027D01*
X67968583Y-102328000D01*
X68175417Y-102328000D01*
X68200687Y-102333027D01*
G37*
G36*
X84151653Y-98662665D02*
G01*
X84315872Y-98695330D01*
X84625252Y-98823479D01*
X84903687Y-99009523D01*
X85140477Y-99246313D01*
X85326521Y-99524748D01*
X85454670Y-99834128D01*
X85487335Y-99998347D01*
X85520000Y-100162563D01*
X85520000Y-100497437D01*
X85504044Y-100577650D01*
X85454670Y-100825872D01*
X85326521Y-101135252D01*
X85140477Y-101413687D01*
X84903687Y-101650477D01*
X84625252Y-101836521D01*
X84315872Y-101964670D01*
X84151653Y-101997335D01*
X83987437Y-102030000D01*
X83652563Y-102030000D01*
X83488346Y-101997335D01*
X83324128Y-101964670D01*
X83014748Y-101836521D01*
X82736313Y-101650477D01*
X82499523Y-101413687D01*
X82313479Y-101135252D01*
X82185330Y-100825872D01*
X82135956Y-100577650D01*
X82120000Y-100497437D01*
X82120000Y-100162563D01*
X82152665Y-99998347D01*
X82185330Y-99834128D01*
X82313479Y-99524748D01*
X82499523Y-99246313D01*
X82736313Y-99009523D01*
X83014748Y-98823479D01*
X83324128Y-98695330D01*
X83488346Y-98662665D01*
X83652563Y-98630000D01*
X83987437Y-98630000D01*
X84151653Y-98662665D01*
G37*
G36*
X63120687Y-98523027D02*
G01*
X63298274Y-98558350D01*
X63489362Y-98637502D01*
X63661336Y-98752411D01*
X63807589Y-98898664D01*
X63922498Y-99070638D01*
X64001650Y-99261726D01*
X64042000Y-99464584D01*
X64042000Y-99671416D01*
X64001650Y-99874274D01*
X63922498Y-100065362D01*
X63807589Y-100237336D01*
X63661336Y-100383589D01*
X63489362Y-100498498D01*
X63298274Y-100577650D01*
X63120687Y-100612973D01*
X63095417Y-100618000D01*
X62888583Y-100618000D01*
X62863313Y-100612973D01*
X62685726Y-100577650D01*
X62494638Y-100498498D01*
X62322664Y-100383589D01*
X62176411Y-100237336D01*
X62061502Y-100065362D01*
X61982350Y-99874274D01*
X61942000Y-99671416D01*
X61942000Y-99464584D01*
X61982350Y-99261726D01*
X62061502Y-99070638D01*
X62176411Y-98898664D01*
X62322664Y-98752411D01*
X62494638Y-98637502D01*
X62685726Y-98558350D01*
X62863313Y-98523027D01*
X62888583Y-98518000D01*
X63095417Y-98518000D01*
X63120687Y-98523027D01*
G37*
G36*
X73280687Y-98523027D02*
G01*
X73458274Y-98558350D01*
X73649362Y-98637502D01*
X73821336Y-98752411D01*
X73967589Y-98898664D01*
X74082498Y-99070638D01*
X74161650Y-99261726D01*
X74202000Y-99464584D01*
X74202000Y-99671416D01*
X74161650Y-99874274D01*
X74082498Y-100065362D01*
X73967589Y-100237336D01*
X73821336Y-100383589D01*
X73649362Y-100498498D01*
X73458274Y-100577650D01*
X73280687Y-100612973D01*
X73255417Y-100618000D01*
X73048583Y-100618000D01*
X73023313Y-100612973D01*
X72845726Y-100577650D01*
X72654638Y-100498498D01*
X72482664Y-100383589D01*
X72336411Y-100237336D01*
X72221502Y-100065362D01*
X72142350Y-99874274D01*
X72102000Y-99671416D01*
X72102000Y-99464584D01*
X72142350Y-99261726D01*
X72221502Y-99070638D01*
X72336411Y-98898664D01*
X72482664Y-98752411D01*
X72654638Y-98637502D01*
X72845726Y-98558350D01*
X73023313Y-98523027D01*
X73048583Y-98518000D01*
X73255417Y-98518000D01*
X73280687Y-98523027D01*
G37*
G36*
X70740687Y-98523027D02*
G01*
X70918274Y-98558350D01*
X71109362Y-98637502D01*
X71281336Y-98752411D01*
X71427589Y-98898664D01*
X71542498Y-99070638D01*
X71621650Y-99261726D01*
X71662000Y-99464584D01*
X71662000Y-99671416D01*
X71621650Y-99874274D01*
X71542498Y-100065362D01*
X71427589Y-100237336D01*
X71281336Y-100383589D01*
X71109362Y-100498498D01*
X70918274Y-100577650D01*
X70740687Y-100612973D01*
X70715417Y-100618000D01*
X70508583Y-100618000D01*
X70483313Y-100612973D01*
X70305726Y-100577650D01*
X70114638Y-100498498D01*
X69942664Y-100383589D01*
X69796411Y-100237336D01*
X69681502Y-100065362D01*
X69602350Y-99874274D01*
X69562000Y-99671416D01*
X69562000Y-99464584D01*
X69602350Y-99261726D01*
X69681502Y-99070638D01*
X69796411Y-98898664D01*
X69942664Y-98752411D01*
X70114638Y-98637502D01*
X70305726Y-98558350D01*
X70483313Y-98523027D01*
X70508583Y-98518000D01*
X70715417Y-98518000D01*
X70740687Y-98523027D01*
G37*
G36*
X61502000Y-100618000D02*
G01*
X59402000Y-100618000D01*
X59402000Y-98518000D01*
X61502000Y-98518000D01*
X61502000Y-100618000D01*
G37*
G36*
X65660687Y-98523027D02*
G01*
X65838274Y-98558350D01*
X66029362Y-98637502D01*
X66201336Y-98752411D01*
X66347589Y-98898664D01*
X66462498Y-99070638D01*
X66541650Y-99261726D01*
X66582000Y-99464584D01*
X66582000Y-99671416D01*
X66541650Y-99874274D01*
X66462498Y-100065362D01*
X66347589Y-100237336D01*
X66201336Y-100383589D01*
X66029362Y-100498498D01*
X65838274Y-100577650D01*
X65660687Y-100612973D01*
X65635417Y-100618000D01*
X65428583Y-100618000D01*
X65403313Y-100612973D01*
X65225726Y-100577650D01*
X65034638Y-100498498D01*
X64862664Y-100383589D01*
X64716411Y-100237336D01*
X64601502Y-100065362D01*
X64522350Y-99874274D01*
X64482000Y-99671416D01*
X64482000Y-99464584D01*
X64522350Y-99261726D01*
X64601502Y-99070638D01*
X64716411Y-98898664D01*
X64862664Y-98752411D01*
X65034638Y-98637502D01*
X65225726Y-98558350D01*
X65403313Y-98523027D01*
X65428583Y-98518000D01*
X65635417Y-98518000D01*
X65660687Y-98523027D01*
G37*
G36*
X68200687Y-98523027D02*
G01*
X68378274Y-98558350D01*
X68569362Y-98637502D01*
X68741336Y-98752411D01*
X68887589Y-98898664D01*
X69002498Y-99070638D01*
X69081650Y-99261726D01*
X69122000Y-99464584D01*
X69122000Y-99671416D01*
X69081650Y-99874274D01*
X69002498Y-100065362D01*
X68887589Y-100237336D01*
X68741336Y-100383589D01*
X68569362Y-100498498D01*
X68378274Y-100577650D01*
X68200687Y-100612973D01*
X68175417Y-100618000D01*
X67968583Y-100618000D01*
X67943313Y-100612973D01*
X67765726Y-100577650D01*
X67574638Y-100498498D01*
X67402664Y-100383589D01*
X67256411Y-100237336D01*
X67141502Y-100065362D01*
X67062350Y-99874274D01*
X67022000Y-99671416D01*
X67022000Y-99464584D01*
X67062350Y-99261726D01*
X67141502Y-99070638D01*
X67256411Y-98898664D01*
X67402664Y-98752411D01*
X67574638Y-98637502D01*
X67765726Y-98558350D01*
X67943313Y-98523027D01*
X67968583Y-98518000D01*
X68175417Y-98518000D01*
X68200687Y-98523027D01*
G37*
G36*
X53286000Y-99583000D02*
G01*
X51362000Y-99583000D01*
X51362000Y-97659000D01*
X53286000Y-97659000D01*
X53286000Y-99583000D01*
G37*
G36*
X50746000Y-99583000D02*
G01*
X48822000Y-99583000D01*
X48822000Y-97659000D01*
X50746000Y-97659000D01*
X50746000Y-99583000D01*
G37*
G36*
X42618000Y-99583000D02*
G01*
X40694000Y-99583000D01*
X40694000Y-97659000D01*
X42618000Y-97659000D01*
X42618000Y-99583000D01*
G37*
G36*
X40078000Y-99583000D02*
G01*
X38154000Y-99583000D01*
X38154000Y-97659000D01*
X40078000Y-97659000D01*
X40078000Y-99583000D01*
G37*
G36*
X59564687Y-92935027D02*
G01*
X59742274Y-92970350D01*
X59933362Y-93049502D01*
X60105336Y-93164411D01*
X60251589Y-93310664D01*
X60366498Y-93482638D01*
X60445650Y-93673726D01*
X60486000Y-93876584D01*
X60486000Y-94083416D01*
X60445650Y-94286274D01*
X60366498Y-94477362D01*
X60251589Y-94649336D01*
X60105336Y-94795589D01*
X59933362Y-94910498D01*
X59742274Y-94989650D01*
X59564687Y-95024973D01*
X59539417Y-95030000D01*
X59332583Y-95030000D01*
X59307313Y-95024973D01*
X59129726Y-94989650D01*
X58938638Y-94910498D01*
X58766664Y-94795589D01*
X58620411Y-94649336D01*
X58505502Y-94477362D01*
X58426350Y-94286274D01*
X58386000Y-94083416D01*
X58386000Y-93876584D01*
X58426350Y-93673726D01*
X58505502Y-93482638D01*
X58620411Y-93310664D01*
X58766664Y-93164411D01*
X58938638Y-93049502D01*
X59129726Y-92970350D01*
X59307313Y-92935027D01*
X59332583Y-92930000D01*
X59539417Y-92930000D01*
X59564687Y-92935027D01*
G37*
G36*
X60486000Y-92490000D02*
G01*
X58386000Y-92490000D01*
X58386000Y-90390000D01*
X60486000Y-90390000D01*
X60486000Y-92490000D01*
G37*
G36*
X92490000Y-89950000D02*
G01*
X90390000Y-89950000D01*
X90390000Y-87850000D01*
X92490000Y-87850000D01*
X92490000Y-89950000D01*
G37*
G36*
X91568687Y-85315027D02*
G01*
X91746274Y-85350350D01*
X91937362Y-85429502D01*
X92109336Y-85544411D01*
X92255589Y-85690664D01*
X92370498Y-85862638D01*
X92449650Y-86053726D01*
X92490000Y-86256584D01*
X92490000Y-86463416D01*
X92449650Y-86666274D01*
X92370498Y-86857362D01*
X92255589Y-87029336D01*
X92109336Y-87175589D01*
X91937362Y-87290498D01*
X91746274Y-87369650D01*
X91568687Y-87404973D01*
X91543417Y-87410000D01*
X91336583Y-87410000D01*
X91311313Y-87404973D01*
X91133726Y-87369650D01*
X90942638Y-87290498D01*
X90770664Y-87175589D01*
X90624411Y-87029336D01*
X90509502Y-86857362D01*
X90430350Y-86666274D01*
X90390000Y-86463416D01*
X90390000Y-86256584D01*
X90430350Y-86053726D01*
X90509502Y-85862638D01*
X90624411Y-85690664D01*
X90770664Y-85544411D01*
X90942638Y-85429502D01*
X91133726Y-85350350D01*
X91311313Y-85315027D01*
X91336583Y-85310000D01*
X91543417Y-85310000D01*
X91568687Y-85315027D01*
G37*
G36*
X91568687Y-82775027D02*
G01*
X91746274Y-82810350D01*
X91937362Y-82889502D01*
X92109336Y-83004411D01*
X92255589Y-83150664D01*
X92370498Y-83322638D01*
X92449650Y-83513726D01*
X92490000Y-83716584D01*
X92490000Y-83923416D01*
X92449650Y-84126274D01*
X92370498Y-84317362D01*
X92255589Y-84489336D01*
X92109336Y-84635589D01*
X91937362Y-84750498D01*
X91746274Y-84829650D01*
X91568687Y-84864973D01*
X91543417Y-84870000D01*
X91336583Y-84870000D01*
X91311313Y-84864973D01*
X91133726Y-84829650D01*
X90942638Y-84750498D01*
X90770664Y-84635589D01*
X90624411Y-84489336D01*
X90509502Y-84317362D01*
X90430350Y-84126274D01*
X90390000Y-83923416D01*
X90390000Y-83716584D01*
X90430350Y-83513726D01*
X90509502Y-83322638D01*
X90624411Y-83150664D01*
X90770664Y-83004411D01*
X90942638Y-82889502D01*
X91133726Y-82810350D01*
X91311313Y-82775027D01*
X91336583Y-82770000D01*
X91543417Y-82770000D01*
X91568687Y-82775027D01*
G37*
G36*
X91568687Y-80235027D02*
G01*
X91746274Y-80270350D01*
X91937362Y-80349502D01*
X92109336Y-80464411D01*
X92255589Y-80610664D01*
X92370498Y-80782638D01*
X92449650Y-80973726D01*
X92490000Y-81176584D01*
X92490000Y-81383416D01*
X92449650Y-81586274D01*
X92370498Y-81777362D01*
X92255589Y-81949336D01*
X92109336Y-82095589D01*
X91937362Y-82210498D01*
X91746274Y-82289650D01*
X91568687Y-82324973D01*
X91543417Y-82330000D01*
X91336583Y-82330000D01*
X91311313Y-82324973D01*
X91133726Y-82289650D01*
X90942638Y-82210498D01*
X90770664Y-82095589D01*
X90624411Y-81949336D01*
X90509502Y-81777362D01*
X90430350Y-81586274D01*
X90390000Y-81383416D01*
X90390000Y-81176584D01*
X90430350Y-80973726D01*
X90509502Y-80782638D01*
X90624411Y-80610664D01*
X90770664Y-80464411D01*
X90942638Y-80349502D01*
X91133726Y-80270350D01*
X91311313Y-80235027D01*
X91336583Y-80230000D01*
X91543417Y-80230000D01*
X91568687Y-80235027D01*
G37*
G36*
X58399351Y-80256743D02*
G01*
X58544941Y-80317048D01*
X58675970Y-80404599D01*
X58787401Y-80516030D01*
X58874952Y-80647059D01*
X58935257Y-80792649D01*
X58966000Y-80947206D01*
X58966000Y-81104794D01*
X58935257Y-81259351D01*
X58874952Y-81404941D01*
X58787401Y-81535970D01*
X58675970Y-81647401D01*
X58544941Y-81734952D01*
X58399351Y-81795257D01*
X58244794Y-81826000D01*
X58087206Y-81826000D01*
X57932649Y-81795257D01*
X57787059Y-81734952D01*
X57656030Y-81647401D01*
X57544599Y-81535970D01*
X57457048Y-81404941D01*
X57396743Y-81259351D01*
X57366000Y-81104794D01*
X57366000Y-80947206D01*
X57396743Y-80792649D01*
X57457048Y-80647059D01*
X57544599Y-80516030D01*
X57656030Y-80404599D01*
X57787059Y-80317048D01*
X57932649Y-80256743D01*
X58087206Y-80226000D01*
X58244794Y-80226000D01*
X58399351Y-80256743D01*
G37*
G36*
X40078000Y-80591000D02*
G01*
X38154000Y-80591000D01*
X38154000Y-78667000D01*
X40078000Y-78667000D01*
X40078000Y-80591000D01*
G37*
G36*
X42618000Y-80591000D02*
G01*
X40694000Y-80591000D01*
X40694000Y-78667000D01*
X42618000Y-78667000D01*
X42618000Y-80591000D01*
G37*
G36*
X50746000Y-80464000D02*
G01*
X48822000Y-80464000D01*
X48822000Y-78540000D01*
X50746000Y-78540000D01*
X50746000Y-80464000D01*
G37*
G36*
X53286000Y-80464000D02*
G01*
X51362000Y-80464000D01*
X51362000Y-78540000D01*
X53286000Y-78540000D01*
X53286000Y-80464000D01*
G37*
G36*
X58966000Y-79826000D02*
G01*
X57366000Y-79826000D01*
X57366000Y-78226000D01*
X58966000Y-78226000D01*
X58966000Y-79826000D01*
G37*
G36*
X91568687Y-77695027D02*
G01*
X91746274Y-77730350D01*
X91937362Y-77809502D01*
X92109336Y-77924411D01*
X92255589Y-78070664D01*
X92370498Y-78242638D01*
X92449650Y-78433726D01*
X92490000Y-78636584D01*
X92490000Y-78843416D01*
X92449650Y-79046274D01*
X92370498Y-79237362D01*
X92255589Y-79409336D01*
X92109336Y-79555589D01*
X91937362Y-79670498D01*
X91746274Y-79749650D01*
X91568687Y-79784973D01*
X91543417Y-79790000D01*
X91336583Y-79790000D01*
X91311313Y-79784973D01*
X91133726Y-79749650D01*
X90942638Y-79670498D01*
X90770664Y-79555589D01*
X90624411Y-79409336D01*
X90509502Y-79237362D01*
X90430350Y-79046274D01*
X90390000Y-78843416D01*
X90390000Y-78636584D01*
X90430350Y-78433726D01*
X90509502Y-78242638D01*
X90624411Y-78070664D01*
X90770664Y-77924411D01*
X90942638Y-77809502D01*
X91133726Y-77730350D01*
X91311313Y-77695027D01*
X91336583Y-77690000D01*
X91543417Y-77690000D01*
X91568687Y-77695027D01*
G37*
G36*
X91568687Y-75155027D02*
G01*
X91746274Y-75190350D01*
X91937362Y-75269502D01*
X92109336Y-75384411D01*
X92255589Y-75530664D01*
X92370498Y-75702638D01*
X92449650Y-75893726D01*
X92490000Y-76096584D01*
X92490000Y-76303416D01*
X92449650Y-76506274D01*
X92370498Y-76697362D01*
X92255589Y-76869336D01*
X92109336Y-77015589D01*
X91937362Y-77130498D01*
X91746274Y-77209650D01*
X91568687Y-77244973D01*
X91543417Y-77250000D01*
X91336583Y-77250000D01*
X91311313Y-77244973D01*
X91133726Y-77209650D01*
X90942638Y-77130498D01*
X90770664Y-77015589D01*
X90624411Y-76869336D01*
X90509502Y-76697362D01*
X90430350Y-76506274D01*
X90390000Y-76303416D01*
X90390000Y-76096584D01*
X90430350Y-75893726D01*
X90509502Y-75702638D01*
X90624411Y-75530664D01*
X90770664Y-75384411D01*
X90942638Y-75269502D01*
X91133726Y-75190350D01*
X91311313Y-75155027D01*
X91336583Y-75150000D01*
X91543417Y-75150000D01*
X91568687Y-75155027D01*
G37*
G36*
X45500000Y-76488000D02*
G01*
X43400000Y-76488000D01*
X43400000Y-74388000D01*
X45500000Y-74388000D01*
X45500000Y-76488000D01*
G37*
G36*
X47118687Y-74393027D02*
G01*
X47296274Y-74428350D01*
X47487362Y-74507502D01*
X47659336Y-74622411D01*
X47805589Y-74768664D01*
X47920498Y-74940638D01*
X47999650Y-75131726D01*
X48040000Y-75334584D01*
X48040000Y-75541416D01*
X47999650Y-75744274D01*
X47920498Y-75935362D01*
X47805589Y-76107336D01*
X47659336Y-76253589D01*
X47487362Y-76368498D01*
X47296274Y-76447650D01*
X47118687Y-76482973D01*
X47093417Y-76488000D01*
X46886583Y-76488000D01*
X46861313Y-76482973D01*
X46683726Y-76447650D01*
X46492638Y-76368498D01*
X46320664Y-76253589D01*
X46174411Y-76107336D01*
X46059502Y-75935362D01*
X45980350Y-75744274D01*
X45940000Y-75541416D01*
X45940000Y-75334584D01*
X45980350Y-75131726D01*
X46059502Y-74940638D01*
X46174411Y-74768664D01*
X46320664Y-74622411D01*
X46492638Y-74507502D01*
X46683726Y-74428350D01*
X46861313Y-74393027D01*
X46886583Y-74388000D01*
X47093417Y-74388000D01*
X47118687Y-74393027D01*
G37*
M02*
